$MeshFormat
2.2 0 8
$EndMeshFormat
$PhysicalNames
3
1 1 "excite"
1 2 "surfOutflow"
2 3 "acouVol"
$EndPhysicalNames
$Nodes
803
1 0.05 0 0
2 0 0 0
3 0 0.8 0
4 0.05 0.8 0
5 0.025 0 0
6 0.025 0.8 0
7 0 0.005000000000000001 0
8 0 0.01 0
9 0 0.015 0
10 0 0.02 0
11 0 0.025 0
12 0 0.03 0
13 0 0.035 0
14 0 0.04000000000000001 0
15 0 0.04500000000000001 0
16 0 0.05 0
17 0 0.05500000000000001 0
18 0 0.06 0
19 0 0.065 0
20 0 0.06999999999999999 0
21 0 0.07500000000000001 0
22 0 0.08000000000000002 0
23 0 0.08500000000000001 0
24 0 0.09000000000000001 0
25 0 0.095 0
26 0 0.1 0
27 0 0.105 0
28 0 0.11 0
29 0 0.115 0
30 0 0.12 0
31 0 0.125 0
32 0 0.13 0
33 0 0.135 0
34 0 0.14 0
35 0 0.145 0
36 0 0.15 0
37 0 0.155 0
38 0 0.16 0
39 0 0.165 0
40 0 0.17 0
41 0 0.175 0
42 0 0.18 0
43 0 0.185 0
44 0 0.19 0
45 0 0.195 0
46 0 0.2 0
47 0 0.205 0
48 0 0.21 0
49 0 0.215 0
50 0 0.22 0
51 0 0.225 0
52 0 0.23 0
53 0 0.235 0
54 0 0.24 0
55 0 0.245 0
56 0 0.25 0
57 0 0.255 0
58 0 0.26 0
59 0 0.265 0
60 0 0.27 0
61 0 0.275 0
62 0 0.28 0
63 0 0.285 0
64 0 0.29 0
65 0 0.295 0
66 0 0.3 0
67 0 0.305 0
68 0 0.3100000000000001 0
69 0 0.315 0
70 0 0.3200000000000001 0
71 0 0.325 0
72 0 0.33 0
73 0 0.335 0
74 0 0.34 0
75 0 0.345 0
76 0 0.35 0
77 0 0.355 0
78 0 0.36 0
79 0 0.365 0
80 0 0.3700000000000001 0
81 0 0.375 0
82 0 0.38 0
83 0 0.385 0
84 0 0.39 0
85 0 0.395 0
86 0 0.4 0
87 0 0.405 0
88 0 0.41 0
89 0 0.415 0
90 0 0.42 0
91 0 0.425 0
92 0 0.43 0
93 0 0.435 0
94 0 0.4400000000000001 0
95 0 0.4450000000000001 0
96 0 0.45 0
97 0 0.455 0
98 0 0.46 0
99 0 0.4650000000000001 0
100 0 0.47 0
101 0 0.475 0
102 0 0.48 0
103 0 0.485 0
104 0 0.49 0
105 0 0.4950000000000001 0
106 0 0.5 0
107 0 0.505 0
108 0 0.51 0
109 0 0.515 0
110 0 0.52 0
111 0 0.525 0
112 0 0.53 0
113 0 0.535 0
114 0 0.54 0
115 0 0.545 0
116 0 0.55 0
117 0 0.555 0
118 0 0.5599999999999999 0
119 0 0.5650000000000001 0
120 0 0.5700000000000001 0
121 0 0.5750000000000001 0
122 0 0.58 0
123 0 0.585 0
124 0 0.5900000000000001 0
125 0 0.5950000000000001 0
126 0 0.6000000000000001 0
127 0 0.605 0
128 0 0.61 0
129 0 0.6150000000000001 0
130 0 0.6200000000000001 0
131 0 0.625 0
132 0 0.63 0
133 0 0.635 0
134 0 0.6400000000000001 0
135 0 0.645 0
136 0 0.65 0
137 0 0.655 0
138 0 0.66 0
139 0 0.665 0
140 0 0.67 0
141 0 0.675 0
142 0 0.68 0
143 0 0.6850000000000001 0
144 0 0.6900000000000001 0
145 0 0.6950000000000001 0
146 0 0.7000000000000001 0
147 0 0.7050000000000001 0
148 0 0.71 0
149 0 0.7150000000000001 0
150 0 0.7200000000000001 0
151 0 0.7250000000000001 0
152 0 0.73 0
153 0 0.735 0
154 0 0.7400000000000001 0
155 0 0.7450000000000001 0
156 0 0.75 0
157 0 0.755 0
158 0 0.76 0
159 0 0.7650000000000001 0
160 0 0.77 0
161 0 0.775 0
162 0 0.78 0
163 0 0.785 0
164 0 0.79 0
165 0 0.795 0
166 0 0.0025 0
167 0 0.007500000000000001 0
168 0 0.0125 0
169 0 0.0175 0
170 0 0.0225 0
171 0 0.0275 0
172 0 0.0325 0
173 0 0.03750000000000001 0
174 0 0.04250000000000001 0
175 0 0.0475 0
176 0 0.0525 0
177 0 0.0575 0
178 0 0.0625 0
179 0 0.0675 0
180 0 0.07250000000000001 0
181 0 0.07750000000000001 0
182 0 0.08250000000000002 0
183 0 0.08750000000000001 0
184 0 0.0925 0
185 0 0.0975 0
186 0 0.1025 0
187 0 0.1075 0
188 0 0.1125 0
189 0 0.1175 0
190 0 0.1225 0
191 0 0.1275 0
192 0 0.1325 0
193 0 0.1375 0
194 0 0.1425 0
195 0 0.1475 0
196 0 0.1525 0
197 0 0.1575 0
198 0 0.1625 0
199 0 0.1675 0
200 0 0.1725 0
201 0 0.1775 0
202 0 0.1825 0
203 0 0.1875 0
204 0 0.1925 0
205 0 0.1975 0
206 0 0.2025 0
207 0 0.2075 0
208 0 0.2125 0
209 0 0.2175 0
210 0 0.2225 0
211 0 0.2275 0
212 0 0.2325 0
213 0 0.2375 0
214 0 0.2425 0
215 0 0.2475 0
216 0 0.2525 0
217 0 0.2575 0
218 0 0.2625 0
219 0 0.2675 0
220 0 0.2725 0
221 0 0.2775 0
222 0 0.2825 0
223 0 0.2875 0
224 0 0.2925 0
225 0 0.2975 0
226 0 0.3025 0
227 0 0.3075 0
228 0 0.3125 0
229 0 0.3175 0
230 0 0.3225 0
231 0 0.3275 0
232 0 0.3325 0
233 0 0.3375 0
234 0 0.3425 0
235 0 0.3475 0
236 0 0.3525 0
237 0 0.3575 0
238 0 0.3625 0
239 0 0.3675 0
240 0 0.3725000000000001 0
241 0 0.3775 0
242 0 0.3825 0
243 0 0.3875 0
244 0 0.3925 0
245 0 0.3975 0
246 0 0.4025 0
247 0 0.4075 0
248 0 0.4125 0
249 0 0.4175 0
250 0 0.4225 0
251 0 0.4275 0
252 0 0.4325 0
253 0 0.4375 0
254 0 0.4425000000000001 0
255 0 0.4475 0
256 0 0.4525 0
257 0 0.4575 0
258 0 0.4625 0
259 0 0.4675 0
260 0 0.4725 0
261 0 0.4775 0
262 0 0.4825 0
263 0 0.4875 0
264 0 0.4925 0
265 0 0.4975000000000001 0
266 0 0.5024999999999999 0
267 0 0.5075000000000001 0
268 0 0.5125 0
269 0 0.5175000000000001 0
270 0 0.5225 0
271 0 0.5275000000000001 0
272 0 0.5325 0
273 0 0.5375000000000001 0
274 0 0.5425 0
275 0 0.5475000000000001 0
276 0 0.5525 0
277 0 0.5575 0
278 0 0.5625 0
279 0 0.5675000000000001 0
280 0 0.5725 0
281 0 0.5775 0
282 0 0.5825 0
283 0 0.5875 0
284 0 0.5925 0
285 0 0.5975000000000001 0
286 0 0.6025 0
287 0 0.6074999999999999 0
288 0 0.6125 0
289 0 0.6175000000000002 0
290 0 0.6225000000000001 0
291 0 0.6274999999999999 0
292 0 0.6325000000000001 0
293 0 0.6375000000000001 0
294 0 0.6425000000000001 0
295 0 0.6475 0
296 0 0.6525000000000001 0
297 0 0.6575 0
298 0 0.6625000000000001 0
299 0 0.6675 0
300 0 0.6725000000000001 0
301 0 0.6775 0
302 0 0.6825000000000001 0
303 0 0.6875 0
304 0 0.6925000000000001 0
305 0 0.6975 0
306 0 0.7025000000000001 0
307 0 0.7075 0
308 0 0.7125 0
309 0 0.7175 0
310 0 0.7225000000000001 0
311 0 0.7275 0
312 0 0.7324999999999999 0
313 0 0.7375 0
314 0 0.7425000000000002 0
315 0 0.7475000000000001 0
316 0 0.7524999999999999 0
317 0 0.7575000000000001 0
318 0 0.7625000000000001 0
319 0 0.7675000000000001 0
320 0 0.7725 0
321 0 0.7775000000000001 0
322 0 0.7825 0
323 0 0.7875000000000001 0
324 0 0.7925 0
325 0 0.7975000000000001 0
326 0.05 0.005000000000000001 0
327 0.05 0.01 0
328 0.05 0.015 0
329 0.05 0.02 0
330 0.05 0.025 0
331 0.05 0.03 0
332 0.05 0.035 0
333 0.05 0.04000000000000001 0
334 0.05 0.04500000000000001 0
335 0.05 0.05 0
336 0.05 0.05500000000000001 0
337 0.05 0.06 0
338 0.05 0.065 0
339 0.05 0.06999999999999999 0
340 0.05 0.07500000000000001 0
341 0.05 0.08000000000000002 0
342 0.05 0.08500000000000001 0
343 0.05 0.09000000000000001 0
344 0.05 0.095 0
345 0.05 0.1 0
346 0.05 0.105 0
347 0.05 0.11 0
348 0.05 0.115 0
349 0.05 0.12 0
350 0.05 0.125 0
351 0.05 0.13 0
352 0.05 0.135 0
353 0.05 0.14 0
354 0.05 0.145 0
355 0.05 0.15 0
356 0.05 0.155 0
357 0.05 0.16 0
358 0.05 0.165 0
359 0.05 0.17 0
360 0.05 0.175 0
361 0.05 0.18 0
362 0.05 0.185 0
363 0.05 0.19 0
364 0.05 0.195 0
365 0.05 0.2 0
366 0.05 0.205 0
367 0.05 0.21 0
368 0.05 0.215 0
369 0.05 0.22 0
370 0.05 0.225 0
371 0.05 0.23 0
372 0.05 0.235 0
373 0.05 0.24 0
374 0.05 0.245 0
375 0.05 0.25 0
376 0.05 0.255 0
377 0.05 0.26 0
378 0.05 0.265 0
379 0.05 0.27 0
380 0.05 0.275 0
381 0.05 0.28 0
382 0.05 0.285 0
383 0.05 0.29 0
384 0.05 0.295 0
385 0.05 0.3 0
386 0.05 0.305 0
387 0.05 0.3100000000000001 0
388 0.05 0.315 0
389 0.05 0.3200000000000001 0
390 0.05 0.325 0
391 0.05 0.33 0
392 0.05 0.335 0
393 0.05 0.34 0
394 0.05 0.345 0
395 0.05 0.35 0
396 0.05 0.355 0
397 0.05 0.36 0
398 0.05 0.365 0
399 0.05 0.3700000000000001 0
400 0.05 0.375 0
401 0.05 0.38 0
402 0.05 0.385 0
403 0.05 0.39 0
404 0.05 0.395 0
405 0.05 0.4 0
406 0.05 0.405 0
407 0.05 0.41 0
408 0.05 0.415 0
409 0.05 0.42 0
410 0.05 0.425 0
411 0.05 0.43 0
412 0.05 0.435 0
413 0.05 0.4400000000000001 0
414 0.05 0.4450000000000001 0
415 0.05 0.45 0
416 0.05 0.455 0
417 0.05 0.46 0
418 0.05 0.4650000000000001 0
419 0.05 0.47 0
420 0.05 0.475 0
421 0.05 0.48 0
422 0.05 0.485 0
423 0.05 0.49 0
424 0.05 0.4950000000000001 0
425 0.05 0.5 0
426 0.05 0.505 0
427 0.05 0.51 0
428 0.05 0.515 0
429 0.05 0.52 0
430 0.05 0.525 0
431 0.05 0.53 0
432 0.05 0.535 0
433 0.05 0.54 0
434 0.05 0.545 0
435 0.05 0.55 0
436 0.05 0.555 0
437 0.05 0.5599999999999999 0
438 0.05 0.5650000000000001 0
439 0.05 0.5700000000000001 0
440 0.05 0.5750000000000001 0
441 0.05 0.58 0
442 0.05 0.585 0
443 0.05 0.5900000000000001 0
444 0.05 0.5950000000000001 0
445 0.05 0.6000000000000001 0
446 0.05 0.605 0
447 0.05 0.61 0
448 0.05 0.6150000000000001 0
449 0.05 0.6200000000000001 0
450 0.05 0.625 0
451 0.05 0.63 0
452 0.05 0.635 0
453 0.05 0.6400000000000001 0
454 0.05 0.645 0
455 0.05 0.65 0
456 0.05 0.655 0
457 0.05 0.66 0
458 0.05 0.665 0
459 0.05 0.67 0
460 0.05 0.675 0
461 0.05 0.68 0
462 0.05 0.6850000000000001 0
463 0.05 0.6900000000000001 0
464 0.05 0.6950000000000001 0
465 0.05 0.7000000000000001 0
466 0.05 0.7050000000000001 0
467 0.05 0.71 0
468 0.05 0.7150000000000001 0
469 0.05 0.7200000000000001 0
470 0.05 0.7250000000000001 0
471 0.05 0.73 0
472 0.05 0.735 0
473 0.05 0.7400000000000001 0
474 0.05 0.7450000000000001 0
475 0.05 0.75 0
476 0.05 0.755 0
477 0.05 0.76 0
478 0.05 0.7650000000000001 0
479 0.05 0.77 0
480 0.05 0.775 0
481 0.05 0.78 0
482 0.05 0.785 0
483 0.05 0.79 0
484 0.05 0.795 0
485 0.05 0.0025 0
486 0.05 0.007500000000000001 0
487 0.05 0.0125 0
488 0.05 0.0175 0
489 0.05 0.0225 0
490 0.05 0.0275 0
491 0.05 0.0325 0
492 0.05 0.03750000000000001 0
493 0.05 0.04250000000000001 0
494 0.05 0.0475 0
495 0.05 0.0525 0
496 0.05 0.0575 0
497 0.05 0.0625 0
498 0.05 0.0675 0
499 0.05 0.07250000000000001 0
500 0.05 0.07750000000000001 0
501 0.05 0.08250000000000002 0
502 0.05 0.08750000000000001 0
503 0.05 0.0925 0
504 0.05 0.0975 0
505 0.05 0.1025 0
506 0.05 0.1075 0
507 0.05 0.1125 0
508 0.05 0.1175 0
509 0.05 0.1225 0
510 0.05 0.1275 0
511 0.05 0.1325 0
512 0.05 0.1375 0
513 0.05 0.1425 0
514 0.05 0.1475 0
515 0.05 0.1525 0
516 0.05 0.1575 0
517 0.05 0.1625 0
518 0.05 0.1675 0
519 0.05 0.1725 0
520 0.05 0.1775 0
521 0.05 0.1825 0
522 0.05 0.1875 0
523 0.05 0.1925 0
524 0.05 0.1975 0
525 0.05 0.2025 0
526 0.05 0.2075 0
527 0.05 0.2125 0
528 0.05 0.2175 0
529 0.05 0.2225 0
530 0.05 0.2275 0
531 0.05 0.2325 0
532 0.05 0.2375 0
533 0.05 0.2425 0
534 0.05 0.2475 0
535 0.05 0.2525 0
536 0.05 0.2575 0
537 0.05 0.2625 0
538 0.05 0.2675 0
539 0.05 0.2725 0
540 0.05 0.2775 0
541 0.05 0.2825 0
542 0.05 0.2875 0
543 0.05 0.2925 0
544 0.05 0.2975 0
545 0.05 0.3025 0
546 0.05 0.3075 0
547 0.05 0.3125 0
548 0.05 0.3175 0
549 0.05 0.3225 0
550 0.05 0.3275 0
551 0.05 0.3325 0
552 0.05 0.3375 0
553 0.05 0.3425 0
554 0.05 0.3475 0
555 0.05 0.3525 0
556 0.05 0.3575 0
557 0.05 0.3625 0
558 0.05 0.3675 0
559 0.05 0.3725000000000001 0
560 0.05 0.3775 0
561 0.05 0.3825 0
562 0.05 0.3875 0
563 0.05 0.3925 0
564 0.05 0.3975 0
565 0.05 0.4025 0
566 0.05 0.4075 0
567 0.05 0.4125 0
568 0.05 0.4175 0
569 0.05 0.4225 0
570 0.05 0.4275 0
571 0.05 0.4325 0
572 0.05 0.4375 0
573 0.05 0.4425000000000001 0
574 0.05 0.4475 0
575 0.05 0.4525 0
576 0.05 0.4575 0
577 0.05 0.4625 0
578 0.05 0.4675 0
579 0.05 0.4725 0
580 0.05 0.4775 0
581 0.05 0.4825 0
582 0.05 0.4875 0
583 0.05 0.4925 0
584 0.05 0.4975000000000001 0
585 0.05 0.5024999999999999 0
586 0.05 0.5075000000000001 0
587 0.05 0.5125 0
588 0.05 0.5175000000000001 0
589 0.05 0.5225 0
590 0.05 0.5275000000000001 0
591 0.05 0.5325 0
592 0.05 0.5375000000000001 0
593 0.05 0.5425 0
594 0.05 0.5475000000000001 0
595 0.05 0.5525 0
596 0.05 0.5575 0
597 0.05 0.5625 0
598 0.05 0.5675000000000001 0
599 0.05 0.5725 0
600 0.05 0.5775 0
601 0.05 0.5825 0
602 0.05 0.5875 0
603 0.05 0.5925 0
604 0.05 0.5975000000000001 0
605 0.05 0.6025 0
606 0.05 0.6074999999999999 0
607 0.05 0.6125 0
608 0.05 0.6175000000000002 0
609 0.05 0.6225000000000001 0
610 0.05 0.6274999999999999 0
611 0.05 0.6325000000000001 0
612 0.05 0.6375000000000001 0
613 0.05 0.6425000000000001 0
614 0.05 0.6475 0
615 0.05 0.6525000000000001 0
616 0.05 0.6575 0
617 0.05 0.6625000000000001 0
618 0.05 0.6675 0
619 0.05 0.6725000000000001 0
620 0.05 0.6775 0
621 0.05 0.6825000000000001 0
622 0.05 0.6875 0
623 0.05 0.6925000000000001 0
624 0.05 0.6975 0
625 0.05 0.7025000000000001 0
626 0.05 0.7075 0
627 0.05 0.7125 0
628 0.05 0.7175 0
629 0.05 0.7225000000000001 0
630 0.05 0.7275 0
631 0.05 0.7324999999999999 0
632 0.05 0.7375 0
633 0.05 0.7425000000000002 0
634 0.05 0.7475000000000001 0
635 0.05 0.7524999999999999 0
636 0.05 0.7575000000000001 0
637 0.05 0.7625000000000001 0
638 0.05 0.7675000000000001 0
639 0.05 0.7725 0
640 0.05 0.7775000000000001 0
641 0.05 0.7825 0
642 0.05 0.7875000000000001 0
643 0.05 0.7925 0
644 0.05 0.7975000000000001 0
645 0.025 0.005000000000000001 0
646 0.025 0.01 0
647 0.025 0.015 0
648 0.025 0.02 0
649 0.025 0.025 0
650 0.025 0.03 0
651 0.025 0.035 0
652 0.025 0.04000000000000001 0
653 0.025 0.04500000000000001 0
654 0.025 0.05 0
655 0.025 0.05500000000000001 0
656 0.025 0.06 0
657 0.025 0.065 0
658 0.025 0.06999999999999999 0
659 0.025 0.07500000000000001 0
660 0.025 0.08000000000000002 0
661 0.025 0.08500000000000001 0
662 0.025 0.09000000000000001 0
663 0.025 0.095 0
664 0.025 0.1 0
665 0.025 0.105 0
666 0.025 0.11 0
667 0.025 0.115 0
668 0.025 0.12 0
669 0.025 0.125 0
670 0.025 0.13 0
671 0.025 0.135 0
672 0.025 0.14 0
673 0.025 0.145 0
674 0.025 0.15 0
675 0.025 0.155 0
676 0.025 0.16 0
677 0.025 0.165 0
678 0.025 0.17 0
679 0.025 0.175 0
680 0.025 0.18 0
681 0.025 0.185 0
682 0.025 0.19 0
683 0.025 0.195 0
684 0.025 0.2 0
685 0.025 0.205 0
686 0.025 0.21 0
687 0.025 0.215 0
688 0.025 0.22 0
689 0.025 0.225 0
690 0.025 0.23 0
691 0.025 0.235 0
692 0.025 0.24 0
693 0.025 0.245 0
694 0.025 0.25 0
695 0.025 0.255 0
696 0.025 0.26 0
697 0.025 0.265 0
698 0.025 0.27 0
699 0.025 0.275 0
700 0.025 0.28 0
701 0.025 0.285 0
702 0.025 0.29 0
703 0.025 0.295 0
704 0.025 0.3 0
705 0.025 0.305 0
706 0.025 0.3100000000000001 0
707 0.025 0.315 0
708 0.025 0.3200000000000001 0
709 0.025 0.325 0
710 0.025 0.33 0
711 0.025 0.335 0
712 0.025 0.34 0
713 0.025 0.345 0
714 0.025 0.35 0
715 0.025 0.355 0
716 0.025 0.36 0
717 0.025 0.365 0
718 0.025 0.3700000000000001 0
719 0.025 0.375 0
720 0.025 0.38 0
721 0.025 0.385 0
722 0.025 0.39 0
723 0.025 0.395 0
724 0.025 0.4 0
725 0.025 0.405 0
726 0.025 0.41 0
727 0.025 0.415 0
728 0.025 0.42 0
729 0.025 0.425 0
730 0.025 0.43 0
731 0.025 0.435 0
732 0.025 0.4400000000000001 0
733 0.025 0.4450000000000001 0
734 0.025 0.45 0
735 0.025 0.455 0
736 0.025 0.46 0
737 0.025 0.4650000000000001 0
738 0.025 0.47 0
739 0.025 0.475 0
740 0.025 0.48 0
741 0.025 0.485 0
742 0.025 0.49 0
743 0.025 0.4950000000000001 0
744 0.025 0.5 0
745 0.025 0.505 0
746 0.025 0.51 0
747 0.025 0.515 0
748 0.025 0.52 0
749 0.025 0.525 0
750 0.025 0.53 0
751 0.025 0.535 0
752 0.025 0.54 0
753 0.025 0.545 0
754 0.025 0.55 0
755 0.025 0.555 0
756 0.025 0.5599999999999999 0
757 0.025 0.5650000000000001 0
758 0.025 0.5700000000000001 0
759 0.025 0.5750000000000001 0
760 0.025 0.58 0
761 0.025 0.585 0
762 0.025 0.5900000000000001 0
763 0.025 0.5950000000000001 0
764 0.025 0.6000000000000001 0
765 0.025 0.605 0
766 0.025 0.61 0
767 0.025 0.6150000000000001 0
768 0.025 0.6200000000000001 0
769 0.025 0.625 0
770 0.025 0.63 0
771 0.025 0.635 0
772 0.025 0.6400000000000001 0
773 0.025 0.645 0
774 0.025 0.65 0
775 0.025 0.655 0
776 0.025 0.66 0
777 0.025 0.665 0
778 0.025 0.67 0
779 0.025 0.675 0
780 0.025 0.68 0
781 0.025 0.6850000000000001 0
782 0.025 0.6900000000000001 0
783 0.025 0.6950000000000001 0
784 0.025 0.7000000000000001 0
785 0.025 0.7050000000000001 0
786 0.025 0.71 0
787 0.025 0.7150000000000001 0
788 0.025 0.7200000000000001 0
789 0.025 0.7250000000000001 0
790 0.025 0.73 0
791 0.025 0.735 0
792 0.025 0.7400000000000001 0
793 0.025 0.7450000000000001 0
794 0.025 0.75 0
795 0.025 0.755 0
796 0.025 0.76 0
797 0.025 0.7650000000000001 0
798 0.025 0.77 0
799 0.025 0.775 0
800 0.025 0.78 0
801 0.025 0.785 0
802 0.025 0.79 0
803 0.025 0.795 0
$EndNodes
$Elements
162
1 8 2 1 10 2 1 5
2 8 2 2 11 3 4 6
3 16 2 3 14 2 1 326 7 5 485 645 166
4 16 2 3 14 7 326 327 8 645 486 646 167
5 16 2 3 14 8 327 328 9 646 487 647 168
6 16 2 3 14 9 328 329 10 647 488 648 169
7 16 2 3 14 10 329 330 11 648 489 649 170
8 16 2 3 14 11 330 331 12 649 490 650 171
9 16 2 3 14 12 331 332 13 650 491 651 172
10 16 2 3 14 13 332 333 14 651 492 652 173
11 16 2 3 14 14 333 334 15 652 493 653 174
12 16 2 3 14 15 334 335 16 653 494 654 175
13 16 2 3 14 16 335 336 17 654 495 655 176
14 16 2 3 14 17 336 337 18 655 496 656 177
15 16 2 3 14 18 337 338 19 656 497 657 178
16 16 2 3 14 19 338 339 20 657 498 658 179
17 16 2 3 14 20 339 340 21 658 499 659 180
18 16 2 3 14 21 340 341 22 659 500 660 181
19 16 2 3 14 22 341 342 23 660 501 661 182
20 16 2 3 14 23 342 343 24 661 502 662 183
21 16 2 3 14 24 343 344 25 662 503 663 184
22 16 2 3 14 25 344 345 26 663 504 664 185
23 16 2 3 14 26 345 346 27 664 505 665 186
24 16 2 3 14 27 346 347 28 665 506 666 187
25 16 2 3 14 28 347 348 29 666 507 667 188
26 16 2 3 14 29 348 349 30 667 508 668 189
27 16 2 3 14 30 349 350 31 668 509 669 190
28 16 2 3 14 31 350 351 32 669 510 670 191
29 16 2 3 14 32 351 352 33 670 511 671 192
30 16 2 3 14 33 352 353 34 671 512 672 193
31 16 2 3 14 34 353 354 35 672 513 673 194
32 16 2 3 14 35 354 355 36 673 514 674 195
33 16 2 3 14 36 355 356 37 674 515 675 196
34 16 2 3 14 37 356 357 38 675 516 676 197
35 16 2 3 14 38 357 358 39 676 517 677 198
36 16 2 3 14 39 358 359 40 677 518 678 199
37 16 2 3 14 40 359 360 41 678 519 679 200
38 16 2 3 14 41 360 361 42 679 520 680 201
39 16 2 3 14 42 361 362 43 680 521 681 202
40 16 2 3 14 43 362 363 44 681 522 682 203
41 16 2 3 14 44 363 364 45 682 523 683 204
42 16 2 3 14 45 364 365 46 683 524 684 205
43 16 2 3 14 46 365 366 47 684 525 685 206
44 16 2 3 14 47 366 367 48 685 526 686 207
45 16 2 3 14 48 367 368 49 686 527 687 208
46 16 2 3 14 49 368 369 50 687 528 688 209
47 16 2 3 14 50 369 370 51 688 529 689 210
48 16 2 3 14 51 370 371 52 689 530 690 211
49 16 2 3 14 52 371 372 53 690 531 691 212
50 16 2 3 14 53 372 373 54 691 532 692 213
51 16 2 3 14 54 373 374 55 692 533 693 214
52 16 2 3 14 55 374 375 56 693 534 694 215
53 16 2 3 14 56 375 376 57 694 535 695 216
54 16 2 3 14 57 376 377 58 695 536 696 217
55 16 2 3 14 58 377 378 59 696 537 697 218
56 16 2 3 14 59 378 379 60 697 538 698 219
57 16 2 3 14 60 379 380 61 698 539 699 220
58 16 2 3 14 61 380 381 62 699 540 700 221
59 16 2 3 14 62 381 382 63 700 541 701 222
60 16 2 3 14 63 382 383 64 701 542 702 223
61 16 2 3 14 64 383 384 65 702 543 703 224
62 16 2 3 14 65 384 385 66 703 544 704 225
63 16 2 3 14 66 385 386 67 704 545 705 226
64 16 2 3 14 67 386 387 68 705 546 706 227
65 16 2 3 14 68 387 388 69 706 547 707 228
66 16 2 3 14 69 388 389 70 707 548 708 229
67 16 2 3 14 70 389 390 71 708 549 709 230
68 16 2 3 14 71 390 391 72 709 550 710 231
69 16 2 3 14 72 391 392 73 710 551 711 232
70 16 2 3 14 73 392 393 74 711 552 712 233
71 16 2 3 14 74 393 394 75 712 553 713 234
72 16 2 3 14 75 394 395 76 713 554 714 235
73 16 2 3 14 76 395 396 77 714 555 715 236
74 16 2 3 14 77 396 397 78 715 556 716 237
75 16 2 3 14 78 397 398 79 716 557 717 238
76 16 2 3 14 79 398 399 80 717 558 718 239
77 16 2 3 14 80 399 400 81 718 559 719 240
78 16 2 3 14 81 400 401 82 719 560 720 241
79 16 2 3 14 82 401 402 83 720 561 721 242
80 16 2 3 14 83 402 403 84 721 562 722 243
81 16 2 3 14 84 403 404 85 722 563 723 244
82 16 2 3 14 85 404 405 86 723 564 724 245
83 16 2 3 14 86 405 406 87 724 565 725 246
84 16 2 3 14 87 406 407 88 725 566 726 247
85 16 2 3 14 88 407 408 89 726 567 727 248
86 16 2 3 14 89 408 409 90 727 568 728 249
87 16 2 3 14 90 409 410 91 728 569 729 250
88 16 2 3 14 91 410 411 92 729 570 730 251
89 16 2 3 14 92 411 412 93 730 571 731 252
90 16 2 3 14 93 412 413 94 731 572 732 253
91 16 2 3 14 94 413 414 95 732 573 733 254
92 16 2 3 14 95 414 415 96 733 574 734 255
93 16 2 3 14 96 415 416 97 734 575 735 256
94 16 2 3 14 97 416 417 98 735 576 736 257
95 16 2 3 14 98 417 418 99 736 577 737 258
96 16 2 3 14 99 418 419 100 737 578 738 259
97 16 2 3 14 100 419 420 101 738 579 739 260
98 16 2 3 14 101 420 421 102 739 580 740 261
99 16 2 3 14 102 421 422 103 740 581 741 262
100 16 2 3 14 103 422 423 104 741 582 742 263
101 16 2 3 14 104 423 424 105 742 583 743 264
102 16 2 3 14 105 424 425 106 743 584 744 265
103 16 2 3 14 106 425 426 107 744 585 745 266
104 16 2 3 14 107 426 427 108 745 586 746 267
105 16 2 3 14 108 427 428 109 746 587 747 268
106 16 2 3 14 109 428 429 110 747 588 748 269
107 16 2 3 14 110 429 430 111 748 589 749 270
108 16 2 3 14 111 430 431 112 749 590 750 271
109 16 2 3 14 112 431 432 113 750 591 751 272
110 16 2 3 14 113 432 433 114 751 592 752 273
111 16 2 3 14 114 433 434 115 752 593 753 274
112 16 2 3 14 115 434 435 116 753 594 754 275
113 16 2 3 14 116 435 436 117 754 595 755 276
114 16 2 3 14 117 436 437 118 755 596 756 277
115 16 2 3 14 118 437 438 119 756 597 757 278
116 16 2 3 14 119 438 439 120 757 598 758 279
117 16 2 3 14 120 439 440 121 758 599 759 280
118 16 2 3 14 121 440 441 122 759 600 760 281
119 16 2 3 14 122 441 442 123 760 601 761 282
120 16 2 3 14 123 442 443 124 761 602 762 283
121 16 2 3 14 124 443 444 125 762 603 763 284
122 16 2 3 14 125 444 445 126 763 604 764 285
123 16 2 3 14 126 445 446 127 764 605 765 286
124 16 2 3 14 127 446 447 128 765 606 766 287
125 16 2 3 14 128 447 448 129 766 607 767 288
126 16 2 3 14 129 448 449 130 767 608 768 289
127 16 2 3 14 130 449 450 131 768 609 769 290
128 16 2 3 14 131 450 451 132 769 610 770 291
129 16 2 3 14 132 451 452 133 770 611 771 292
130 16 2 3 14 133 452 453 134 771 612 772 293
131 16 2 3 14 134 453 454 135 772 613 773 294
132 16 2 3 14 135 454 455 136 773 614 774 295
133 16 2 3 14 136 455 456 137 774 615 775 296
134 16 2 3 14 137 456 457 138 775 616 776 297
135 16 2 3 14 138 457 458 139 776 617 777 298
136 16 2 3 14 139 458 459 140 777 618 778 299
137 16 2 3 14 140 459 460 141 778 619 779 300
138 16 2 3 14 141 460 461 142 779 620 780 301
139 16 2 3 14 142 461 462 143 780 621 781 302
140 16 2 3 14 143 462 463 144 781 622 782 303
141 16 2 3 14 144 463 464 145 782 623 783 304
142 16 2 3 14 145 464 465 146 783 624 784 305
143 16 2 3 14 146 465 466 147 784 625 785 306
144 16 2 3 14 147 466 467 148 785 626 786 307
145 16 2 3 14 148 467 468 149 786 627 787 308
146 16 2 3 14 149 468 469 150 787 628 788 309
147 16 2 3 14 150 469 470 151 788 629 789 310
148 16 2 3 14 151 470 471 152 789 630 790 311
149 16 2 3 14 152 471 472 153 790 631 791 312
150 16 2 3 14 153 472 473 154 791 632 792 313
151 16 2 3 14 154 473 474 155 792 633 793 314
152 16 2 3 14 155 474 475 156 793 634 794 315
153 16 2 3 14 156 475 476 157 794 635 795 316
154 16 2 3 14 157 476 477 158 795 636 796 317
155 16 2 3 14 158 477 478 159 796 637 797 318
156 16 2 3 14 159 478 479 160 797 638 798 319
157 16 2 3 14 160 479 480 161 798 639 799 320
158 16 2 3 14 161 480 481 162 799 640 800 321
159 16 2 3 14 162 481 482 163 800 641 801 322
160 16 2 3 14 163 482 483 164 801 642 802 323
161 16 2 3 14 164 483 484 165 802 643 803 324
162 16 2 3 14 165 484 4 3 803 644 6 325
$EndElements
