0.0000000000e+000	 0.00000e+000
2.0000000000e+000	-1.59527e-003
4.0000000000e+000	-8.64241e-004
6.0000000000e+000	 1.34711e-002
8.0000000000e+000	 9.50951e-002
1.0000000000e+001	 9.10831e-002
1.2000000000e+001	 1.54535e-001
1.4000000000e+001	 5.40187e-001
1.6000000000e+001	 1.41899e+000
1.8000000000e+001	-2.26749e-001
2.0000000000e+001	-1.84599e-002
2.2000000000e+001	-5.00829e-001
2.4000000000e+001	-1.55961e+000
2.6000000000e+001	-8.84610e-001
2.8000000000e+001	 1.18656e-001
3.0000000000e+001	-5.80350e-001
3.2000000000e+001	-2.25579e+000
3.4000000000e+001	 7.17793e+000
3.6000000000e+001	 8.41880e+000
3.8000000000e+001	-9.08743e+000
4.0000000000e+001	-2.13397e+001
4.2000000000e+001	 5.52234e+000
4.4000000000e+001	-1.35884e+001
4.6000000000e+001	 3.33714e+000
4.8000000000e+001	 3.60994e+000
5.0000000000e+001	-4.91329e-001
5.2000000000e+001	 1.45563e+001
5.4000000000e+001	 1.19776e+001
5.6000000000e+001	-2.57378e+001
5.8000000000e+001	-2.18318e+001
6.0000000000e+001	-5.38478e+000
6.2000000000e+001	 8.27497e+000
6.4000000000e+001	-8.38056e+000
6.6000000000e+001	-1.38572e+001
6.8000000000e+001	-1.32295e+001
7.0000000000e+001	-3.90375e+000
7.2000000000e+001	-2.77811e+000
7.4000000000e+001	-6.53581e+000
7.6000000000e+001	-8.97641e+000
7.8000000000e+001	-1.45984e+001
8.0000000000e+001	-1.29905e+001
8.2000000000e+001	-9.93590e+000
8.4000000000e+001	-1.23439e+001
8.6000000000e+001	-1.61945e+001
8.8000000000e+001	-1.41483e+001
9.0000000000e+001	-1.12043e+001
9.2000000000e+001	-1.28778e+001
9.4000000000e+001	-1.39417e+001
9.6000000000e+001	-1.52035e+001
9.8000000000e+001	-1.41986e+001
1.0000000000e+002	-1.31373e+001
1.0200000000e+002	-1.13565e+001
1.0400000000e+002	-1.09911e+001
1.0600000000e+002	-1.01043e+001
1.0800000000e+002	-1.17530e+001
1.1000000000e+002	-1.16910e+001
1.1200000000e+002	-1.24977e+001
1.1400000000e+002	-1.21275e+001
1.1600000000e+002	-1.22023e+001
1.1800000000e+002	-1.26595e+001
1.2000000000e+002	-1.24410e+001
1.2200000000e+002	-1.26211e+001
1.2400000000e+002	-1.19880e+001
1.2600000000e+002	-1.20975e+001
1.2800000000e+002	-1.35308e+001
1.3000000000e+002	-1.28317e+001
1.3200000000e+002	-1.16615e+001
1.3400000000e+002	-1.16986e+001
1.3600000000e+002	-1.20592e+001
1.3800000000e+002	-1.20937e+001
1.4000000000e+002	-1.19113e+001
1.4200000000e+002	-1.17778e+001
1.4400000000e+002	-1.13179e+001
1.4600000000e+002	-1.07690e+001
1.4800000000e+002	-1.10406e+001
1.5000000000e+002	-1.10609e+001
1.5200000000e+002	-1.10440e+001
1.5400000000e+002	-1.09889e+001
1.5600000000e+002	-1.07886e+001
1.5800000000e+002	-1.11131e+001
1.6000000000e+002	-1.11663e+001
1.6200000000e+002	-1.07727e+001
1.6400000000e+002	-1.04110e+001
1.6600000000e+002	-1.05127e+001
1.6800000000e+002	-1.05378e+001
1.7000000000e+002	-1.08562e+001
1.7200000000e+002	-1.06795e+001
1.7400000000e+002	-1.04168e+001
1.7600000000e+002	-1.02812e+001
1.7800000000e+002	-1.00778e+001
1.8000000000e+002	-1.00675e+001
1.8200000000e+002	-9.98860e+000
1.8400000000e+002	-9.87507e+000
1.8600000000e+002	-9.68475e+000
1.8800000000e+002	-9.56070e+000
1.9000000000e+002	-9.28848e+000
1.9200000000e+002	-9.25477e+000
1.9400000000e+002	-9.08998e+000
1.9600000000e+002	-9.07363e+000
1.9800000000e+002	-8.95525e+000
2.0000000000e+002	-9.02499e+000
2.0200000000e+002	-8.93181e+000
2.0400000000e+002	-8.98370e+000
2.0600000000e+002	-8.86616e+000
2.0800000000e+002	-8.94374e+000
2.1000000000e+002	-8.90422e+000
2.1200000000e+002	-8.77960e+000
2.1400000000e+002	-8.70821e+000
2.1600000000e+002	-8.66456e+000
2.1800000000e+002	-8.65400e+000
2.2000000000e+002	-8.61749e+000
2.2200000000e+002	-8.58840e+000
2.2400000000e+002	-8.48855e+000
2.2600000000e+002	-8.38065e+000
2.2800000000e+002	-8.38819e+000
2.3000000000e+002	-8.33051e+000
2.3200000000e+002	-8.22760e+000
2.3400000000e+002	-8.21487e+000
2.3600000000e+002	-8.18916e+000
2.3800000000e+002	-8.08761e+000
2.4000000000e+002	-8.05765e+000
2.4200000000e+002	-8.02940e+000
2.4400000000e+002	-7.92065e+000
2.4600000000e+002	-7.90492e+000
2.4800000000e+002	-7.81545e+000
2.5000000000e+002	-7.69232e+000
2.5200000000e+002	-7.71457e+000
2.5400000000e+002	-7.64665e+000
2.5600000000e+002	-7.55736e+000
2.5800000000e+002	-7.54433e+000
2.6000000000e+002	-7.53828e+000
2.6200000000e+002	-7.40967e+000
2.6400000000e+002	-7.37860e+000
2.6600000000e+002	-7.30646e+000
2.6800000000e+002	-7.30224e+000
2.7000000000e+002	-7.23269e+000
2.7200000000e+002	-7.19343e+000
2.7400000000e+002	-7.14135e+000
2.7600000000e+002	-7.14481e+000
2.7800000000e+002	-7.10679e+000
2.8000000000e+002	-7.04801e+000
2.8200000000e+002	-7.01704e+000
2.8400000000e+002	-6.97333e+000
2.8600000000e+002	-6.91840e+000
2.8800000000e+002	-6.87965e+000
2.9000000000e+002	-6.83043e+000
2.9200000000e+002	-6.78435e+000
2.9400000000e+002	-6.78520e+000
2.9600000000e+002	-6.71632e+000
2.9800000000e+002	-6.68942e+000
3.0000000000e+002	-6.62212e+000
3.0200000000e+002	-6.51859e+000
3.0400000000e+002	-6.51337e+000
3.0600000000e+002	-6.45512e+000
3.0800000000e+002	-6.39361e+000
3.1000000000e+002	-6.33865e+000
3.1200000000e+002	-6.33563e+000
3.1400000000e+002	-6.33513e+000
3.1600000000e+002	-6.32955e+000
3.1800000000e+002	-6.29580e+000
3.2000000000e+002	-6.26264e+000
3.2200000000e+002	-6.21632e+000
3.2400000000e+002	-6.18882e+000
3.2600000000e+002	-6.14499e+000
3.2800000000e+002	-6.12155e+000
3.3000000000e+002	-6.12754e+000
3.3200000000e+002	-6.07503e+000
3.3400000000e+002	-6.07188e+000
3.3600000000e+002	-6.03479e+000
3.3800000000e+002	-5.96196e+000
3.4000000000e+002	-5.94250e+000
3.4200000000e+002	-5.93862e+000
3.4400000000e+002	-5.88340e+000
3.4600000000e+002	-5.88044e+000
3.4800000000e+002	-5.83098e+000
3.5000000000e+002	-5.79589e+000
3.5200000000e+002	-5.77181e+000
3.5400000000e+002	-5.72943e+000
3.5600000000e+002	-5.70703e+000
3.5800000000e+002	-5.67370e+000
3.6000000000e+002	-5.65268e+000
3.6200000000e+002	-5.60602e+000
3.6400000000e+002	-5.60763e+000
3.6600000000e+002	-5.55110e+000
3.6800000000e+002	-5.53709e+000
3.7000000000e+002	-5.50698e+000
3.7200000000e+002	-5.48399e+000
3.7400000000e+002	-5.48752e+000
3.7600000000e+002	-5.43950e+000
3.7800000000e+002	-5.40624e+000
3.8000000000e+002	-5.37584e+000
3.8200000000e+002	-5.36428e+000
3.8400000000e+002	-5.34013e+000
3.8600000000e+002	-5.31471e+000
3.8800000000e+002	-5.29950e+000
3.9000000000e+002	-5.27890e+000
3.9200000000e+002	-5.25319e+000
3.9400000000e+002	-5.22495e+000
3.9600000000e+002	-5.22215e+000
3.9800000000e+002	-5.20375e+000
4.0000000000e+002	-5.16593e+000
4.0200000000e+002	-5.14181e+000
4.0400000000e+002	-5.13818e+000
4.0600000000e+002	-5.10683e+000
4.0800000000e+002	-5.09295e+000
4.1000000000e+002	-5.05948e+000
4.1200000000e+002	-5.05164e+000
4.1400000000e+002	-5.03560e+000
4.1600000000e+002	-5.00862e+000
4.1800000000e+002	-4.99805e+000
4.2000000000e+002	-4.99187e+000
4.2200000000e+002	-4.97503e+000
4.2400000000e+002	-4.94023e+000
4.2600000000e+002	-4.92035e+000
4.2800000000e+002	-4.91734e+000
4.3000000000e+002	-4.91514e+000
4.3200000000e+002	-4.91408e+000
4.3400000000e+002	-4.89869e+000
4.3600000000e+002	-4.87876e+000
4.3800000000e+002	-4.87487e+000
4.4000000000e+002	-4.86606e+000
4.4200000000e+002	-4.85896e+000
4.4400000000e+002	-4.86113e+000
4.4600000000e+002	-4.85628e+000
4.4800000000e+002	-4.84675e+000
4.5000000000e+002	-4.86373e+000
4.5200000000e+002	-4.86438e+000
4.5400000000e+002	-4.87338e+000
4.5600000000e+002	-4.87980e+000
4.5800000000e+002	-4.90811e+000
4.6000000000e+002	-4.91165e+000
4.6200000000e+002	-4.92854e+000
4.6400000000e+002	-4.94900e+000
4.6600000000e+002	-4.97751e+000
4.6800000000e+002	-5.00841e+000
4.7000000000e+002	-5.05496e+000
4.7200000000e+002	-5.07667e+000
4.7400000000e+002	-5.12217e+000
4.7600000000e+002	-5.17082e+000
4.7800000000e+002	-5.18329e+000
4.8000000000e+002	-5.21299e+000
4.8200000000e+002	-5.19899e+000
4.8400000000e+002	-5.17835e+000
4.8600000000e+002	-5.10461e+000
4.8800000000e+002	-5.00846e+000
4.9000000000e+002	-4.90685e+000
4.9200000000e+002	-4.75257e+000
4.9400000000e+002	-4.62471e+000
4.9600000000e+002	-4.47174e+000
4.9800000000e+002	-4.35987e+000
5.0000000000e+002	-4.25873e+000
5.0200000000e+002	-4.14781e+000
5.0400000000e+002	-4.08058e+000
5.0600000000e+002	-4.01183e+000
5.0800000000e+002	-3.93903e+000
5.1000000000e+002	-3.90565e+000
5.1200000000e+002	-3.85952e+000
5.1400000000e+002	-3.82195e+000
5.1600000000e+002	-3.78406e+000
5.1800000000e+002	-3.75858e+000
5.2000000000e+002	-3.72359e+000
5.2200000000e+002	-3.69923e+000
5.2400000000e+002	-3.67120e+000
5.2600000000e+002	-3.64563e+000
5.2800000000e+002	-3.61832e+000
5.3000000000e+002	-3.60710e+000
5.3200000000e+002	-3.58496e+000
5.3400000000e+002	-3.56647e+000
5.3600000000e+002	-3.55217e+000
5.3800000000e+002	-3.53521e+000
5.4000000000e+002	-3.51636e+000
5.4200000000e+002	-3.50434e+000
5.4400000000e+002	-3.49210e+000
5.4600000000e+002	-3.47884e+000
5.4800000000e+002	-3.46108e+000
5.5000000000e+002	-3.45084e+000
5.5200000000e+002	-3.43668e+000
5.5400000000e+002	-3.42185e+000
5.5600000000e+002	-3.41143e+000
5.5800000000e+002	-3.40269e+000
5.6000000000e+002	-3.38724e+000
5.6200000000e+002	-3.37502e+000
5.6400000000e+002	-3.36534e+000
5.6600000000e+002	-3.35347e+000
5.6800000000e+002	-3.34221e+000
5.7000000000e+002	-3.33207e+000
5.7200000000e+002	-3.31733e+000
5.7400000000e+002	-3.30361e+000
5.7600000000e+002	-3.30049e+000
5.7800000000e+002	-3.27862e+000
5.8000000000e+002	-3.26951e+000
5.8200000000e+002	-3.25573e+000
5.8400000000e+002	-3.25098e+000
5.8600000000e+002	-3.23623e+000
5.8800000000e+002	-3.22630e+000
5.9000000000e+002	-3.21445e+000
5.9200000000e+002	-3.21161e+000
5.9400000000e+002	-3.19572e+000
5.9600000000e+002	-3.18195e+000
5.9800000000e+002	-3.17876e+000
6.0000000000e+002	-3.16366e+000
6.0200000000e+002	-3.14763e+000
6.0400000000e+002	-3.14243e+000
6.0600000000e+002	-3.13694e+000
6.0800000000e+002	-3.13110e+000
6.1000000000e+002	-3.11650e+000
6.1200000000e+002	-3.10678e+000
6.1400000000e+002	-3.09655e+000
6.1600000000e+002	-3.08780e+000
6.1800000000e+002	-3.07570e+000
6.2000000000e+002	-3.06496e+000
6.2200000000e+002	-3.05653e+000
6.2400000000e+002	-3.05150e+000
6.2600000000e+002	-3.04354e+000
6.2800000000e+002	-3.03247e+000
6.3000000000e+002	-3.01999e+000
6.3200000000e+002	-3.01237e+000
6.3400000000e+002	-2.99593e+000
6.3600000000e+002	-2.98352e+000
6.3800000000e+002	-2.97504e+000
6.4000000000e+002	-2.95740e+000
6.4200000000e+002	-2.94685e+000
6.4400000000e+002	-2.93219e+000
6.4600000000e+002	-2.91402e+000
6.4800000000e+002	-2.90347e+000
6.5000000000e+002	-2.89317e+000
6.5200000000e+002	-2.87623e+000
6.5400000000e+002	-2.86552e+000
6.5600000000e+002	-2.85566e+000
6.5800000000e+002	-2.84311e+000
6.6000000000e+002	-2.82790e+000
6.6200000000e+002	-2.82247e+000
6.6400000000e+002	-2.80639e+000
6.6600000000e+002	-2.79884e+000
6.6800000000e+002	-2.79415e+000
6.7000000000e+002	-2.78188e+000
6.7200000000e+002	-2.77544e+000
6.7400000000e+002	-2.76854e+000
6.7600000000e+002	-2.75403e+000
6.7800000000e+002	-2.74386e+000
6.8000000000e+002	-2.73580e+000
6.8200000000e+002	-2.72262e+000
6.8400000000e+002	-2.71013e+000
6.8600000000e+002	-2.69875e+000
6.8800000000e+002	-2.69437e+000
6.9000000000e+002	-2.68005e+000
6.9200000000e+002	-2.66697e+000
6.9400000000e+002	-2.66145e+000
6.9600000000e+002	-2.64931e+000
6.9800000000e+002	-2.63869e+000
7.0000000000e+002	-2.62575e+000
7.0200000000e+002	-2.60879e+000
7.0400000000e+002	-2.59783e+000
7.0600000000e+002	-2.58784e+000
7.0800000000e+002	-2.58231e+000
7.1000000000e+002	-2.57087e+000
7.1200000000e+002	-2.55661e+000
7.1400000000e+002	-2.54441e+000
7.1600000000e+002	-2.53621e+000
7.1800000000e+002	-2.52174e+000
7.2000000000e+002	-2.51124e+000
7.2200000000e+002	-2.50049e+000
7.2400000000e+002	-2.49757e+000
7.2600000000e+002	-2.48579e+000
7.2800000000e+002	-2.47926e+000
7.3000000000e+002	-2.47317e+000
7.3200000000e+002	-2.46834e+000
7.3400000000e+002	-2.46126e+000
7.3600000000e+002	-2.44767e+000
7.3800000000e+002	-2.43638e+000
7.4000000000e+002	-2.42327e+000
7.4200000000e+002	-2.41565e+000
7.4400000000e+002	-2.41602e+000
7.4600000000e+002	-2.40410e+000
7.4800000000e+002	-2.39006e+000
7.5000000000e+002	-2.38474e+000
7.5200000000e+002	-2.37418e+000
7.5400000000e+002	-2.36602e+000
7.5600000000e+002	-2.35482e+000
7.5800000000e+002	-2.34570e+000
7.6000000000e+002	-2.33861e+000
7.6200000000e+002	-2.33106e+000
7.6400000000e+002	-2.32104e+000
7.6600000000e+002	-2.31252e+000
7.6800000000e+002	-2.30513e+000
7.7000000000e+002	-2.29953e+000
7.7200000000e+002	-2.28723e+000
7.7400000000e+002	-2.27906e+000
7.7600000000e+002	-2.26801e+000
7.7800000000e+002	-2.26461e+000
7.8000000000e+002	-2.25471e+000
7.8200000000e+002	-2.24765e+000
7.8400000000e+002	-2.24830e+000
7.8600000000e+002	-2.23385e+000
7.8800000000e+002	-2.22599e+000
7.9000000000e+002	-2.22494e+000
7.9200000000e+002	-2.21534e+000
7.9400000000e+002	-2.21001e+000
7.9600000000e+002	-2.20324e+000
7.9800000000e+002	-2.19413e+000
8.0000000000e+002	-2.18773e+000
8.0200000000e+002	-2.17937e+000
8.0400000000e+002	-2.16044e+000
8.0600000000e+002	-2.14966e+000
8.0800000000e+002	-2.14770e+000
8.1000000000e+002	-2.13947e+000
8.1200000000e+002	-2.13333e+000
8.1400000000e+002	-2.12161e+000
8.1600000000e+002	-2.11612e+000
8.1800000000e+002	-2.10987e+000
8.2000000000e+002	-2.10135e+000
8.2200000000e+002	-2.09446e+000
8.2400000000e+002	-2.08324e+000
8.2600000000e+002	-2.07673e+000
8.2800000000e+002	-2.07839e+000
8.3000000000e+002	-2.06476e+000
8.3200000000e+002	-2.05596e+000
8.3400000000e+002	-2.04395e+000
8.3600000000e+002	-2.03640e+000
8.3800000000e+002	-2.03475e+000
8.4000000000e+002	-2.02215e+000
8.4200000000e+002	-2.01443e+000
8.4400000000e+002	-2.00042e+000
8.4600000000e+002	-1.99171e+000
8.4800000000e+002	-1.99274e+000
8.5000000000e+002	-1.98980e+000
8.5200000000e+002	-1.97822e+000
8.5400000000e+002	-1.97048e+000
8.5600000000e+002	-1.96362e+000
8.5800000000e+002	-1.96204e+000
8.6000000000e+002	-1.94727e+000
8.6200000000e+002	-1.93685e+000
8.6400000000e+002	-1.93834e+000
8.6600000000e+002	-1.92907e+000
8.6800000000e+002	-1.92192e+000
8.7000000000e+002	-1.91432e+000
8.7200000000e+002	-1.90924e+000
8.7400000000e+002	-1.89798e+000
8.7600000000e+002	-1.88912e+000
8.7800000000e+002	-1.89308e+000
8.8000000000e+002	-1.88070e+000
8.8200000000e+002	-1.87108e+000
8.8400000000e+002	-1.86851e+000
8.8600000000e+002	-1.86039e+000
8.8800000000e+002	-1.85282e+000
8.9000000000e+002	-1.84194e+000
8.9200000000e+002	-1.83616e+000
8.9400000000e+002	-1.83366e+000
8.9600000000e+002	-1.82837e+000
8.9800000000e+002	-1.82880e+000
9.0000000000e+002	-1.82360e+000
9.0200000000e+002	-1.81685e+000
9.0400000000e+002	-1.80546e+000
9.0600000000e+002	-1.80036e+000
9.0800000000e+002	-1.79744e+000
9.1000000000e+002	-1.78445e+000
9.1200000000e+002	-1.77777e+000
9.1400000000e+002	-1.77795e+000
9.1600000000e+002	-1.76806e+000
9.1800000000e+002	-1.75679e+000
9.2000000000e+002	-1.75684e+000
9.2200000000e+002	-1.74785e+000
9.2400000000e+002	-1.73523e+000
9.2600000000e+002	-1.73253e+000
9.2800000000e+002	-1.72991e+000
9.3000000000e+002	-1.72326e+000
9.3200000000e+002	-1.71861e+000
9.3400000000e+002	-1.71086e+000
9.3600000000e+002	-1.70122e+000
9.3800000000e+002	-1.70456e+000
9.4000000000e+002	-1.69625e+000
9.4200000000e+002	-1.68504e+000
9.4400000000e+002	-1.67752e+000
9.4600000000e+002	-1.67370e+000
9.4800000000e+002	-1.66295e+000
9.5000000000e+002	-1.65542e+000
9.5200000000e+002	-1.65320e+000
9.5400000000e+002	-1.64376e+000
9.5600000000e+002	-1.64117e+000
9.5800000000e+002	-1.63543e+000
9.6000000000e+002	-1.62580e+000
9.6200000000e+002	-1.62280e+000
9.6400000000e+002	-1.62080e+000
9.6600000000e+002	-1.61256e+000
9.6800000000e+002	-1.60388e+000
9.7000000000e+002	-1.59916e+000
9.7200000000e+002	-1.59148e+000
9.7400000000e+002	-1.58610e+000
9.7600000000e+002	-1.58273e+000
9.7800000000e+002	-1.57117e+000
9.8000000000e+002	-1.57002e+000
9.8200000000e+002	-1.56372e+000
9.8400000000e+002	-1.55616e+000
9.8600000000e+002	-1.55068e+000
9.8800000000e+002	-1.54602e+000
9.9000000000e+002	-1.54401e+000
9.9200000000e+002	-1.53232e+000
9.9400000000e+002	-1.52566e+000
9.9600000000e+002	-1.51945e+000
9.9800000000e+002	-1.51216e+000
1.0000000000e+003	-1.50777e+000
1.0020000000e+003	-1.50380e+000
1.0040000000e+003	-1.50036e+000
1.0060000000e+003	-1.49192e+000
1.0080000000e+003	-1.48560e+000
1.0100000000e+003	-1.48117e+000
1.0120000000e+003	-1.47635e+000
1.0140000000e+003	-1.47339e+000
1.0160000000e+003	-1.46797e+000
1.0180000000e+003	-1.46051e+000
1.0200000000e+003	-1.45044e+000
1.0220000000e+003	-1.44748e+000
1.0240000000e+003	-1.44306e+000
1.0260000000e+003	-1.44189e+000
1.0280000000e+003	-1.43606e+000
1.0300000000e+003	-1.42669e+000
1.0320000000e+003	-1.42115e+000
1.0340000000e+003	-1.41333e+000
1.0360000000e+003	-1.40961e+000
1.0380000000e+003	-1.40436e+000
1.0400000000e+003	-1.39639e+000
1.0420000000e+003	-1.39450e+000
1.0440000000e+003	-1.39176e+000
1.0460000000e+003	-1.38443e+000
1.0480000000e+003	-1.37339e+000
1.0500000000e+003	-1.36799e+000
1.0520000000e+003	-1.36774e+000
1.0540000000e+003	-1.36010e+000
1.0560000000e+003	-1.35641e+000
1.0580000000e+003	-1.35193e+000
1.0600000000e+003	-1.34555e+000
1.0620000000e+003	-1.33946e+000
1.0640000000e+003	-1.33354e+000
1.0660000000e+003	-1.32891e+000
1.0680000000e+003	-1.32929e+000
1.0700000000e+003	-1.32431e+000
1.0720000000e+003	-1.31895e+000
1.0740000000e+003	-1.31301e+000
1.0760000000e+003	-1.30931e+000
1.0780000000e+003	-1.30443e+000
1.0800000000e+003	-1.29998e+000
1.0820000000e+003	-1.29712e+000
1.0840000000e+003	-1.28811e+000
1.0860000000e+003	-1.28599e+000
1.0880000000e+003	-1.28061e+000
1.0900000000e+003	-1.27636e+000
1.0920000000e+003	-1.27438e+000
1.0940000000e+003	-1.26775e+000
1.0960000000e+003	-1.26366e+000
1.0980000000e+003	-1.26029e+000
1.1000000000e+003	-1.25784e+000
1.1020000000e+003	-1.25062e+000
1.1040000000e+003	-1.24660e+000
1.1060000000e+003	-1.24174e+000
1.1080000000e+003	-1.23606e+000
1.1100000000e+003	-1.23280e+000
1.1120000000e+003	-1.22941e+000
1.1140000000e+003	-1.22409e+000
1.1160000000e+003	-1.21961e+000
1.1180000000e+003	-1.21477e+000
1.1200000000e+003	-1.20782e+000
1.1220000000e+003	-1.20369e+000
1.1240000000e+003	-1.20028e+000
1.1260000000e+003	-1.19434e+000
1.1280000000e+003	-1.18612e+000
1.1300000000e+003	-1.18292e+000
1.1320000000e+003	-1.18139e+000
1.1340000000e+003	-1.17365e+000
1.1360000000e+003	-1.16814e+000
1.1380000000e+003	-1.16560e+000
1.1400000000e+003	-1.15557e+000
1.1420000000e+003	-1.15019e+000
1.1440000000e+003	-1.14950e+000
1.1460000000e+003	-1.14739e+000
1.1480000000e+003	-1.14011e+000
1.1500000000e+003	-1.13404e+000
1.1520000000e+003	-1.12864e+000
1.1540000000e+003	-1.12503e+000
1.1560000000e+003	-1.11857e+000
1.1580000000e+003	-1.11372e+000
1.1600000000e+003	-1.10899e+000
1.1620000000e+003	-1.10629e+000
1.1640000000e+003	-1.09879e+000
1.1660000000e+003	-1.09398e+000
1.1680000000e+003	-1.09201e+000
1.1700000000e+003	-1.08712e+000
1.1720000000e+003	-1.08334e+000
1.1740000000e+003	-1.07719e+000
1.1760000000e+003	-1.07283e+000
1.1780000000e+003	-1.06591e+000
1.1800000000e+003	-1.06559e+000
1.1820000000e+003	-1.05841e+000
1.1840000000e+003	-1.05266e+000
1.1860000000e+003	-1.05011e+000
1.1880000000e+003	-1.04405e+000
1.1900000000e+003	-1.03729e+000
1.1920000000e+003	-1.03971e+000
1.1940000000e+003	-1.03147e+000
1.1960000000e+003	-1.02333e+000
1.1980000000e+003	-1.01867e+000
1.2000000000e+003	-1.01987e+000
1.2020000000e+003	-1.02220e+000
1.2040000000e+003	-1.01449e+000
1.2060000000e+003	-1.01028e+000
1.2080000000e+003	-1.00651e+000
1.2100000000e+003	-1.00260e+000
1.2120000000e+003	-9.96507e-001
1.2140000000e+003	-9.86925e-001
1.2160000000e+003	-9.86743e-001
1.2180000000e+003	-9.82049e-001
1.2200000000e+003	-9.75761e-001
1.2220000000e+003	-9.78670e-001
1.2240000000e+003	-9.73488e-001
1.2260000000e+003	-9.63652e-001
1.2280000000e+003	-9.60004e-001
1.2300000000e+003	-9.50975e-001
1.2320000000e+003	-9.47903e-001
1.2340000000e+003	-9.47121e-001
1.2360000000e+003	-9.40221e-001
1.2380000000e+003	-9.28770e-001
1.2400000000e+003	-9.23437e-001
1.2420000000e+003	-9.21810e-001
1.2440000000e+003	-9.17167e-001
1.2460000000e+003	-9.11843e-001
1.2480000000e+003	-9.08263e-001
1.2500000000e+003	-9.05310e-001
1.2520000000e+003	-9.00932e-001
1.2540000000e+003	-8.99409e-001
1.2560000000e+003	-8.94575e-001
1.2580000000e+003	-8.88185e-001
1.2600000000e+003	-8.86072e-001
1.2620000000e+003	-8.80999e-001
1.2640000000e+003	-8.78671e-001
1.2660000000e+003	-8.76879e-001
1.2680000000e+003	-8.65782e-001
1.2700000000e+003	-8.55953e-001
1.2720000000e+003	-8.54842e-001
1.2740000000e+003	-8.56584e-001
1.2760000000e+003	-8.47866e-001
1.2780000000e+003	-8.46346e-001
1.2800000000e+003	-8.46734e-001
1.2820000000e+003	-8.40293e-001
1.2840000000e+003	-8.33034e-001
1.2860000000e+003	-8.26575e-001
1.2880000000e+003	-8.23613e-001
1.2900000000e+003	-8.23580e-001
1.2920000000e+003	-8.24721e-001
1.2940000000e+003	-8.19734e-001
1.2960000000e+003	-8.13633e-001
1.2980000000e+003	-8.12772e-001
1.3000000000e+003	-8.05246e-001
1.3020000000e+003	-7.98658e-001
1.3040000000e+003	-7.93673e-001
1.3060000000e+003	-7.92198e-001
1.3080000000e+003	-7.83469e-001
1.3100000000e+003	-7.79713e-001
1.3120000000e+003	-7.80712e-001
1.3140000000e+003	-7.78259e-001
1.3160000000e+003	-7.75541e-001
1.3180000000e+003	-7.70622e-001
1.3200000000e+003	-7.64345e-001
1.3220000000e+003	-7.61355e-001
1.3240000000e+003	-7.56062e-001
1.3260000000e+003	-7.52360e-001
1.3280000000e+003	-7.44816e-001
1.3300000000e+003	-7.42431e-001
1.3320000000e+003	-7.46362e-001
1.3340000000e+003	-7.45217e-001
1.3360000000e+003	-7.30636e-001
1.3380000000e+003	-7.29694e-001
1.3400000000e+003	-7.26639e-001
1.3420000000e+003	-7.17930e-001
1.3440000000e+003	-7.17104e-001
1.3460000000e+003	-7.12712e-001
1.3480000000e+003	-7.07585e-001
1.3500000000e+003	-7.07687e-001
1.3520000000e+003	-7.06404e-001
1.3540000000e+003	-6.94971e-001
1.3560000000e+003	-6.96987e-001
1.3580000000e+003	-6.93182e-001
1.3600000000e+003	-6.80025e-001
1.3620000000e+003	-6.79158e-001
1.3640000000e+003	-6.81280e-001
1.3660000000e+003	-6.77629e-001
1.3680000000e+003	-6.69078e-001
1.3700000000e+003	-6.63417e-001
1.3720000000e+003	-6.65515e-001
1.3740000000e+003	-6.62108e-001
1.3760000000e+003	-6.57890e-001
1.3780000000e+003	-6.51554e-001
1.3800000000e+003	-6.53693e-001
1.3820000000e+003	-6.46112e-001
1.3840000000e+003	-6.40828e-001
1.3860000000e+003	-6.37659e-001
1.3880000000e+003	-6.36302e-001
1.3900000000e+003	-6.30890e-001
1.3920000000e+003	-6.26054e-001
1.3940000000e+003	-6.23258e-001
1.3960000000e+003	-6.18331e-001
1.3980000000e+003	-6.17031e-001
1.4000000000e+003	-6.18346e-001
1.4020000000e+003	-6.10587e-001
1.4040000000e+003	-6.04690e-001
1.4060000000e+003	-6.04647e-001
1.4080000000e+003	-6.07235e-001
1.4100000000e+003	-6.01218e-001
1.4120000000e+003	-5.96760e-001
1.4140000000e+003	-5.92683e-001
1.4160000000e+003	-5.86007e-001
1.4180000000e+003	-5.74250e-001
1.4200000000e+003	-5.69073e-001
1.4220000000e+003	-5.69226e-001
1.4240000000e+003	-5.73474e-001
1.4260000000e+003	-5.72734e-001
1.4280000000e+003	-5.69467e-001
1.4300000000e+003	-5.61373e-001
1.4320000000e+003	-5.58661e-001
1.4340000000e+003	-5.55190e-001
1.4360000000e+003	-5.55713e-001
1.4380000000e+003	-5.48426e-001
1.4400000000e+003	-5.46813e-001
1.4420000000e+003	-5.50501e-001
1.4440000000e+003	-5.44918e-001
1.4460000000e+003	-5.38840e-001
1.4480000000e+003	-5.42308e-001
1.4500000000e+003	-5.24897e-001
1.4520000000e+003	-5.10114e-001
1.4540000000e+003	-5.15663e-001
1.4560000000e+003	-5.17653e-001
1.4580000000e+003	-5.16876e-001
1.4600000000e+003	-5.12473e-001
1.4620000000e+003	-5.05972e-001
1.4640000000e+003	-5.02196e-001
1.4660000000e+003	-4.99313e-001
1.4680000000e+003	-4.94718e-001
1.4700000000e+003	-4.91128e-001
1.4720000000e+003	-4.90477e-001
1.4740000000e+003	-4.83821e-001
1.4760000000e+003	-4.76380e-001
1.4780000000e+003	-4.74923e-001
1.4800000000e+003	-4.74490e-001
1.4820000000e+003	-4.67111e-001
1.4840000000e+003	-4.63430e-001
1.4860000000e+003	-4.61294e-001
1.4880000000e+003	-4.55604e-001
1.4900000000e+003	-4.53681e-001
1.4920000000e+003	-4.51352e-001
1.4940000000e+003	-4.45215e-001
1.4960000000e+003	-4.38615e-001
1.4980000000e+003	-4.40653e-001
1.5000000000e+003	-4.40121e-001
1.5020000000e+003	-4.32454e-001
1.5040000000e+003	-4.30012e-001
1.5060000000e+003	-4.35756e-001
1.5080000000e+003	-4.29535e-001
1.5100000000e+003	-4.27980e-001
1.5120000000e+003	-4.19950e-001
1.5140000000e+003	-4.16283e-001
1.5160000000e+003	-4.10823e-001
1.5180000000e+003	-4.11657e-001
1.5200000000e+003	-4.12133e-001
1.5220000000e+003	-4.04656e-001
1.5240000000e+003	-4.00629e-001
1.5260000000e+003	-4.02267e-001
1.5280000000e+003	-3.98078e-001
1.5300000000e+003	-3.92886e-001
1.5320000000e+003	-3.91813e-001
1.5340000000e+003	-3.84331e-001
1.5360000000e+003	-3.78542e-001
1.5380000000e+003	-3.76007e-001
1.5400000000e+003	-3.75497e-001
1.5420000000e+003	-3.77664e-001
1.5440000000e+003	-3.82423e-001
1.5460000000e+003	-3.68994e-001
1.5480000000e+003	-3.68279e-001
1.5500000000e+003	-3.67772e-001
1.5520000000e+003	-3.63837e-001
1.5540000000e+003	-3.59723e-001
1.5560000000e+003	-3.61336e-001
1.5580000000e+003	-3.52607e-001
1.5600000000e+003	-3.45761e-001
1.5620000000e+003	-3.44881e-001
1.5640000000e+003	-3.42990e-001
1.5660000000e+003	-3.44450e-001
1.5680000000e+003	-3.35522e-001
1.5700000000e+003	-3.33587e-001
1.5720000000e+003	-3.33562e-001
1.5740000000e+003	-3.30370e-001
1.5760000000e+003	-3.31198e-001
1.5780000000e+003	-3.25102e-001
1.5800000000e+003	-3.18228e-001
1.5820000000e+003	-3.16651e-001
1.5840000000e+003	-3.13817e-001
1.5860000000e+003	-3.12028e-001
1.5880000000e+003	-3.12104e-001
1.5900000000e+003	-3.06666e-001
1.5920000000e+003	-3.07146e-001
1.5940000000e+003	-3.08533e-001
1.5960000000e+003	-3.03579e-001
1.5980000000e+003	-2.98340e-001
1.6000000000e+003	-2.97006e-001
