0.0000000000e+000	 0.00000e+000
2.0000000000e+000	-9.45090e-005
4.0000000000e+000	 4.88542e-003
6.0000000000e+000	 3.37537e-002
8.0000000000e+000	 1.04151e-001
1.0000000000e+001	-1.17649e-001
1.2000000000e+001	-2.21364e-001
1.4000000000e+001	 1.64744e-001
1.6000000000e+001	-7.80101e+000
1.8000000000e+001	 1.88951e+000
2.0000000000e+001	 9.66640e-001
2.2000000000e+001	 2.96349e+000
2.4000000000e+001	-1.98476e+000
2.6000000000e+001	-3.41978e+000
2.8000000000e+001	-3.00492e+000
3.0000000000e+001	-5.50862e+000
3.2000000000e+001	 3.94761e+000
3.4000000000e+001	 6.89412e+000
3.6000000000e+001	 1.12413e+000
3.8000000000e+001	-1.07994e+001
4.0000000000e+001	-1.71011e+001
4.2000000000e+001	 3.11559e+001
4.4000000000e+001	 2.13862e+001
4.6000000000e+001	 1.10285e+001
4.8000000000e+001	 1.09437e+001
5.0000000000e+001	 1.18484e+001
5.2000000000e+001	 2.30244e+001
5.4000000000e+001	 4.10841e+001
5.6000000000e+001	 8.71074e+000
5.8000000000e+001	 1.08103e+001
6.0000000000e+001	 3.88434e+001
6.2000000000e+001	 1.00120e+002
6.4000000000e+001	 3.77360e+001
6.6000000000e+001	 1.58578e+001
6.8000000000e+001	 1.23072e+001
7.0000000000e+001	 1.44748e+001
7.2000000000e+001	 1.55001e+001
7.4000000000e+001	 1.87570e+001
7.6000000000e+001	 1.38477e+001
7.8000000000e+001	 1.38281e+001
8.0000000000e+001	 1.76555e+001
8.2000000000e+001	 1.38441e+001
8.4000000000e+001	 1.47997e+001
8.6000000000e+001	 1.43153e+001
8.8000000000e+001	 1.45171e+001
9.0000000000e+001	 1.33676e+001
9.2000000000e+001	 1.37576e+001
9.4000000000e+001	 1.39845e+001
9.6000000000e+001	 1.46332e+001
9.8000000000e+001	 1.57467e+001
1.0000000000e+002	 1.56492e+001
1.0200000000e+002	 1.45414e+001
1.0400000000e+002	 1.13386e+001
1.0600000000e+002	 1.11625e+001
1.0800000000e+002	 1.19084e+001
1.1000000000e+002	 1.23931e+001
1.1200000000e+002	 1.27885e+001
1.1400000000e+002	 1.30473e+001
1.1600000000e+002	 1.08746e+001
1.1800000000e+002	 1.07110e+001
1.2000000000e+002	 1.15217e+001
1.2200000000e+002	 1.10221e+001
1.2400000000e+002	 9.99985e+000
1.2600000000e+002	 1.14315e+001
1.2800000000e+002	 1.13943e+001
1.3000000000e+002	 9.98174e+000
1.3200000000e+002	 9.38349e+000
1.3400000000e+002	 9.08262e+000
1.3600000000e+002	 9.35099e+000
1.3800000000e+002	 8.97191e+000
1.4000000000e+002	 9.10260e+000
1.4200000000e+002	 9.33133e+000
1.4400000000e+002	 9.36399e+000
1.4600000000e+002	 8.85394e+000
1.4800000000e+002	 8.54346e+000
1.5000000000e+002	 8.10526e+000
1.5200000000e+002	 7.80129e+000
1.5400000000e+002	 8.17183e+000
1.5600000000e+002	 7.95585e+000
1.5800000000e+002	 7.60521e+000
1.6000000000e+002	 7.72386e+000
1.6200000000e+002	 8.10995e+000
1.6400000000e+002	 8.01745e+000
1.6600000000e+002	 7.65128e+000
1.6800000000e+002	 7.26742e+000
1.7000000000e+002	 7.35396e+000
1.7200000000e+002	 6.73565e+000
1.7400000000e+002	 6.72000e+000
1.7600000000e+002	 6.81707e+000
1.7800000000e+002	 6.38335e+000
1.8000000000e+002	 6.37301e+000
1.8200000000e+002	 6.21455e+000
1.8400000000e+002	 6.32594e+000
1.8600000000e+002	 6.20924e+000
1.8800000000e+002	 6.29420e+000
1.9000000000e+002	 6.02230e+000
1.9200000000e+002	 6.02770e+000
1.9400000000e+002	 5.84046e+000
1.9600000000e+002	 5.96674e+000
1.9800000000e+002	 5.84904e+000
2.0000000000e+002	 5.92741e+000
2.0200000000e+002	 5.78614e+000
2.0400000000e+002	 5.80329e+000
2.0600000000e+002	 5.64937e+000
2.0800000000e+002	 5.57166e+000
2.1000000000e+002	 5.56875e+000
2.1200000000e+002	 5.59642e+000
2.1400000000e+002	 5.54458e+000
2.1600000000e+002	 5.38845e+000
2.1800000000e+002	 5.37123e+000
2.2000000000e+002	 5.27490e+000
2.2200000000e+002	 5.32289e+000
2.2400000000e+002	 5.17204e+000
2.2600000000e+002	 5.13079e+000
2.2800000000e+002	 5.11032e+000
2.3000000000e+002	 5.04987e+000
2.3200000000e+002	 4.94475e+000
2.3400000000e+002	 4.85098e+000
2.3600000000e+002	 4.85326e+000
2.3800000000e+002	 4.73901e+000
2.4000000000e+002	 4.69472e+000
2.4200000000e+002	 4.68188e+000
2.4400000000e+002	 4.59943e+000
2.4600000000e+002	 4.64106e+000
2.4800000000e+002	 4.56122e+000
2.5000000000e+002	 4.38601e+000
2.5200000000e+002	 4.44538e+000
2.5400000000e+002	 4.37302e+000
2.5600000000e+002	 4.32342e+000
2.5800000000e+002	 4.35091e+000
2.6000000000e+002	 4.38408e+000
2.6200000000e+002	 4.26040e+000
2.6400000000e+002	 4.26505e+000
2.6600000000e+002	 4.21297e+000
2.6800000000e+002	 4.23526e+000
2.7000000000e+002	 4.14942e+000
2.7200000000e+002	 4.12065e+000
2.7400000000e+002	 4.09799e+000
2.7600000000e+002	 4.17546e+000
2.7800000000e+002	 4.09476e+000
2.8000000000e+002	 3.98864e+000
2.8200000000e+002	 3.97751e+000
2.8400000000e+002	 3.95177e+000
2.8600000000e+002	 3.89002e+000
2.8800000000e+002	 3.87248e+000
2.9000000000e+002	 3.84069e+000
2.9200000000e+002	 3.80306e+000
2.9400000000e+002	 3.84286e+000
2.9600000000e+002	 3.77370e+000
2.9800000000e+002	 3.74426e+000
3.0000000000e+002	 3.72040e+000
3.0200000000e+002	 3.62867e+000
3.0400000000e+002	 3.68095e+000
3.0600000000e+002	 3.67625e+000
3.0800000000e+002	 3.66359e+000
3.1000000000e+002	 3.65278e+000
3.1200000000e+002	 3.66279e+000
3.1400000000e+002	 3.67134e+000
3.1600000000e+002	 3.63999e+000
3.1800000000e+002	 3.60452e+000
3.2000000000e+002	 3.59447e+000
3.2200000000e+002	 3.57357e+000
3.2400000000e+002	 3.55924e+000
3.2600000000e+002	 3.50105e+000
3.2800000000e+002	 3.48611e+000
3.3000000000e+002	 3.52889e+000
3.3200000000e+002	 3.48227e+000
3.3400000000e+002	 3.46823e+000
3.3600000000e+002	 3.44724e+000
3.3800000000e+002	 3.38320e+000
3.4000000000e+002	 3.37572e+000
3.4200000000e+002	 3.39157e+000
3.4400000000e+002	 3.32299e+000
3.4600000000e+002	 3.33316e+000
3.4800000000e+002	 3.30404e+000
3.5000000000e+002	 3.27097e+000
3.5200000000e+002	 3.27188e+000
3.5400000000e+002	 3.24990e+000
3.5600000000e+002	 3.24820e+000
3.5800000000e+002	 3.22491e+000
3.6000000000e+002	 3.21581e+000
3.6200000000e+002	 3.18926e+000
3.6400000000e+002	 3.21847e+000
3.6600000000e+002	 3.16760e+000
3.6800000000e+002	 3.18501e+000
3.7000000000e+002	 3.14715e+000
3.7200000000e+002	 3.13361e+000
3.7400000000e+002	 3.16683e+000
3.7600000000e+002	 3.12647e+000
3.7800000000e+002	 3.10491e+000
3.8000000000e+002	 3.08615e+000
3.8200000000e+002	 3.09011e+000
3.8400000000e+002	 3.07824e+000
3.8600000000e+002	 3.07463e+000
3.8800000000e+002	 3.06523e+000
3.9000000000e+002	 3.08060e+000
3.9200000000e+002	 3.06781e+000
3.9400000000e+002	 3.03430e+000
3.9600000000e+002	 3.03081e+000
3.9800000000e+002	 3.02600e+000
4.0000000000e+002	 2.99071e+000
4.0200000000e+002	 2.98286e+000
4.0400000000e+002	 3.01229e+000
4.0600000000e+002	 2.96960e+000
4.0800000000e+002	 2.96981e+000
4.1000000000e+002	 2.94370e+000
4.1200000000e+002	 2.96304e+000
4.1400000000e+002	 2.95947e+000
4.1600000000e+002	 2.93545e+000
4.1800000000e+002	 2.93640e+000
4.2000000000e+002	 2.93464e+000
4.2200000000e+002	 2.92654e+000
4.2400000000e+002	 2.90686e+000
4.2600000000e+002	 2.89460e+000
4.2800000000e+002	 2.90211e+000
4.3000000000e+002	 2.91323e+000
4.3200000000e+002	 2.92016e+000
4.3400000000e+002	 2.89386e+000
4.3600000000e+002	 2.88514e+000
4.3800000000e+002	 2.89097e+000
4.4000000000e+002	 2.88023e+000
4.4200000000e+002	 2.88465e+000
4.4400000000e+002	 2.88117e+000
4.4600000000e+002	 2.86334e+000
4.4800000000e+002	 2.84594e+000
4.5000000000e+002	 2.84973e+000
4.5200000000e+002	 2.84408e+000
4.5400000000e+002	 2.85284e+000
4.5600000000e+002	 2.83492e+000
4.5800000000e+002	 2.85084e+000
4.6000000000e+002	 2.81669e+000
4.6200000000e+002	 2.80233e+000
4.6400000000e+002	 2.76987e+000
4.6600000000e+002	 2.75617e+000
4.6800000000e+002	 2.72936e+000
4.7000000000e+002	 2.68886e+000
4.7200000000e+002	 2.63726e+000
4.7400000000e+002	 2.56593e+000
4.7600000000e+002	 2.48406e+000
4.7800000000e+002	 2.38191e+000
4.8000000000e+002	 2.29668e+000
4.8200000000e+002	 2.16939e+000
4.8400000000e+002	 2.05433e+000
4.8600000000e+002	 1.89344e+000
4.8800000000e+002	 1.77090e+000
4.9000000000e+002	 1.67870e+000
4.9200000000e+002	 1.59276e+000
4.9400000000e+002	 1.55361e+000
4.9600000000e+002	 1.50887e+000
4.9800000000e+002	 1.52326e+000
5.0000000000e+002	 1.53945e+000
5.0200000000e+002	 1.56638e+000
5.0400000000e+002	 1.60544e+000
5.0600000000e+002	 1.63727e+000
5.0800000000e+002	 1.66278e+000
5.1000000000e+002	 1.70142e+000
5.1200000000e+002	 1.73521e+000
5.1400000000e+002	 1.76091e+000
5.1600000000e+002	 1.78498e+000
5.1800000000e+002	 1.80663e+000
5.2000000000e+002	 1.82921e+000
5.2200000000e+002	 1.84817e+000
5.2400000000e+002	 1.87199e+000
5.2600000000e+002	 1.89141e+000
5.2800000000e+002	 1.90597e+000
5.3000000000e+002	 1.92644e+000
5.3200000000e+002	 1.93729e+000
5.3400000000e+002	 1.95238e+000
5.3600000000e+002	 1.96993e+000
5.3800000000e+002	 1.98096e+000
5.4000000000e+002	 1.98850e+000
5.4200000000e+002	 1.99882e+000
5.4400000000e+002	 2.01058e+000
5.4600000000e+002	 2.01823e+000
5.4800000000e+002	 2.02056e+000
5.5000000000e+002	 2.02919e+000
5.5200000000e+002	 2.03635e+000
5.5400000000e+002	 2.03977e+000
5.5600000000e+002	 2.04435e+000
5.5800000000e+002	 2.05449e+000
5.6000000000e+002	 2.05572e+000
5.6200000000e+002	 2.05623e+000
5.6400000000e+002	 2.06938e+000
5.6600000000e+002	 2.06555e+000
5.6800000000e+002	 2.07058e+000
5.7000000000e+002	 2.07237e+000
5.7200000000e+002	 2.06991e+000
5.7400000000e+002	 2.07330e+000
5.7600000000e+002	 2.08125e+000
5.7800000000e+002	 2.07242e+000
5.8000000000e+002	 2.07533e+000
5.8200000000e+002	 2.06866e+000
5.8400000000e+002	 2.08006e+000
5.8600000000e+002	 2.08256e+000
5.8800000000e+002	 2.08149e+000
5.9000000000e+002	 2.07736e+000
5.9200000000e+002	 2.08811e+000
5.9400000000e+002	 2.07521e+000
5.9600000000e+002	 2.07100e+000
5.9800000000e+002	 2.08457e+000
6.0000000000e+002	 2.08099e+000
6.0200000000e+002	 2.06964e+000
6.0400000000e+002	 2.07904e+000
6.0600000000e+002	 2.07986e+000
6.0800000000e+002	 2.08094e+000
6.1000000000e+002	 2.07467e+000
6.1200000000e+002	 2.07401e+000
6.1400000000e+002	 2.07092e+000
6.1600000000e+002	 2.06601e+000
6.1800000000e+002	 2.06436e+000
6.2000000000e+002	 2.05860e+000
6.2200000000e+002	 2.05368e+000
6.2400000000e+002	 2.06018e+000
6.2600000000e+002	 2.05665e+000
6.2800000000e+002	 2.04808e+000
6.3000000000e+002	 2.04425e+000
6.3200000000e+002	 2.04481e+000
6.3400000000e+002	 2.03049e+000
6.3600000000e+002	 2.02298e+000
6.3800000000e+002	 2.02970e+000
6.4000000000e+002	 2.00994e+000
6.4200000000e+002	 2.01748e+000
6.4400000000e+002	 2.01554e+000
6.4600000000e+002	 2.00743e+000
6.4800000000e+002	 2.00539e+000
6.5000000000e+002	 2.01238e+000
6.5200000000e+002	 2.00377e+000
6.5400000000e+002	 1.99942e+000
6.5600000000e+002	 1.99884e+000
6.5800000000e+002	 2.00265e+000
6.6000000000e+002	 1.99820e+000
6.6200000000e+002	 2.00085e+000
6.6400000000e+002	 1.99462e+000
6.6600000000e+002	 2.00637e+000
6.6800000000e+002	 2.00596e+000
6.7000000000e+002	 2.00617e+000
6.7200000000e+002	 2.00259e+000
6.7400000000e+002	 1.99221e+000
6.7600000000e+002	 1.99121e+000
6.7800000000e+002	 1.98588e+000
6.8000000000e+002	 1.98758e+000
6.8200000000e+002	 1.98838e+000
6.8400000000e+002	 1.98514e+000
6.8600000000e+002	 1.97697e+000
6.8800000000e+002	 1.97648e+000
6.9000000000e+002	 1.97719e+000
6.9200000000e+002	 1.97112e+000
6.9400000000e+002	 1.96716e+000
6.9600000000e+002	 1.96704e+000
6.9800000000e+002	 1.96412e+000
7.0000000000e+002	 1.96326e+000
7.0200000000e+002	 1.96074e+000
7.0400000000e+002	 1.96761e+000
7.0600000000e+002	 1.96817e+000
7.0800000000e+002	 1.97047e+000
7.1000000000e+002	 1.96419e+000
7.1200000000e+002	 1.95732e+000
7.1400000000e+002	 1.96069e+000
7.1600000000e+002	 1.95752e+000
7.1800000000e+002	 1.96289e+000
7.2000000000e+002	 1.96036e+000
7.2200000000e+002	 1.96239e+000
7.2400000000e+002	 1.96005e+000
7.2600000000e+002	 1.95265e+000
7.2800000000e+002	 1.96200e+000
7.3000000000e+002	 1.96269e+000
7.3200000000e+002	 1.95707e+000
7.3400000000e+002	 1.95249e+000
7.3600000000e+002	 1.95530e+000
7.3800000000e+002	 1.96036e+000
7.4000000000e+002	 1.95209e+000
7.4200000000e+002	 1.94542e+000
7.4400000000e+002	 1.94722e+000
7.4600000000e+002	 1.94413e+000
7.4800000000e+002	 1.94610e+000
7.5000000000e+002	 1.94523e+000
7.5200000000e+002	 1.94371e+000
7.5400000000e+002	 1.94632e+000
7.5600000000e+002	 1.94222e+000
7.5800000000e+002	 1.94320e+000
7.6000000000e+002	 1.94978e+000
7.6200000000e+002	 1.94161e+000
7.6400000000e+002	 1.93967e+000
7.6600000000e+002	 1.93983e+000
7.6800000000e+002	 1.93878e+000
7.7000000000e+002	 1.94091e+000
7.7200000000e+002	 1.93566e+000
7.7400000000e+002	 1.93782e+000
7.7600000000e+002	 1.93397e+000
7.7800000000e+002	 1.93419e+000
7.8000000000e+002	 1.93061e+000
7.8200000000e+002	 1.92935e+000
7.8400000000e+002	 1.94109e+000
7.8600000000e+002	 1.93216e+000
7.8800000000e+002	 1.93186e+000
7.9000000000e+002	 1.93672e+000
7.9200000000e+002	 1.93170e+000
7.9400000000e+002	 1.92757e+000
7.9600000000e+002	 1.92962e+000
7.9800000000e+002	 1.93069e+000
8.0000000000e+002	 1.92180e+000
8.0200000000e+002	 1.92889e+000
8.0400000000e+002	 1.92505e+000
8.0600000000e+002	 1.92647e+000
8.0800000000e+002	 1.92967e+000
8.1000000000e+002	 1.92032e+000
8.1200000000e+002	 1.92413e+000
8.1400000000e+002	 1.92182e+000
8.1600000000e+002	 1.91619e+000
8.1800000000e+002	 1.91296e+000
8.2000000000e+002	 1.91373e+000
8.2200000000e+002	 1.91444e+000
8.2400000000e+002	 1.91044e+000
8.2600000000e+002	 1.90189e+000
8.2800000000e+002	 1.91226e+000
8.3000000000e+002	 1.91225e+000
8.3200000000e+002	 1.90823e+000
8.3400000000e+002	 1.91235e+000
8.3600000000e+002	 1.90820e+000
8.3800000000e+002	 1.89950e+000
8.4000000000e+002	 1.89796e+000
8.4200000000e+002	 1.89968e+000
8.4400000000e+002	 1.89947e+000
8.4600000000e+002	 1.90276e+000
8.4800000000e+002	 1.90906e+000
8.5000000000e+002	 1.90999e+000
8.5200000000e+002	 1.90301e+000
8.5400000000e+002	 1.90027e+000
8.5600000000e+002	 1.90243e+000
8.5800000000e+002	 1.90702e+000
8.6000000000e+002	 1.90615e+000
8.6200000000e+002	 1.89524e+000
8.6400000000e+002	 1.89550e+000
8.6600000000e+002	 1.89311e+000
8.6800000000e+002	 1.89228e+000
8.7000000000e+002	 1.89624e+000
8.7200000000e+002	 1.89541e+000
8.7400000000e+002	 1.89539e+000
8.7600000000e+002	 1.89637e+000
8.7800000000e+002	 1.89856e+000
8.8000000000e+002	 1.90013e+000
8.8200000000e+002	 1.89614e+000
8.8400000000e+002	 1.89387e+000
8.8600000000e+002	 1.88989e+000
8.8800000000e+002	 1.89446e+000
8.9000000000e+002	 1.89576e+000
8.9200000000e+002	 1.88786e+000
8.9400000000e+002	 1.88773e+000
8.9600000000e+002	 1.88811e+000
8.9800000000e+002	 1.89153e+000
9.0000000000e+002	 1.89318e+000
9.0200000000e+002	 1.88516e+000
9.0400000000e+002	 1.88973e+000
9.0600000000e+002	 1.88529e+000
9.0800000000e+002	 1.89061e+000
9.1000000000e+002	 1.88759e+000
9.1200000000e+002	 1.87888e+000
9.1400000000e+002	 1.88156e+000
9.1600000000e+002	 1.88557e+000
9.1800000000e+002	 1.88517e+000
9.2000000000e+002	 1.88306e+000
9.2200000000e+002	 1.88576e+000
9.2400000000e+002	 1.88092e+000
9.2600000000e+002	 1.87847e+000
9.2800000000e+002	 1.87542e+000
9.3000000000e+002	 1.87166e+000
9.3200000000e+002	 1.87148e+000
9.3400000000e+002	 1.87074e+000
9.3600000000e+002	 1.87447e+000
9.3800000000e+002	 1.87441e+000
9.4000000000e+002	 1.87624e+000
9.4200000000e+002	 1.87164e+000
9.4400000000e+002	 1.87447e+000
9.4600000000e+002	 1.87747e+000
9.4800000000e+002	 1.87627e+000
9.5000000000e+002	 1.87378e+000
9.5200000000e+002	 1.87303e+000
9.5400000000e+002	 1.87133e+000
9.5600000000e+002	 1.87676e+000
9.5800000000e+002	 1.87121e+000
9.6000000000e+002	 1.87078e+000
9.6200000000e+002	 1.86688e+000
9.6400000000e+002	 1.86962e+000
9.6600000000e+002	 1.87271e+000
9.6800000000e+002	 1.86660e+000
9.7000000000e+002	 1.86766e+000
9.7200000000e+002	 1.86722e+000
9.7400000000e+002	 1.86300e+000
9.7600000000e+002	 1.85561e+000
9.7800000000e+002	 1.85798e+000
9.8000000000e+002	 1.85791e+000
9.8200000000e+002	 1.85970e+000
9.8400000000e+002	 1.85967e+000
9.8600000000e+002	 1.85909e+000
9.8800000000e+002	 1.85921e+000
9.9000000000e+002	 1.85621e+000
9.9200000000e+002	 1.85830e+000
9.9400000000e+002	 1.85150e+000
9.9600000000e+002	 1.85627e+000
9.9800000000e+002	 1.86107e+000
1.0000000000e+003	 1.85736e+000
1.0020000000e+003	 1.85726e+000
1.0040000000e+003	 1.85560e+000
1.0060000000e+003	 1.85814e+000
1.0080000000e+003	 1.85449e+000
1.0100000000e+003	 1.85526e+000
1.0120000000e+003	 1.86212e+000
1.0140000000e+003	 1.86091e+000
1.0160000000e+003	 1.85675e+000
1.0180000000e+003	 1.85502e+000
1.0200000000e+003	 1.85608e+000
1.0220000000e+003	 1.85966e+000
1.0240000000e+003	 1.85908e+000
1.0260000000e+003	 1.85554e+000
1.0280000000e+003	 1.85108e+000
1.0300000000e+003	 1.85141e+000
1.0320000000e+003	 1.84843e+000
1.0340000000e+003	 1.85122e+000
1.0360000000e+003	 1.85358e+000
1.0380000000e+003	 1.85280e+000
1.0400000000e+003	 1.85248e+000
1.0420000000e+003	 1.85421e+000
1.0440000000e+003	 1.85255e+000
1.0460000000e+003	 1.85381e+000
1.0480000000e+003	 1.85173e+000
1.0500000000e+003	 1.85071e+000
1.0520000000e+003	 1.85231e+000
1.0540000000e+003	 1.85567e+000
1.0560000000e+003	 1.85319e+000
1.0580000000e+003	 1.85054e+000
1.0600000000e+003	 1.85219e+000
1.0620000000e+003	 1.85538e+000
1.0640000000e+003	 1.85646e+000
1.0660000000e+003	 1.85476e+000
1.0680000000e+003	 1.85027e+000
1.0700000000e+003	 1.84963e+000
1.0720000000e+003	 1.85341e+000
1.0740000000e+003	 1.85359e+000
1.0760000000e+003	 1.85228e+000
1.0780000000e+003	 1.85132e+000
1.0800000000e+003	 1.84902e+000
1.0820000000e+003	 1.84935e+000
1.0840000000e+003	 1.84757e+000
1.0860000000e+003	 1.85244e+000
1.0880000000e+003	 1.85078e+000
1.0900000000e+003	 1.84847e+000
1.0920000000e+003	 1.84904e+000
1.0940000000e+003	 1.84939e+000
1.0960000000e+003	 1.84809e+000
1.0980000000e+003	 1.84489e+000
1.1000000000e+003	 1.84488e+000
1.1020000000e+003	 1.84527e+000
1.1040000000e+003	 1.84577e+000
1.1060000000e+003	 1.84647e+000
1.1080000000e+003	 1.84552e+000
1.1100000000e+003	 1.84534e+000
1.1120000000e+003	 1.84627e+000
1.1140000000e+003	 1.84231e+000
1.1160000000e+003	 1.83975e+000
1.1180000000e+003	 1.84063e+000
1.1200000000e+003	 1.83929e+000
1.1220000000e+003	 1.83361e+000
1.1240000000e+003	 1.83156e+000
1.1260000000e+003	 1.83195e+000
1.1280000000e+003	 1.83321e+000
1.1300000000e+003	 1.83220e+000
1.1320000000e+003	 1.82836e+000
1.1340000000e+003	 1.83161e+000
1.1360000000e+003	 1.82673e+000
1.1380000000e+003	 1.83017e+000
1.1400000000e+003	 1.83368e+000
1.1420000000e+003	 1.83371e+000
1.1440000000e+003	 1.83337e+000
1.1460000000e+003	 1.82907e+000
1.1480000000e+003	 1.82823e+000
1.1500000000e+003	 1.82789e+000
1.1520000000e+003	 1.83027e+000
1.1540000000e+003	 1.82755e+000
1.1560000000e+003	 1.82790e+000
1.1580000000e+003	 1.82666e+000
1.1600000000e+003	 1.82761e+000
1.1620000000e+003	 1.81843e+000
1.1640000000e+003	 1.82161e+000
1.1660000000e+003	 1.82582e+000
1.1680000000e+003	 1.82442e+000
1.1700000000e+003	 1.81918e+000
1.1720000000e+003	 1.82264e+000
1.1740000000e+003	 1.82397e+000
1.1760000000e+003	 1.82689e+000
1.1780000000e+003	 1.82136e+000
1.1800000000e+003	 1.82031e+000
1.1820000000e+003	 1.82250e+000
1.1840000000e+003	 1.82241e+000
1.1860000000e+003	 1.82572e+000
1.1880000000e+003	 1.83434e+000
1.1900000000e+003	 1.82429e+000
1.1920000000e+003	 1.82238e+000
1.1940000000e+003	 1.82150e+000
1.1960000000e+003	 1.82295e+000
1.1980000000e+003	 1.82339e+000
1.2000000000e+003	 1.82579e+000
1.2020000000e+003	 1.82314e+000
1.2040000000e+003	 1.82274e+000
1.2060000000e+003	 1.81992e+000
1.2080000000e+003	 1.81399e+000
1.2100000000e+003	 1.81250e+000
1.2120000000e+003	 1.81550e+000
1.2140000000e+003	 1.81444e+000
1.2160000000e+003	 1.81722e+000
1.2180000000e+003	 1.81761e+000
1.2200000000e+003	 1.81827e+000
1.2220000000e+003	 1.81416e+000
1.2240000000e+003	 1.81278e+000
1.2260000000e+003	 1.81428e+000
1.2280000000e+003	 1.80767e+000
1.2300000000e+003	 1.81601e+000
1.2320000000e+003	 1.81603e+000
1.2340000000e+003	 1.81555e+000
1.2360000000e+003	 1.81926e+000
1.2380000000e+003	 1.82217e+000
1.2400000000e+003	 1.81467e+000
1.2420000000e+003	 1.81048e+000
1.2440000000e+003	 1.81067e+000
1.2460000000e+003	 1.81238e+000
1.2480000000e+003	 1.81181e+000
1.2500000000e+003	 1.81523e+000
1.2520000000e+003	 1.81343e+000
1.2540000000e+003	 1.81618e+000
1.2560000000e+003	 1.81016e+000
1.2580000000e+003	 1.81725e+000
1.2600000000e+003	 1.81952e+000
1.2620000000e+003	 1.81898e+000
1.2640000000e+003	 1.81674e+000
1.2660000000e+003	 1.81693e+000
1.2680000000e+003	 1.81551e+000
1.2700000000e+003	 1.81276e+000
1.2720000000e+003	 1.81183e+000
1.2740000000e+003	 1.81186e+000
1.2760000000e+003	 1.81227e+000
1.2780000000e+003	 1.81834e+000
1.2800000000e+003	 1.81333e+000
1.2820000000e+003	 1.80883e+000
1.2840000000e+003	 1.81055e+000
1.2860000000e+003	 1.81633e+000
1.2880000000e+003	 1.81169e+000
1.2900000000e+003	 1.80553e+000
1.2920000000e+003	 1.80856e+000
1.2940000000e+003	 1.81288e+000
1.2960000000e+003	 1.81082e+000
1.2980000000e+003	 1.81600e+000
1.3000000000e+003	 1.81499e+000
1.3020000000e+003	 1.81787e+000
1.3040000000e+003	 1.81295e+000
1.3060000000e+003	 1.81223e+000
1.3080000000e+003	 1.82038e+000
1.3100000000e+003	 1.82010e+000
1.3120000000e+003	 1.81609e+000
1.3140000000e+003	 1.81544e+000
1.3160000000e+003	 1.81413e+000
1.3180000000e+003	 1.80875e+000
1.3200000000e+003	 1.80570e+000
1.3220000000e+003	 1.80571e+000
1.3240000000e+003	 1.80856e+000
1.3260000000e+003	 1.80793e+000
1.3280000000e+003	 1.80919e+000
1.3300000000e+003	 1.81127e+000
1.3320000000e+003	 1.80575e+000
1.3340000000e+003	 1.80737e+000
1.3360000000e+003	 1.80290e+000
1.3380000000e+003	 1.80512e+000
1.3400000000e+003	 1.80980e+000
1.3420000000e+003	 1.80482e+000
1.3440000000e+003	 1.80999e+000
1.3460000000e+003	 1.81913e+000
1.3480000000e+003	 1.81017e+000
1.3500000000e+003	 1.81069e+000
1.3520000000e+003	 1.80647e+000
1.3540000000e+003	 1.80778e+000
1.3560000000e+003	 1.80580e+000
1.3580000000e+003	 1.80349e+000
1.3600000000e+003	 1.80567e+000
1.3620000000e+003	 1.81171e+000
1.3640000000e+003	 1.80811e+000
1.3660000000e+003	 1.80510e+000
1.3680000000e+003	 1.80688e+000
1.3700000000e+003	 1.80989e+000
1.3720000000e+003	 1.80803e+000
1.3740000000e+003	 1.81241e+000
1.3760000000e+003	 1.80673e+000
1.3780000000e+003	 1.81042e+000
1.3800000000e+003	 1.81140e+000
1.3820000000e+003	 1.81173e+000
1.3840000000e+003	 1.80631e+000
1.3860000000e+003	 1.80349e+000
1.3880000000e+003	 1.80627e+000
1.3900000000e+003	 1.81124e+000
1.3920000000e+003	 1.80544e+000
1.3940000000e+003	 1.80962e+000
1.3960000000e+003	 1.81280e+000
1.3980000000e+003	 1.80967e+000
1.4000000000e+003	 1.80986e+000
1.4020000000e+003	 1.81192e+000
1.4040000000e+003	 1.81188e+000
1.4060000000e+003	 1.81206e+000
1.4080000000e+003	 1.80622e+000
1.4100000000e+003	 1.80380e+000
1.4120000000e+003	 1.80493e+000
1.4140000000e+003	 1.80607e+000
1.4160000000e+003	 1.81264e+000
1.4180000000e+003	 1.80931e+000
1.4200000000e+003	 1.80931e+000
1.4220000000e+003	 1.81661e+000
1.4240000000e+003	 1.81757e+000
1.4260000000e+003	 1.81151e+000
1.4280000000e+003	 1.80595e+000
1.4300000000e+003	 1.80880e+000
1.4320000000e+003	 1.81082e+000
1.4340000000e+003	 1.81538e+000
1.4360000000e+003	 1.82075e+000
1.4380000000e+003	 1.81967e+000
1.4400000000e+003	 1.81428e+000
1.4420000000e+003	 1.80977e+000
1.4440000000e+003	 1.80767e+000
1.4460000000e+003	 1.81313e+000
1.4480000000e+003	 1.80717e+000
1.4500000000e+003	 1.80897e+000
1.4520000000e+003	 1.80804e+000
1.4540000000e+003	 1.81055e+000
1.4560000000e+003	 1.81409e+000
1.4580000000e+003	 1.81235e+000
1.4600000000e+003	 1.81068e+000
1.4620000000e+003	 1.81047e+000
1.4640000000e+003	 1.81304e+000
1.4660000000e+003	 1.81144e+000
1.4680000000e+003	 1.80746e+000
1.4700000000e+003	 1.80491e+000
1.4720000000e+003	 1.80590e+000
1.4740000000e+003	 1.80431e+000
1.4760000000e+003	 1.80301e+000
1.4780000000e+003	 1.80048e+000
1.4800000000e+003	 1.80149e+000
1.4820000000e+003	 1.80626e+000
1.4840000000e+003	 1.80487e+000
1.4860000000e+003	 1.80707e+000
1.4880000000e+003	 1.80047e+000
1.4900000000e+003	 1.80082e+000
1.4920000000e+003	 1.80498e+000
1.4940000000e+003	 1.80656e+000
1.4960000000e+003	 1.80789e+000
1.4980000000e+003	 1.80721e+000
1.5000000000e+003	 1.81165e+000
1.5020000000e+003	 1.80619e+000
1.5040000000e+003	 1.80556e+000
1.5060000000e+003	 1.81467e+000
1.5080000000e+003	 1.81529e+000
1.5100000000e+003	 1.81055e+000
1.5120000000e+003	 1.81278e+000
1.5140000000e+003	 1.81664e+000
1.5160000000e+003	 1.81506e+000
1.5180000000e+003	 1.81228e+000
1.5200000000e+003	 1.81048e+000
1.5220000000e+003	 1.81348e+000
1.5240000000e+003	 1.82110e+000
1.5260000000e+003	 1.81947e+000
1.5280000000e+003	 1.82170e+000
1.5300000000e+003	 1.81715e+000
1.5320000000e+003	 1.81059e+000
1.5340000000e+003	 1.81392e+000
1.5360000000e+003	 1.81523e+000
1.5380000000e+003	 1.81711e+000
1.5400000000e+003	 1.81993e+000
1.5420000000e+003	 1.82340e+000
1.5440000000e+003	 1.82631e+000
1.5460000000e+003	 1.81997e+000
1.5480000000e+003	 1.81090e+000
1.5500000000e+003	 1.81468e+000
1.5520000000e+003	 1.81753e+000
1.5540000000e+003	 1.81881e+000
1.5560000000e+003	 1.81942e+000
1.5580000000e+003	 1.82284e+000
1.5600000000e+003	 1.81976e+000
1.5620000000e+003	 1.82086e+000
1.5640000000e+003	 1.82464e+000
1.5660000000e+003	 1.82288e+000
1.5680000000e+003	 1.82234e+000
1.5700000000e+003	 1.82740e+000
1.5720000000e+003	 1.82744e+000
1.5740000000e+003	 1.81946e+000
1.5760000000e+003	 1.82770e+000
1.5780000000e+003	 1.82824e+000
1.5800000000e+003	 1.82613e+000
1.5820000000e+003	 1.83071e+000
1.5840000000e+003	 1.82969e+000
1.5860000000e+003	 1.82653e+000
1.5880000000e+003	 1.82565e+000
1.5900000000e+003	 1.82376e+000
1.5920000000e+003	 1.82707e+000
1.5940000000e+003	 1.83366e+000
1.5960000000e+003	 1.83842e+000
1.5980000000e+003	 1.83812e+000
1.6000000000e+003	 1.83386e+000
