[Info]
Version 1
Dimension 3
NumNodes 729
Num3DElements 512
Num2DElements 0
Num1DElements 0
NumNodeBC 602
NumSaveNodes 0
NumSaveElements 0
Num 2d-line      : 0
Num 2d-line,quad : 0
Num 3d-line      : 0
Num 3d-line,quad : 0
Num triangle     : 0
Num triangle,quad: 0
Num quadr        : 0
Num quadr,quad   : 0
Num tetra        : 0
Num tetra,quad   : 0
Num brick        : 512
Num brick,quad   : 0
Num pyramid      : 0
Num pyramid,quad : 0
Num wedge        : 0
Num wedge,quad   : 0

[Nodes]
#NodeNr x-coord y-coord z-coord
1  0.0  0.0  0.0
2  0.125  0.0  0.0
3  0.25  0.0  0.0
4  0.375  0.0  0.0
5  0.5  0.0  0.0
6  0.625  0.0  0.0
7  0.75  0.0  0.0
8  0.875  0.0  0.0
9  1.0  0.0  0.0
10  0.0  0.125  0.0
11  0.125  0.125  0.0
12  0.25  0.125  0.0
13  0.375  0.125  0.0
14  0.5  0.125  0.0
15  0.625  0.125  0.0
16  0.75  0.125  0.0
17  0.875  0.125  0.0
18  1.0  0.125  0.0
19  0.0  0.25  0.0
20  0.125  0.25  0.0
21  0.25  0.25  0.0
22  0.375  0.25  0.0
23  0.5  0.25  0.0
24  0.625  0.25  0.0
25  0.75  0.25  0.0
26  0.875  0.25  0.0
27  1.0  0.25  0.0
28  0.0  0.375  0.0
29  0.125  0.375  0.0
30  0.25  0.375  0.0
31  0.375  0.375  0.0
32  0.5  0.375  0.0
33  0.625  0.375  0.0
34  0.75  0.375  0.0
35  0.875  0.375  0.0
36  1.0  0.375  0.0
37  0.0  0.5  0.0
38  0.125  0.5  0.0
39  0.25  0.5  0.0
40  0.375  0.5  0.0
41  0.5  0.5  0.0
42  0.625  0.5  0.0
43  0.75  0.5  0.0
44  0.875  0.5  0.0
45  1.0  0.5  0.0
46  0.0  0.625  0.0
47  0.125  0.625  0.0
48  0.25  0.625  0.0
49  0.375  0.625  0.0
50  0.5  0.625  0.0
51  0.625  0.625  0.0
52  0.75  0.625  0.0
53  0.875  0.625  0.0
54  1.0  0.625  0.0
55  0.0  0.75  0.0
56  0.125  0.75  0.0
57  0.25  0.75  0.0
58  0.375  0.75  0.0
59  0.5  0.75  0.0
60  0.625  0.75  0.0
61  0.75  0.75  0.0
62  0.875  0.75  0.0
63  1.0  0.75  0.0
64  0.0  0.875  0.0
65  0.125  0.875  0.0
66  0.25  0.875  0.0
67  0.375  0.875  0.0
68  0.5  0.875  0.0
69  0.625  0.875  0.0
70  0.75  0.875  0.0
71  0.875  0.875  0.0
72  1.0  0.875  0.0
73  0.0  1.0  0.0
74  0.125  1.0  0.0
75  0.25  1.0  0.0
76  0.375  1.0  0.0
77  0.5  1.0  0.0
78  0.625  1.0  0.0
79  0.75  1.0  0.0
80  0.875  1.0  0.0
81  1.0  1.0  0.0
82  0.0  0.0  0.125
83  0.125  0.0  0.125
84  0.25  0.0  0.125
85  0.375  0.0  0.125
86  0.5  0.0  0.125
87  0.625  0.0  0.125
88  0.75  0.0  0.125
89  0.875  0.0  0.125
90  1.0  0.0  0.125
91  0.0  0.125  0.125
92  0.125  0.125  0.125
93  0.25  0.125  0.125
94  0.375  0.125  0.125
95  0.5  0.125  0.125
96  0.625  0.125  0.125
97  0.75  0.125  0.125
98  0.875  0.125  0.125
99  1.0  0.125  0.125
100  0.0  0.25  0.125
101  0.125  0.25  0.125
102  0.25  0.25  0.125
103  0.375  0.25  0.125
104  0.5  0.25  0.125
105  0.625  0.25  0.125
106  0.75  0.25  0.125
107  0.875  0.25  0.125
108  1.0  0.25  0.125
109  0.0  0.375  0.125
110  0.125  0.375  0.125
111  0.25  0.375  0.125
112  0.375  0.375  0.125
113  0.5  0.375  0.125
114  0.625  0.375  0.125
115  0.75  0.375  0.125
116  0.875  0.375  0.125
117  1.0  0.375  0.125
118  0.0  0.5  0.125
119  0.125  0.5  0.125
120  0.25  0.5  0.125
121  0.375  0.5  0.125
122  0.5  0.5  0.125
123  0.625  0.5  0.125
124  0.75  0.5  0.125
125  0.875  0.5  0.125
126  1.0  0.5  0.125
127  0.0  0.625  0.125
128  0.125  0.625  0.125
129  0.25  0.625  0.125
130  0.375  0.625  0.125
131  0.5  0.625  0.125
132  0.625  0.625  0.125
133  0.75  0.625  0.125
134  0.875  0.625  0.125
135  1.0  0.625  0.125
136  0.0  0.75  0.125
137  0.125  0.75  0.125
138  0.25  0.75  0.125
139  0.375  0.75  0.125
140  0.5  0.75  0.125
141  0.625  0.75  0.125
142  0.75  0.75  0.125
143  0.875  0.75  0.125
144  1.0  0.75  0.125
145  0.0  0.875  0.125
146  0.125  0.875  0.125
147  0.25  0.875  0.125
148  0.375  0.875  0.125
149  0.5  0.875  0.125
150  0.625  0.875  0.125
151  0.75  0.875  0.125
152  0.875  0.875  0.125
153  1.0  0.875  0.125
154  0.0  1.0  0.125
155  0.125  1.0  0.125
156  0.25  1.0  0.125
157  0.375  1.0  0.125
158  0.5  1.0  0.125
159  0.625  1.0  0.125
160  0.75  1.0  0.125
161  0.875  1.0  0.125
162  1.0  1.0  0.125
163  0.0  0.0  0.25
164  0.125  0.0  0.25
165  0.25  0.0  0.25
166  0.375  0.0  0.25
167  0.5  0.0  0.25
168  0.625  0.0  0.25
169  0.75  0.0  0.25
170  0.875  0.0  0.25
171  1.0  0.0  0.25
172  0.0  0.125  0.25
173  0.125  0.125  0.25
174  0.25  0.125  0.25
175  0.375  0.125  0.25
176  0.5  0.125  0.25
177  0.625  0.125  0.25
178  0.75  0.125  0.25
179  0.875  0.125  0.25
180  1.0  0.125  0.25
181  0.0  0.25  0.25
182  0.125  0.25  0.25
183  0.25  0.25  0.25
184  0.375  0.25  0.25
185  0.5  0.25  0.25
186  0.625  0.25  0.25
187  0.75  0.25  0.25
188  0.875  0.25  0.25
189  1.0  0.25  0.25
190  0.0  0.375  0.25
191  0.125  0.375  0.25
192  0.25  0.375  0.25
193  0.375  0.375  0.25
194  0.5  0.375  0.25
195  0.625  0.375  0.25
196  0.75  0.375  0.25
197  0.875  0.375  0.25
198  1.0  0.375  0.25
199  0.0  0.5  0.25
200  0.125  0.5  0.25
201  0.25  0.5  0.25
202  0.375  0.5  0.25
203  0.5  0.5  0.25
204  0.625  0.5  0.25
205  0.75  0.5  0.25
206  0.875  0.5  0.25
207  1.0  0.5  0.25
208  0.0  0.625  0.25
209  0.125  0.625  0.25
210  0.25  0.625  0.25
211  0.375  0.625  0.25
212  0.5  0.625  0.25
213  0.625  0.625  0.25
214  0.75  0.625  0.25
215  0.875  0.625  0.25
216  1.0  0.625  0.25
217  0.0  0.75  0.25
218  0.125  0.75  0.25
219  0.25  0.75  0.25
220  0.375  0.75  0.25
221  0.5  0.75  0.25
222  0.625  0.75  0.25
223  0.75  0.75  0.25
224  0.875  0.75  0.25
225  1.0  0.75  0.25
226  0.0  0.875  0.25
227  0.125  0.875  0.25
228  0.25  0.875  0.25
229  0.375  0.875  0.25
230  0.5  0.875  0.25
231  0.625  0.875  0.25
232  0.75  0.875  0.25
233  0.875  0.875  0.25
234  1.0  0.875  0.25
235  0.0  1.0  0.25
236  0.125  1.0  0.25
237  0.25  1.0  0.25
238  0.375  1.0  0.25
239  0.5  1.0  0.25
240  0.625  1.0  0.25
241  0.75  1.0  0.25
242  0.875  1.0  0.25
243  1.0  1.0  0.25
244  0.0  0.0  0.375
245  0.125  0.0  0.375
246  0.25  0.0  0.375
247  0.375  0.0  0.375
248  0.5  0.0  0.375
249  0.625  0.0  0.375
250  0.75  0.0  0.375
251  0.875  0.0  0.375
252  1.0  0.0  0.375
253  0.0  0.125  0.375
254  0.125  0.125  0.375
255  0.25  0.125  0.375
256  0.375  0.125  0.375
257  0.5  0.125  0.375
258  0.625  0.125  0.375
259  0.75  0.125  0.375
260  0.875  0.125  0.375
261  1.0  0.125  0.375
262  0.0  0.25  0.375
263  0.125  0.25  0.375
264  0.25  0.25  0.375
265  0.375  0.25  0.375
266  0.5  0.25  0.375
267  0.625  0.25  0.375
268  0.75  0.25  0.375
269  0.875  0.25  0.375
270  1.0  0.25  0.375
271  0.0  0.375  0.375
272  0.125  0.375  0.375
273  0.25  0.375  0.375
274  0.375  0.375  0.375
275  0.5  0.375  0.375
276  0.625  0.375  0.375
277  0.75  0.375  0.375
278  0.875  0.375  0.375
279  1.0  0.375  0.375
280  0.0  0.5  0.375
281  0.125  0.5  0.375
282  0.25  0.5  0.375
283  0.375  0.5  0.375
284  0.5  0.5  0.375
285  0.625  0.5  0.375
286  0.75  0.5  0.375
287  0.875  0.5  0.375
288  1.0  0.5  0.375
289  0.0  0.625  0.375
290  0.125  0.625  0.375
291  0.25  0.625  0.375
292  0.375  0.625  0.375
293  0.5  0.625  0.375
294  0.625  0.625  0.375
295  0.75  0.625  0.375
296  0.875  0.625  0.375
297  1.0  0.625  0.375
298  0.0  0.75  0.375
299  0.125  0.75  0.375
300  0.25  0.75  0.375
301  0.375  0.75  0.375
302  0.5  0.75  0.375
303  0.625  0.75  0.375
304  0.75  0.75  0.375
305  0.875  0.75  0.375
306  1.0  0.75  0.375
307  0.0  0.875  0.375
308  0.125  0.875  0.375
309  0.25  0.875  0.375
310  0.375  0.875  0.375
311  0.5  0.875  0.375
312  0.625  0.875  0.375
313  0.75  0.875  0.375
314  0.875  0.875  0.375
315  1.0  0.875  0.375
316  0.0  1.0  0.375
317  0.125  1.0  0.375
318  0.25  1.0  0.375
319  0.375  1.0  0.375
320  0.5  1.0  0.375
321  0.625  1.0  0.375
322  0.75  1.0  0.375
323  0.875  1.0  0.375
324  1.0  1.0  0.375
325  0.0  0.0  0.5
326  0.125  0.0  0.5
327  0.25  0.0  0.5
328  0.375  0.0  0.5
329  0.5  0.0  0.5
330  0.625  0.0  0.5
331  0.75  0.0  0.5
332  0.875  0.0  0.5
333  1.0  0.0  0.5
334  0.0  0.125  0.5
335  0.125  0.125  0.5
336  0.25  0.125  0.5
337  0.375  0.125  0.5
338  0.5  0.125  0.5
339  0.625  0.125  0.5
340  0.75  0.125  0.5
341  0.875  0.125  0.5
342  1.0  0.125  0.5
343  0.0  0.25  0.5
344  0.125  0.25  0.5
345  0.25  0.25  0.5
346  0.375  0.25  0.5
347  0.5  0.25  0.5
348  0.625  0.25  0.5
349  0.75  0.25  0.5
350  0.875  0.25  0.5
351  1.0  0.25  0.5
352  0.0  0.375  0.5
353  0.125  0.375  0.5
354  0.25  0.375  0.5
355  0.375  0.375  0.5
356  0.5  0.375  0.5
357  0.625  0.375  0.5
358  0.75  0.375  0.5
359  0.875  0.375  0.5
360  1.0  0.375  0.5
361  0.0  0.5  0.5
362  0.125  0.5  0.5
363  0.25  0.5  0.5
364  0.375  0.5  0.5
365  0.5  0.5  0.5
366  0.625  0.5  0.5
367  0.75  0.5  0.5
368  0.875  0.5  0.5
369  1.0  0.5  0.5
370  0.0  0.625  0.5
371  0.125  0.625  0.5
372  0.25  0.625  0.5
373  0.375  0.625  0.5
374  0.5  0.625  0.5
375  0.625  0.625  0.5
376  0.75  0.625  0.5
377  0.875  0.625  0.5
378  1.0  0.625  0.5
379  0.0  0.75  0.5
380  0.125  0.75  0.5
381  0.25  0.75  0.5
382  0.375  0.75  0.5
383  0.5  0.75  0.5
384  0.625  0.75  0.5
385  0.75  0.75  0.5
386  0.875  0.75  0.5
387  1.0  0.75  0.5
388  0.0  0.875  0.5
389  0.125  0.875  0.5
390  0.25  0.875  0.5
391  0.375  0.875  0.5
392  0.5  0.875  0.5
393  0.625  0.875  0.5
394  0.75  0.875  0.5
395  0.875  0.875  0.5
396  1.0  0.875  0.5
397  0.0  1.0  0.5
398  0.125  1.0  0.5
399  0.25  1.0  0.5
400  0.375  1.0  0.5
401  0.5  1.0  0.5
402  0.625  1.0  0.5
403  0.75  1.0  0.5
404  0.875  1.0  0.5
405  1.0  1.0  0.5
406  0.0  0.0  0.625
407  0.125  0.0  0.625
408  0.25  0.0  0.625
409  0.375  0.0  0.625
410  0.5  0.0  0.625
411  0.625  0.0  0.625
412  0.75  0.0  0.625
413  0.875  0.0  0.625
414  1.0  0.0  0.625
415  0.0  0.125  0.625
416  0.125  0.125  0.625
417  0.25  0.125  0.625
418  0.375  0.125  0.625
419  0.5  0.125  0.625
420  0.625  0.125  0.625
421  0.75  0.125  0.625
422  0.875  0.125  0.625
423  1.0  0.125  0.625
424  0.0  0.25  0.625
425  0.125  0.25  0.625
426  0.25  0.25  0.625
427  0.375  0.25  0.625
428  0.5  0.25  0.625
429  0.625  0.25  0.625
430  0.75  0.25  0.625
431  0.875  0.25  0.625
432  1.0  0.25  0.625
433  0.0  0.375  0.625
434  0.125  0.375  0.625
435  0.25  0.375  0.625
436  0.375  0.375  0.625
437  0.5  0.375  0.625
438  0.625  0.375  0.625
439  0.75  0.375  0.625
440  0.875  0.375  0.625
441  1.0  0.375  0.625
442  0.0  0.5  0.625
443  0.125  0.5  0.625
444  0.25  0.5  0.625
445  0.375  0.5  0.625
446  0.5  0.5  0.625
447  0.625  0.5  0.625
448  0.75  0.5  0.625
449  0.875  0.5  0.625
450  1.0  0.5  0.625
451  0.0  0.625  0.625
452  0.125  0.625  0.625
453  0.25  0.625  0.625
454  0.375  0.625  0.625
455  0.5  0.625  0.625
456  0.625  0.625  0.625
457  0.75  0.625  0.625
458  0.875  0.625  0.625
459  1.0  0.625  0.625
460  0.0  0.75  0.625
461  0.125  0.75  0.625
462  0.25  0.75  0.625
463  0.375  0.75  0.625
464  0.5  0.75  0.625
465  0.625  0.75  0.625
466  0.75  0.75  0.625
467  0.875  0.75  0.625
468  1.0  0.75  0.625
469  0.0  0.875  0.625
470  0.125  0.875  0.625
471  0.25  0.875  0.625
472  0.375  0.875  0.625
473  0.5  0.875  0.625
474  0.625  0.875  0.625
475  0.75  0.875  0.625
476  0.875  0.875  0.625
477  1.0  0.875  0.625
478  0.0  1.0  0.625
479  0.125  1.0  0.625
480  0.25  1.0  0.625
481  0.375  1.0  0.625
482  0.5  1.0  0.625
483  0.625  1.0  0.625
484  0.75  1.0  0.625
485  0.875  1.0  0.625
486  1.0  1.0  0.625
487  0.0  0.0  0.75
488  0.125  0.0  0.75
489  0.25  0.0  0.75
490  0.375  0.0  0.75
491  0.5  0.0  0.75
492  0.625  0.0  0.75
493  0.75  0.0  0.75
494  0.875  0.0  0.75
495  1.0  0.0  0.75
496  0.0  0.125  0.75
497  0.125  0.125  0.75
498  0.25  0.125  0.75
499  0.375  0.125  0.75
500  0.5  0.125  0.75
501  0.625  0.125  0.75
502  0.75  0.125  0.75
503  0.875  0.125  0.75
504  1.0  0.125  0.75
505  0.0  0.25  0.75
506  0.125  0.25  0.75
507  0.25  0.25  0.75
508  0.375  0.25  0.75
509  0.5  0.25  0.75
510  0.625  0.25  0.75
511  0.75  0.25  0.75
512  0.875  0.25  0.75
513  1.0  0.25  0.75
514  0.0  0.375  0.75
515  0.125  0.375  0.75
516  0.25  0.375  0.75
517  0.375  0.375  0.75
518  0.5  0.375  0.75
519  0.625  0.375  0.75
520  0.75  0.375  0.75
521  0.875  0.375  0.75
522  1.0  0.375  0.75
523  0.0  0.5  0.75
524  0.125  0.5  0.75
525  0.25  0.5  0.75
526  0.375  0.5  0.75
527  0.5  0.5  0.75
528  0.625  0.5  0.75
529  0.75  0.5  0.75
530  0.875  0.5  0.75
531  1.0  0.5  0.75
532  0.0  0.625  0.75
533  0.125  0.625  0.75
534  0.25  0.625  0.75
535  0.375  0.625  0.75
536  0.5  0.625  0.75
537  0.625  0.625  0.75
538  0.75  0.625  0.75
539  0.875  0.625  0.75
540  1.0  0.625  0.75
541  0.0  0.75  0.75
542  0.125  0.75  0.75
543  0.25  0.75  0.75
544  0.375  0.75  0.75
545  0.5  0.75  0.75
546  0.625  0.75  0.75
547  0.75  0.75  0.75
548  0.875  0.75  0.75
549  1.0  0.75  0.75
550  0.0  0.875  0.75
551  0.125  0.875  0.75
552  0.25  0.875  0.75
553  0.375  0.875  0.75
554  0.5  0.875  0.75
555  0.625  0.875  0.75
556  0.75  0.875  0.75
557  0.875  0.875  0.75
558  1.0  0.875  0.75
559  0.0  1.0  0.75
560  0.125  1.0  0.75
561  0.25  1.0  0.75
562  0.375  1.0  0.75
563  0.5  1.0  0.75
564  0.625  1.0  0.75
565  0.75  1.0  0.75
566  0.875  1.0  0.75
567  1.0  1.0  0.75
568  0.0  0.0  0.875
569  0.125  0.0  0.875
570  0.25  0.0  0.875
571  0.375  0.0  0.875
572  0.5  0.0  0.875
573  0.625  0.0  0.875
574  0.75  0.0  0.875
575  0.875  0.0  0.875
576  1.0  0.0  0.875
577  0.0  0.125  0.875
578  0.125  0.125  0.875
579  0.25  0.125  0.875
580  0.375  0.125  0.875
581  0.5  0.125  0.875
582  0.625  0.125  0.875
583  0.75  0.125  0.875
584  0.875  0.125  0.875
585  1.0  0.125  0.875
586  0.0  0.25  0.875
587  0.125  0.25  0.875
588  0.25  0.25  0.875
589  0.375  0.25  0.875
590  0.5  0.25  0.875
591  0.625  0.25  0.875
592  0.75  0.25  0.875
593  0.875  0.25  0.875
594  1.0  0.25  0.875
595  0.0  0.375  0.875
596  0.125  0.375  0.875
597  0.25  0.375  0.875
598  0.375  0.375  0.875
599  0.5  0.375  0.875
600  0.625  0.375  0.875
601  0.75  0.375  0.875
602  0.875  0.375  0.875
603  1.0  0.375  0.875
604  0.0  0.5  0.875
605  0.125  0.5  0.875
606  0.25  0.5  0.875
607  0.375  0.5  0.875
608  0.5  0.5  0.875
609  0.625  0.5  0.875
610  0.75  0.5  0.875
611  0.875  0.5  0.875
612  1.0  0.5  0.875
613  0.0  0.625  0.875
614  0.125  0.625  0.875
615  0.25  0.625  0.875
616  0.375  0.625  0.875
617  0.5  0.625  0.875
618  0.625  0.625  0.875
619  0.75  0.625  0.875
620  0.875  0.625  0.875
621  1.0  0.625  0.875
622  0.0  0.75  0.875
623  0.125  0.75  0.875
624  0.25  0.75  0.875
625  0.375  0.75  0.875
626  0.5  0.75  0.875
627  0.625  0.75  0.875
628  0.75  0.75  0.875
629  0.875  0.75  0.875
630  1.0  0.75  0.875
631  0.0  0.875  0.875
632  0.125  0.875  0.875
633  0.25  0.875  0.875
634  0.375  0.875  0.875
635  0.5  0.875  0.875
636  0.625  0.875  0.875
637  0.75  0.875  0.875
638  0.875  0.875  0.875
639  1.0  0.875  0.875
640  0.0  1.0  0.875
641  0.125  1.0  0.875
642  0.25  1.0  0.875
643  0.375  1.0  0.875
644  0.5  1.0  0.875
645  0.625  1.0  0.875
646  0.75  1.0  0.875
647  0.875  1.0  0.875
648  1.0  1.0  0.875
649  0.0  0.0  1.0
650  0.125  0.0  1.0
651  0.25  0.0  1.0
652  0.375  0.0  1.0
653  0.5  0.0  1.0
654  0.625  0.0  1.0
655  0.75  0.0  1.0
656  0.875  0.0  1.0
657  1.0  0.0  1.0
658  0.0  0.125  1.0
659  0.125  0.125  1.0
660  0.25  0.125  1.0
661  0.375  0.125  1.0
662  0.5  0.125  1.0
663  0.625  0.125  1.0
664  0.75  0.125  1.0
665  0.875  0.125  1.0
666  1.0  0.125  1.0
667  0.0  0.25  1.0
668  0.125  0.25  1.0
669  0.25  0.25  1.0
670  0.375  0.25  1.0
671  0.5  0.25  1.0
672  0.625  0.25  1.0
673  0.75  0.25  1.0
674  0.875  0.25  1.0
675  1.0  0.25  1.0
676  0.0  0.375  1.0
677  0.125  0.375  1.0
678  0.25  0.375  1.0
679  0.375  0.375  1.0
680  0.5  0.375  1.0
681  0.625  0.375  1.0
682  0.75  0.375  1.0
683  0.875  0.375  1.0
684  1.0  0.375  1.0
685  0.0  0.5  1.0
686  0.125  0.5  1.0
687  0.25  0.5  1.0
688  0.375  0.5  1.0
689  0.5  0.5  1.0
690  0.625  0.5  1.0
691  0.75  0.5  1.0
692  0.875  0.5  1.0
693  1.0  0.5  1.0
694  0.0  0.625  1.0
695  0.125  0.625  1.0
696  0.25  0.625  1.0
697  0.375  0.625  1.0
698  0.5  0.625  1.0
699  0.625  0.625  1.0
700  0.75  0.625  1.0
701  0.875  0.625  1.0
702  1.0  0.625  1.0
703  0.0  0.75  1.0
704  0.125  0.75  1.0
705  0.25  0.75  1.0
706  0.375  0.75  1.0
707  0.5  0.75  1.0
708  0.625  0.75  1.0
709  0.75  0.75  1.0
710  0.875  0.75  1.0
711  1.0  0.75  1.0
712  0.0  0.875  1.0
713  0.125  0.875  1.0
714  0.25  0.875  1.0
715  0.375  0.875  1.0
716  0.5  0.875  1.0
717  0.625  0.875  1.0
718  0.75  0.875  1.0
719  0.875  0.875  1.0
720  1.0  0.875  1.0
721  0.0  1.0  1.0
722  0.125  1.0  1.0
723  0.25  1.0  1.0
724  0.375  1.0  1.0
725  0.5  1.0  1.0
726  0.625  1.0  1.0
727  0.75  1.0  1.0
728  0.875  1.0  1.0
729  1.0  1.0  1.0

[1D Elements]
#ElemNr  ElemType  NrOfNodes  Level
#Node1 Node2 ... NodeNrOfNodes

[2D Elements]
#ElemNr  ElemType  NrOfNodes  Level
#Node1 Node2 ... NodeNrOfNodes

[3D Elements]
#ElemNr  ElemType  NrOfNodes  Level
#Node1 Node2 ... NodeNrOfNodes
1 10 8 void
1 2 11 10 82 83 92 91
2 10 8 void
2 3 12 11 83 84 93 92
3 10 8 void
3 4 13 12 84 85 94 93
4 10 8 void
4 5 14 13 85 86 95 94
5 10 8 void
5 6 15 14 86 87 96 95
6 10 8 void
6 7 16 15 87 88 97 96
7 10 8 void
7 8 17 16 88 89 98 97
8 10 8 void
8 9 18 17 89 90 99 98
9 10 8 void
10 11 20 19 91 92 101 100
10 10 8 void
11 12 21 20 92 93 102 101
11 10 8 void
12 13 22 21 93 94 103 102
12 10 8 void
13 14 23 22 94 95 104 103
13 10 8 void
14 15 24 23 95 96 105 104
14 10 8 void
15 16 25 24 96 97 106 105
15 10 8 void
16 17 26 25 97 98 107 106
16 10 8 void
17 18 27 26 98 99 108 107
17 10 8 void
19 20 29 28 100 101 110 109
18 10 8 void
20 21 30 29 101 102 111 110
19 10 8 mech
21 22 31 30 102 103 112 111
20 10 8 mech
22 23 32 31 103 104 113 112
21 10 8 mech
23 24 33 32 104 105 114 113
22 10 8 mech
24 25 34 33 105 106 115 114
23 10 8 void
25 26 35 34 106 107 116 115
24 10 8 void
26 27 36 35 107 108 117 116
25 10 8 void
28 29 38 37 109 110 119 118
26 10 8 void
29 30 39 38 110 111 120 119
27 10 8 mech
30 31 40 39 111 112 121 120
28 10 8 mech
31 32 41 40 112 113 122 121
29 10 8 mech
32 33 42 41 113 114 123 122
30 10 8 mech
33 34 43 42 114 115 124 123
31 10 8 void
34 35 44 43 115 116 125 124
32 10 8 void
35 36 45 44 116 117 126 125
33 10 8 void
37 38 47 46 118 119 128 127
34 10 8 void
38 39 48 47 119 120 129 128
35 10 8 mech
39 40 49 48 120 121 130 129
36 10 8 mech
40 41 50 49 121 122 131 130
37 10 8 mech
41 42 51 50 122 123 132 131
38 10 8 mech
42 43 52 51 123 124 133 132
39 10 8 void
43 44 53 52 124 125 134 133
40 10 8 void
44 45 54 53 125 126 135 134
41 10 8 void
46 47 56 55 127 128 137 136
42 10 8 void
47 48 57 56 128 129 138 137
43 10 8 mech
48 49 58 57 129 130 139 138
44 10 8 mech
49 50 59 58 130 131 140 139
45 10 8 mech
50 51 60 59 131 132 141 140
46 10 8 mech
51 52 61 60 132 133 142 141
47 10 8 void
52 53 62 61 133 134 143 142
48 10 8 void
53 54 63 62 134 135 144 143
49 10 8 void
55 56 65 64 136 137 146 145
50 10 8 void
56 57 66 65 137 138 147 146
51 10 8 void
57 58 67 66 138 139 148 147
52 10 8 void
58 59 68 67 139 140 149 148
53 10 8 void
59 60 69 68 140 141 150 149
54 10 8 void
60 61 70 69 141 142 151 150
55 10 8 void
61 62 71 70 142 143 152 151
56 10 8 void
62 63 72 71 143 144 153 152
57 10 8 void
64 65 74 73 145 146 155 154
58 10 8 void
65 66 75 74 146 147 156 155
59 10 8 void
66 67 76 75 147 148 157 156
60 10 8 void
67 68 77 76 148 149 158 157
61 10 8 void
68 69 78 77 149 150 159 158
62 10 8 void
69 70 79 78 150 151 160 159
63 10 8 void
70 71 80 79 151 152 161 160
64 10 8 void
71 72 81 80 152 153 162 161
65 10 8 void
82 83 92 91 163 164 173 172
66 10 8 void
83 84 93 92 164 165 174 173
67 10 8 void
84 85 94 93 165 166 175 174
68 10 8 void
85 86 95 94 166 167 176 175
69 10 8 void
86 87 96 95 167 168 177 176
70 10 8 void
87 88 97 96 168 169 178 177
71 10 8 void
88 89 98 97 169 170 179 178
72 10 8 void
89 90 99 98 170 171 180 179
73 10 8 void
91 92 101 100 172 173 182 181
74 10 8 void
92 93 102 101 173 174 183 182
75 10 8 void
93 94 103 102 174 175 184 183
76 10 8 void
94 95 104 103 175 176 185 184
77 10 8 void
95 96 105 104 176 177 186 185
78 10 8 void
96 97 106 105 177 178 187 186
79 10 8 void
97 98 107 106 178 179 188 187
80 10 8 void
98 99 108 107 179 180 189 188
81 10 8 void
100 101 110 109 181 182 191 190
82 10 8 void
101 102 111 110 182 183 192 191
83 10 8 mech
102 103 112 111 183 184 193 192
84 10 8 mech
103 104 113 112 184 185 194 193
85 10 8 mech
104 105 114 113 185 186 195 194
86 10 8 mech
105 106 115 114 186 187 196 195
87 10 8 void
106 107 116 115 187 188 197 196
88 10 8 void
107 108 117 116 188 189 198 197
89 10 8 void
109 110 119 118 190 191 200 199
90 10 8 void
110 111 120 119 191 192 201 200
91 10 8 mech
111 112 121 120 192 193 202 201
92 10 8 mech
112 113 122 121 193 194 203 202
93 10 8 mech
113 114 123 122 194 195 204 203
94 10 8 mech
114 115 124 123 195 196 205 204
95 10 8 void
115 116 125 124 196 197 206 205
96 10 8 void
116 117 126 125 197 198 207 206
97 10 8 void
118 119 128 127 199 200 209 208
98 10 8 void
119 120 129 128 200 201 210 209
99 10 8 mech
120 121 130 129 201 202 211 210
100 10 8 mech
121 122 131 130 202 203 212 211
101 10 8 mech
122 123 132 131 203 204 213 212
102 10 8 mech
123 124 133 132 204 205 214 213
103 10 8 void
124 125 134 133 205 206 215 214
104 10 8 void
125 126 135 134 206 207 216 215
105 10 8 void
127 128 137 136 208 209 218 217
106 10 8 void
128 129 138 137 209 210 219 218
107 10 8 mech
129 130 139 138 210 211 220 219
108 10 8 mech
130 131 140 139 211 212 221 220
109 10 8 mech
131 132 141 140 212 213 222 221
110 10 8 mech
132 133 142 141 213 214 223 222
111 10 8 void
133 134 143 142 214 215 224 223
112 10 8 void
134 135 144 143 215 216 225 224
113 10 8 void
136 137 146 145 217 218 227 226
114 10 8 void
137 138 147 146 218 219 228 227
115 10 8 void
138 139 148 147 219 220 229 228
116 10 8 void
139 140 149 148 220 221 230 229
117 10 8 void
140 141 150 149 221 222 231 230
118 10 8 void
141 142 151 150 222 223 232 231
119 10 8 void
142 143 152 151 223 224 233 232
120 10 8 void
143 144 153 152 224 225 234 233
121 10 8 void
145 146 155 154 226 227 236 235
122 10 8 void
146 147 156 155 227 228 237 236
123 10 8 void
147 148 157 156 228 229 238 237
124 10 8 void
148 149 158 157 229 230 239 238
125 10 8 void
149 150 159 158 230 231 240 239
126 10 8 void
150 151 160 159 231 232 241 240
127 10 8 void
151 152 161 160 232 233 242 241
128 10 8 void
152 153 162 161 233 234 243 242
129 10 8 void
163 164 173 172 244 245 254 253
130 10 8 void
164 165 174 173 245 246 255 254
131 10 8 mech
165 166 175 174 246 247 256 255
132 10 8 mech
166 167 176 175 247 248 257 256
133 10 8 mech
167 168 177 176 248 249 258 257
134 10 8 mech
168 169 178 177 249 250 259 258
135 10 8 void
169 170 179 178 250 251 260 259
136 10 8 void
170 171 180 179 251 252 261 260
137 10 8 void
172 173 182 181 253 254 263 262
138 10 8 void
173 174 183 182 254 255 264 263
139 10 8 mech
174 175 184 183 255 256 265 264
140 10 8 mech
175 176 185 184 256 257 266 265
141 10 8 mech
176 177 186 185 257 258 267 266
142 10 8 mech
177 178 187 186 258 259 268 267
143 10 8 void
178 179 188 187 259 260 269 268
144 10 8 void
179 180 189 188 260 261 270 269
145 10 8 mech
181 182 191 190 262 263 272 271
146 10 8 mech
182 183 192 191 263 264 273 272
147 10 8 mech
183 184 193 192 264 265 274 273
148 10 8 mech
184 185 194 193 265 266 275 274
149 10 8 mech
185 186 195 194 266 267 276 275
150 10 8 mech
186 187 196 195 267 268 277 276
151 10 8 mech
187 188 197 196 268 269 278 277
152 10 8 mech
188 189 198 197 269 270 279 278
153 10 8 mech
190 191 200 199 271 272 281 280
154 10 8 mech
191 192 201 200 272 273 282 281
155 10 8 mech
192 193 202 201 273 274 283 282
156 10 8 mech
193 194 203 202 274 275 284 283
157 10 8 mech
194 195 204 203 275 276 285 284
158 10 8 mech
195 196 205 204 276 277 286 285
159 10 8 mech
196 197 206 205 277 278 287 286
160 10 8 mech
197 198 207 206 278 279 288 287
161 10 8 mech
199 200 209 208 280 281 290 289
162 10 8 mech
200 201 210 209 281 282 291 290
163 10 8 mech
201 202 211 210 282 283 292 291
164 10 8 mech
202 203 212 211 283 284 293 292
165 10 8 mech
203 204 213 212 284 285 294 293
166 10 8 mech
204 205 214 213 285 286 295 294
167 10 8 mech
205 206 215 214 286 287 296 295
168 10 8 mech
206 207 216 215 287 288 297 296
169 10 8 mech
208 209 218 217 289 290 299 298
170 10 8 mech
209 210 219 218 290 291 300 299
171 10 8 mech
210 211 220 219 291 292 301 300
172 10 8 mech
211 212 221 220 292 293 302 301
173 10 8 mech
212 213 222 221 293 294 303 302
174 10 8 mech
213 214 223 222 294 295 304 303
175 10 8 mech
214 215 224 223 295 296 305 304
176 10 8 mech
215 216 225 224 296 297 306 305
177 10 8 void
217 218 227 226 298 299 308 307
178 10 8 void
218 219 228 227 299 300 309 308
179 10 8 mech
219 220 229 228 300 301 310 309
180 10 8 mech
220 221 230 229 301 302 311 310
181 10 8 mech
221 222 231 230 302 303 312 311
182 10 8 mech
222 223 232 231 303 304 313 312
183 10 8 void
223 224 233 232 304 305 314 313
184 10 8 void
224 225 234 233 305 306 315 314
185 10 8 void
226 227 236 235 307 308 317 316
186 10 8 void
227 228 237 236 308 309 318 317
187 10 8 mech
228 229 238 237 309 310 319 318
188 10 8 mech
229 230 239 238 310 311 320 319
189 10 8 mech
230 231 240 239 311 312 321 320
190 10 8 mech
231 232 241 240 312 313 322 321
191 10 8 void
232 233 242 241 313 314 323 322
192 10 8 void
233 234 243 242 314 315 324 323
193 10 8 void
244 245 254 253 325 326 335 334
194 10 8 void
245 246 255 254 326 327 336 335
195 10 8 mech
246 247 256 255 327 328 337 336
196 10 8 mech
247 248 257 256 328 329 338 337
197 10 8 mech
248 249 258 257 329 330 339 338
198 10 8 mech
249 250 259 258 330 331 340 339
199 10 8 void
250 251 260 259 331 332 341 340
200 10 8 void
251 252 261 260 332 333 342 341
201 10 8 void
253 254 263 262 334 335 344 343
202 10 8 void
254 255 264 263 335 336 345 344
203 10 8 mech
255 256 265 264 336 337 346 345
204 10 8 mech
256 257 266 265 337 338 347 346
205 10 8 mech
257 258 267 266 338 339 348 347
206 10 8 mech
258 259 268 267 339 340 349 348
207 10 8 void
259 260 269 268 340 341 350 349
208 10 8 void
260 261 270 269 341 342 351 350
209 10 8 mech
262 263 272 271 343 344 353 352
210 10 8 mech
263 264 273 272 344 345 354 353
211 10 8 mech
264 265 274 273 345 346 355 354
212 10 8 mech
265 266 275 274 346 347 356 355
213 10 8 mech
266 267 276 275 347 348 357 356
214 10 8 mech
267 268 277 276 348 349 358 357
215 10 8 mech
268 269 278 277 349 350 359 358
216 10 8 mech
269 270 279 278 350 351 360 359
217 10 8 mech
271 272 281 280 352 353 362 361
218 10 8 mech
272 273 282 281 353 354 363 362
219 10 8 mech
273 274 283 282 354 355 364 363
220 10 8 mech
274 275 284 283 355 356 365 364
221 10 8 mech
275 276 285 284 356 357 366 365
222 10 8 mech
276 277 286 285 357 358 367 366
223 10 8 mech
277 278 287 286 358 359 368 367
224 10 8 mech
278 279 288 287 359 360 369 368
225 10 8 mech
280 281 290 289 361 362 371 370
226 10 8 mech
281 282 291 290 362 363 372 371
227 10 8 mech
282 283 292 291 363 364 373 372
228 10 8 mech
283 284 293 292 364 365 374 373
229 10 8 mech
284 285 294 293 365 366 375 374
230 10 8 mech
285 286 295 294 366 367 376 375
231 10 8 mech
286 287 296 295 367 368 377 376
232 10 8 mech
287 288 297 296 368 369 378 377
233 10 8 mech
289 290 299 298 370 371 380 379
234 10 8 mech
290 291 300 299 371 372 381 380
235 10 8 mech
291 292 301 300 372 373 382 381
236 10 8 mech
292 293 302 301 373 374 383 382
237 10 8 mech
293 294 303 302 374 375 384 383
238 10 8 mech
294 295 304 303 375 376 385 384
239 10 8 mech
295 296 305 304 376 377 386 385
240 10 8 mech
296 297 306 305 377 378 387 386
241 10 8 void
298 299 308 307 379 380 389 388
242 10 8 void
299 300 309 308 380 381 390 389
243 10 8 mech
300 301 310 309 381 382 391 390
244 10 8 mech
301 302 311 310 382 383 392 391
245 10 8 mech
302 303 312 311 383 384 393 392
246 10 8 mech
303 304 313 312 384 385 394 393
247 10 8 void
304 305 314 313 385 386 395 394
248 10 8 void
305 306 315 314 386 387 396 395
249 10 8 void
307 308 317 316 388 389 398 397
250 10 8 void
308 309 318 317 389 390 399 398
251 10 8 mech
309 310 319 318 390 391 400 399
252 10 8 mech
310 311 320 319 391 392 401 400
253 10 8 mech
311 312 321 320 392 393 402 401
254 10 8 mech
312 313 322 321 393 394 403 402
255 10 8 void
313 314 323 322 394 395 404 403
256 10 8 void
314 315 324 323 395 396 405 404
257 10 8 void
325 326 335 334 406 407 416 415
258 10 8 void
326 327 336 335 407 408 417 416
259 10 8 mech
327 328 337 336 408 409 418 417
260 10 8 mech
328 329 338 337 409 410 419 418
261 10 8 mech
329 330 339 338 410 411 420 419
262 10 8 mech
330 331 340 339 411 412 421 420
263 10 8 void
331 332 341 340 412 413 422 421
264 10 8 void
332 333 342 341 413 414 423 422
265 10 8 void
334 335 344 343 415 416 425 424
266 10 8 void
335 336 345 344 416 417 426 425
267 10 8 mech
336 337 346 345 417 418 427 426
268 10 8 mech
337 338 347 346 418 419 428 427
269 10 8 mech
338 339 348 347 419 420 429 428
270 10 8 mech
339 340 349 348 420 421 430 429
271 10 8 void
340 341 350 349 421 422 431 430
272 10 8 void
341 342 351 350 422 423 432 431
273 10 8 mech
343 344 353 352 424 425 434 433
274 10 8 mech
344 345 354 353 425 426 435 434
275 10 8 mech
345 346 355 354 426 427 436 435
276 10 8 mech
346 347 356 355 427 428 437 436
277 10 8 mech
347 348 357 356 428 429 438 437
278 10 8 mech
348 349 358 357 429 430 439 438
279 10 8 mech
349 350 359 358 430 431 440 439
280 10 8 mech
350 351 360 359 431 432 441 440
281 10 8 mech
352 353 362 361 433 434 443 442
282 10 8 mech
353 354 363 362 434 435 444 443
283 10 8 mech
354 355 364 363 435 436 445 444
284 10 8 mech
355 356 365 364 436 437 446 445
285 10 8 mech
356 357 366 365 437 438 447 446
286 10 8 mech
357 358 367 366 438 439 448 447
287 10 8 mech
358 359 368 367 439 440 449 448
288 10 8 mech
359 360 369 368 440 441 450 449
289 10 8 mech
361 362 371 370 442 443 452 451
290 10 8 mech
362 363 372 371 443 444 453 452
291 10 8 mech
363 364 373 372 444 445 454 453
292 10 8 mech
364 365 374 373 445 446 455 454
293 10 8 mech
365 366 375 374 446 447 456 455
294 10 8 mech
366 367 376 375 447 448 457 456
295 10 8 mech
367 368 377 376 448 449 458 457
296 10 8 mech
368 369 378 377 449 450 459 458
297 10 8 mech
370 371 380 379 451 452 461 460
298 10 8 mech
371 372 381 380 452 453 462 461
299 10 8 mech
372 373 382 381 453 454 463 462
300 10 8 mech
373 374 383 382 454 455 464 463
301 10 8 mech
374 375 384 383 455 456 465 464
302 10 8 mech
375 376 385 384 456 457 466 465
303 10 8 mech
376 377 386 385 457 458 467 466
304 10 8 mech
377 378 387 386 458 459 468 467
305 10 8 void
379 380 389 388 460 461 470 469
306 10 8 void
380 381 390 389 461 462 471 470
307 10 8 mech
381 382 391 390 462 463 472 471
308 10 8 mech
382 383 392 391 463 464 473 472
309 10 8 mech
383 384 393 392 464 465 474 473
310 10 8 mech
384 385 394 393 465 466 475 474
311 10 8 void
385 386 395 394 466 467 476 475
312 10 8 void
386 387 396 395 467 468 477 476
313 10 8 void
388 389 398 397 469 470 479 478
314 10 8 void
389 390 399 398 470 471 480 479
315 10 8 mech
390 391 400 399 471 472 481 480
316 10 8 mech
391 392 401 400 472 473 482 481
317 10 8 mech
392 393 402 401 473 474 483 482
318 10 8 mech
393 394 403 402 474 475 484 483
319 10 8 void
394 395 404 403 475 476 485 484
320 10 8 void
395 396 405 404 476 477 486 485
321 10 8 void
406 407 416 415 487 488 497 496
322 10 8 void
407 408 417 416 488 489 498 497
323 10 8 mech
408 409 418 417 489 490 499 498
324 10 8 mech
409 410 419 418 490 491 500 499
325 10 8 mech
410 411 420 419 491 492 501 500
326 10 8 mech
411 412 421 420 492 493 502 501
327 10 8 void
412 413 422 421 493 494 503 502
328 10 8 void
413 414 423 422 494 495 504 503
329 10 8 void
415 416 425 424 496 497 506 505
330 10 8 void
416 417 426 425 497 498 507 506
331 10 8 mech
417 418 427 426 498 499 508 507
332 10 8 mech
418 419 428 427 499 500 509 508
333 10 8 mech
419 420 429 428 500 501 510 509
334 10 8 mech
420 421 430 429 501 502 511 510
335 10 8 void
421 422 431 430 502 503 512 511
336 10 8 void
422 423 432 431 503 504 513 512
337 10 8 mech
424 425 434 433 505 506 515 514
338 10 8 mech
425 426 435 434 506 507 516 515
339 10 8 mech
426 427 436 435 507 508 517 516
340 10 8 mech
427 428 437 436 508 509 518 517
341 10 8 mech
428 429 438 437 509 510 519 518
342 10 8 mech
429 430 439 438 510 511 520 519
343 10 8 mech
430 431 440 439 511 512 521 520
344 10 8 mech
431 432 441 440 512 513 522 521
345 10 8 mech
433 434 443 442 514 515 524 523
346 10 8 mech
434 435 444 443 515 516 525 524
347 10 8 mech
435 436 445 444 516 517 526 525
348 10 8 mech
436 437 446 445 517 518 527 526
349 10 8 mech
437 438 447 446 518 519 528 527
350 10 8 mech
438 439 448 447 519 520 529 528
351 10 8 mech
439 440 449 448 520 521 530 529
352 10 8 mech
440 441 450 449 521 522 531 530
353 10 8 mech
442 443 452 451 523 524 533 532
354 10 8 mech
443 444 453 452 524 525 534 533
355 10 8 mech
444 445 454 453 525 526 535 534
356 10 8 mech
445 446 455 454 526 527 536 535
357 10 8 mech
446 447 456 455 527 528 537 536
358 10 8 mech
447 448 457 456 528 529 538 537
359 10 8 mech
448 449 458 457 529 530 539 538
360 10 8 mech
449 450 459 458 530 531 540 539
361 10 8 mech
451 452 461 460 532 533 542 541
362 10 8 mech
452 453 462 461 533 534 543 542
363 10 8 mech
453 454 463 462 534 535 544 543
364 10 8 mech
454 455 464 463 535 536 545 544
365 10 8 mech
455 456 465 464 536 537 546 545
366 10 8 mech
456 457 466 465 537 538 547 546
367 10 8 mech
457 458 467 466 538 539 548 547
368 10 8 mech
458 459 468 467 539 540 549 548
369 10 8 void
460 461 470 469 541 542 551 550
370 10 8 void
461 462 471 470 542 543 552 551
371 10 8 mech
462 463 472 471 543 544 553 552
372 10 8 mech
463 464 473 472 544 545 554 553
373 10 8 mech
464 465 474 473 545 546 555 554
374 10 8 mech
465 466 475 474 546 547 556 555
375 10 8 void
466 467 476 475 547 548 557 556
376 10 8 void
467 468 477 476 548 549 558 557
377 10 8 void
469 470 479 478 550 551 560 559
378 10 8 void
470 471 480 479 551 552 561 560
379 10 8 mech
471 472 481 480 552 553 562 561
380 10 8 mech
472 473 482 481 553 554 563 562
381 10 8 mech
473 474 483 482 554 555 564 563
382 10 8 mech
474 475 484 483 555 556 565 564
383 10 8 void
475 476 485 484 556 557 566 565
384 10 8 void
476 477 486 485 557 558 567 566
385 10 8 void
487 488 497 496 568 569 578 577
386 10 8 void
488 489 498 497 569 570 579 578
387 10 8 void
489 490 499 498 570 571 580 579
388 10 8 void
490 491 500 499 571 572 581 580
389 10 8 void
491 492 501 500 572 573 582 581
390 10 8 void
492 493 502 501 573 574 583 582
391 10 8 void
493 494 503 502 574 575 584 583
392 10 8 void
494 495 504 503 575 576 585 584
393 10 8 void
496 497 506 505 577 578 587 586
394 10 8 void
497 498 507 506 578 579 588 587
395 10 8 void
498 499 508 507 579 580 589 588
396 10 8 void
499 500 509 508 580 581 590 589
397 10 8 void
500 501 510 509 581 582 591 590
398 10 8 void
501 502 511 510 582 583 592 591
399 10 8 void
502 503 512 511 583 584 593 592
400 10 8 void
503 504 513 512 584 585 594 593
401 10 8 void
505 506 515 514 586 587 596 595
402 10 8 void
506 507 516 515 587 588 597 596
403 10 8 mech
507 508 517 516 588 589 598 597
404 10 8 mech
508 509 518 517 589 590 599 598
405 10 8 mech
509 510 519 518 590 591 600 599
406 10 8 mech
510 511 520 519 591 592 601 600
407 10 8 void
511 512 521 520 592 593 602 601
408 10 8 void
512 513 522 521 593 594 603 602
409 10 8 void
514 515 524 523 595 596 605 604
410 10 8 void
515 516 525 524 596 597 606 605
411 10 8 mech
516 517 526 525 597 598 607 606
412 10 8 mech
517 518 527 526 598 599 608 607
413 10 8 mech
518 519 528 527 599 600 609 608
414 10 8 mech
519 520 529 528 600 601 610 609
415 10 8 void
520 521 530 529 601 602 611 610
416 10 8 void
521 522 531 530 602 603 612 611
417 10 8 void
523 524 533 532 604 605 614 613
418 10 8 void
524 525 534 533 605 606 615 614
419 10 8 mech
525 526 535 534 606 607 616 615
420 10 8 mech
526 527 536 535 607 608 617 616
421 10 8 mech
527 528 537 536 608 609 618 617
422 10 8 mech
528 529 538 537 609 610 619 618
423 10 8 void
529 530 539 538 610 611 620 619
424 10 8 void
530 531 540 539 611 612 621 620
425 10 8 void
532 533 542 541 613 614 623 622
426 10 8 void
533 534 543 542 614 615 624 623
427 10 8 mech
534 535 544 543 615 616 625 624
428 10 8 mech
535 536 545 544 616 617 626 625
429 10 8 mech
536 537 546 545 617 618 627 626
430 10 8 mech
537 538 547 546 618 619 628 627
431 10 8 void
538 539 548 547 619 620 629 628
432 10 8 void
539 540 549 548 620 621 630 629
433 10 8 void
541 542 551 550 622 623 632 631
434 10 8 void
542 543 552 551 623 624 633 632
435 10 8 void
543 544 553 552 624 625 634 633
436 10 8 void
544 545 554 553 625 626 635 634
437 10 8 void
545 546 555 554 626 627 636 635
438 10 8 void
546 547 556 555 627 628 637 636
439 10 8 void
547 548 557 556 628 629 638 637
440 10 8 void
548 549 558 557 629 630 639 638
441 10 8 void
550 551 560 559 631 632 641 640
442 10 8 void
551 552 561 560 632 633 642 641
443 10 8 void
552 553 562 561 633 634 643 642
444 10 8 void
553 554 563 562 634 635 644 643
445 10 8 void
554 555 564 563 635 636 645 644
446 10 8 void
555 556 565 564 636 637 646 645
447 10 8 void
556 557 566 565 637 638 647 646
448 10 8 void
557 558 567 566 638 639 648 647
449 10 8 void
568 569 578 577 649 650 659 658
450 10 8 void
569 570 579 578 650 651 660 659
451 10 8 void
570 571 580 579 651 652 661 660
452 10 8 void
571 572 581 580 652 653 662 661
453 10 8 void
572 573 582 581 653 654 663 662
454 10 8 void
573 574 583 582 654 655 664 663
455 10 8 void
574 575 584 583 655 656 665 664
456 10 8 void
575 576 585 584 656 657 666 665
457 10 8 void
577 578 587 586 658 659 668 667
458 10 8 void
578 579 588 587 659 660 669 668
459 10 8 void
579 580 589 588 660 661 670 669
460 10 8 void
580 581 590 589 661 662 671 670
461 10 8 void
581 582 591 590 662 663 672 671
462 10 8 void
582 583 592 591 663 664 673 672
463 10 8 void
583 584 593 592 664 665 674 673
464 10 8 void
584 585 594 593 665 666 675 674
465 10 8 void
586 587 596 595 667 668 677 676
466 10 8 void
587 588 597 596 668 669 678 677
467 10 8 mech
588 589 598 597 669 670 679 678
468 10 8 mech
589 590 599 598 670 671 680 679
469 10 8 mech
590 591 600 599 671 672 681 680
470 10 8 mech
591 592 601 600 672 673 682 681
471 10 8 void
592 593 602 601 673 674 683 682
472 10 8 void
593 594 603 602 674 675 684 683
473 10 8 void
595 596 605 604 676 677 686 685
474 10 8 void
596 597 606 605 677 678 687 686
475 10 8 mech
597 598 607 606 678 679 688 687
476 10 8 mech
598 599 608 607 679 680 689 688
477 10 8 mech
599 600 609 608 680 681 690 689
478 10 8 mech
600 601 610 609 681 682 691 690
479 10 8 void
601 602 611 610 682 683 692 691
480 10 8 void
602 603 612 611 683 684 693 692
481 10 8 void
604 605 614 613 685 686 695 694
482 10 8 void
605 606 615 614 686 687 696 695
483 10 8 mech
606 607 616 615 687 688 697 696
484 10 8 mech
607 608 617 616 688 689 698 697
485 10 8 mech
608 609 618 617 689 690 699 698
486 10 8 mech
609 610 619 618 690 691 700 699
487 10 8 void
610 611 620 619 691 692 701 700
488 10 8 void
611 612 621 620 692 693 702 701
489 10 8 void
613 614 623 622 694 695 704 703
490 10 8 void
614 615 624 623 695 696 705 704
491 10 8 mech
615 616 625 624 696 697 706 705
492 10 8 mech
616 617 626 625 697 698 707 706
493 10 8 mech
617 618 627 626 698 699 708 707
494 10 8 mech
618 619 628 627 699 700 709 708
495 10 8 void
619 620 629 628 700 701 710 709
496 10 8 void
620 621 630 629 701 702 711 710
497 10 8 void
622 623 632 631 703 704 713 712
498 10 8 void
623 624 633 632 704 705 714 713
499 10 8 void
624 625 634 633 705 706 715 714
500 10 8 void
625 626 635 634 706 707 716 715
501 10 8 void
626 627 636 635 707 708 717 716
502 10 8 void
627 628 637 636 708 709 718 717
503 10 8 void
628 629 638 637 709 710 719 718
504 10 8 void
629 630 639 638 710 711 720 719
505 10 8 void
631 632 641 640 712 713 722 721
506 10 8 void
632 633 642 641 713 714 723 722
507 10 8 void
633 634 643 642 714 715 724 723
508 10 8 void
634 635 644 643 715 716 725 724
509 10 8 void
635 636 645 644 716 717 726 725
510 10 8 void
636 637 646 645 717 718 727 726
511 10 8 void
637 638 647 646 718 719 728 727
512 10 8 void
638 639 648 647 719 720 729 728

[Node BC]
#NodeNr Level
1 left
10 left
19 left
28 left
37 left
46 left
55 left
64 left
73 left
82 left
91 left
100 left
109 left
118 left
127 left
136 left
145 left
154 left
163 left
172 left
181 left
190 left
199 left
208 left
217 left
226 left
235 left
244 left
253 left
262 left
271 left
280 left
289 left
298 left
307 left
316 left
325 left
334 left
343 left
352 left
361 left
370 left
379 left
388 left
397 left
406 left
415 left
424 left
433 left
442 left
451 left
460 left
469 left
478 left
487 left
496 left
505 left
514 left
523 left
532 left
541 left
550 left
559 left
568 left
577 left
586 left
595 left
604 left
613 left
622 left
631 left
640 left
649 left
658 left
667 left
676 left
685 left
694 left
703 left
712 left
721 left
9 right
18 right
27 right
36 right
45 right
54 right
63 right
72 right
81 right
90 right
99 right
108 right
117 right
126 right
135 right
144 right
153 right
162 right
171 right
180 right
189 right
198 right
207 right
216 right
225 right
234 right
243 right
252 right
261 right
270 right
279 right
288 right
297 right
306 right
315 right
324 right
333 right
342 right
351 right
360 right
369 right
378 right
387 right
396 right
405 right
414 right
423 right
432 right
441 right
450 right
459 right
468 right
477 right
486 right
495 right
504 right
513 right
522 right
531 right
540 right
549 right
558 right
567 right
576 right
585 right
594 right
603 right
612 right
621 right
630 right
639 right
648 right
657 right
666 right
675 right
684 right
693 right
702 right
711 right
720 right
729 right
1 bottom
2 bottom
3 bottom
4 bottom
5 bottom
6 bottom
7 bottom
8 bottom
9 bottom
82 bottom
83 bottom
84 bottom
85 bottom
86 bottom
87 bottom
88 bottom
89 bottom
90 bottom
163 bottom
164 bottom
165 bottom
166 bottom
167 bottom
168 bottom
169 bottom
170 bottom
171 bottom
244 bottom
245 bottom
246 bottom
247 bottom
248 bottom
249 bottom
250 bottom
251 bottom
252 bottom
325 bottom
326 bottom
327 bottom
328 bottom
329 bottom
330 bottom
331 bottom
332 bottom
333 bottom
406 bottom
407 bottom
408 bottom
409 bottom
410 bottom
411 bottom
412 bottom
413 bottom
414 bottom
487 bottom
488 bottom
489 bottom
490 bottom
491 bottom
492 bottom
493 bottom
494 bottom
495 bottom
568 bottom
569 bottom
570 bottom
571 bottom
572 bottom
573 bottom
574 bottom
575 bottom
576 bottom
649 bottom
650 bottom
651 bottom
652 bottom
653 bottom
654 bottom
655 bottom
656 bottom
657 bottom
73 top
74 top
75 top
76 top
77 top
78 top
79 top
80 top
81 top
154 top
155 top
156 top
157 top
158 top
159 top
160 top
161 top
162 top
235 top
236 top
237 top
238 top
239 top
240 top
241 top
242 top
243 top
316 top
317 top
318 top
319 top
320 top
321 top
322 top
323 top
324 top
397 top
398 top
399 top
400 top
401 top
402 top
403 top
404 top
405 top
478 top
479 top
480 top
481 top
482 top
483 top
484 top
485 top
486 top
559 top
560 top
561 top
562 top
563 top
564 top
565 top
566 top
567 top
640 top
641 top
642 top
643 top
644 top
645 top
646 top
647 top
648 top
721 top
722 top
723 top
724 top
725 top
726 top
727 top
728 top
729 top
1 back
2 back
3 back
4 back
5 back
6 back
7 back
8 back
9 back
10 back
11 back
12 back
13 back
14 back
15 back
16 back
17 back
18 back
19 back
20 back
21 back
22 back
23 back
24 back
25 back
26 back
27 back
28 back
29 back
30 back
31 back
32 back
33 back
34 back
35 back
36 back
37 back
38 back
39 back
40 back
41 back
42 back
43 back
44 back
45 back
46 back
47 back
48 back
49 back
50 back
51 back
52 back
53 back
54 back
55 back
56 back
57 back
58 back
59 back
60 back
61 back
62 back
63 back
64 back
65 back
66 back
67 back
68 back
69 back
70 back
71 back
72 back
73 back
74 back
75 back
76 back
77 back
78 back
79 back
80 back
81 back
649 front
650 front
651 front
652 front
653 front
654 front
655 front
656 front
657 front
658 front
659 front
660 front
661 front
662 front
663 front
664 front
665 front
666 front
667 front
668 front
669 front
670 front
671 front
672 front
673 front
674 front
675 front
676 front
677 front
678 front
679 front
680 front
681 front
682 front
683 front
684 front
685 front
686 front
687 front
688 front
689 front
690 front
691 front
692 front
693 front
694 front
695 front
696 front
697 front
698 front
699 front
700 front
701 front
702 front
703 front
704 front
705 front
706 front
707 front
708 front
709 front
710 front
711 front
712 front
713 front
714 front
715 front
716 front
717 front
718 front
719 front
720 front
721 front
722 front
723 front
724 front
725 front
726 front
727 front
728 front
729 front
1 left_bottom_back
9 right_bottom_back
73 left_top_back
81 right_top_back
649 left_bottom_front
657 right_bottom_front
721 left_top_front
729 right_top_front
1 bottom_back
2 bottom_back
3 bottom_back
4 bottom_back
5 bottom_back
6 bottom_back
7 bottom_back
8 bottom_back
9 bottom_back
649 bottom_front
650 bottom_front
651 bottom_front
652 bottom_front
653 bottom_front
654 bottom_front
655 bottom_front
656 bottom_front
657 bottom_front
1 bottom_left
82 bottom_left
163 bottom_left
244 bottom_left
325 bottom_left
406 bottom_left
487 bottom_left
568 bottom_left
649 bottom_left
9 bottom_right
90 bottom_right
171 bottom_right
252 bottom_right
333 bottom_right
414 bottom_right
495 bottom_right
576 bottom_right
657 bottom_right
73 top_back
74 top_back
75 top_back
76 top_back
77 top_back
78 top_back
79 top_back
80 top_back
81 top_back
721 top_front
722 top_front
723 top_front
724 top_front
725 top_front
726 top_front
727 top_front
728 top_front
729 top_front
73 top_left
154 top_left
235 top_left
316 top_left
397 top_left
478 top_left
559 top_left
640 top_left
721 top_left
81 top_right
162 top_right
243 top_right
324 top_right
405 top_right
486 top_right
567 top_right
648 top_right
729 top_right
1 back_left
10 back_left
19 back_left
28 back_left
37 back_left
46 back_left
55 back_left
64 back_left
73 back_left
9 back_right
18 back_right
27 back_right
36 back_right
45 back_right
54 back_right
63 back_right
72 back_right
81 back_right
649 front_left
658 front_left
667 front_left
676 front_left
685 front_left
694 front_left
703 front_left
712 front_left
721 front_left
657 front_right
666 front_right
675 front_right
684 front_right
693 front_right
702 front_right
711 front_right
720 front_right
729 front_right

[Save Nodes]
#NodeNr Level

[Save Elements]
#ElemNr Level

 
