[Info]
Version 1
Dimension 2
NumNodes 861
Num3DElements 0
Num2DElements 800
Num1DElements 0
NumNodeBC 128
NumSaveNodes 0
NumSaveElements 0
Num 2d-line      : 0
Num 2d-line,quad : 0
Num 3d-line      : 0
Num 3d-line,quad : 0
Num triangle     : 0
Num triangle,quad: 0
Num quadr        : 800
Num quadr,quad   : 0
Num tetra        : 0
Num tetra,quad   : 0
Num brick        : 0
Num brick,quad   : 0
Num pyramid      : 0
Num pyramid,quad : 0
Num wedge        : 0
Num wedge,quad   : 0

[Nodes]
#NodeNr x-coord y-coord z-coord
1  0.0  0.0  0.0
2  0.025  0.0  0.0
3  0.05  0.0  0.0
4  0.075  0.0  0.0
5  0.1  0.0  0.0
6  0.125  0.0  0.0
7  0.15  0.0  0.0
8  0.175  0.0  0.0
9  0.2  0.0  0.0
10  0.225  0.0  0.0
11  0.25  0.0  0.0
12  0.275  0.0  0.0
13  0.3  0.0  0.0
14  0.325  0.0  0.0
15  0.35  0.0  0.0
16  0.375  0.0  0.0
17  0.4  0.0  0.0
18  0.425  0.0  0.0
19  0.45  0.0  0.0
20  0.475  0.0  0.0
21  0.5  0.0  0.0
22  0.525  0.0  0.0
23  0.55  0.0  0.0
24  0.575  0.0  0.0
25  0.6  0.0  0.0
26  0.625  0.0  0.0
27  0.65  0.0  0.0
28  0.675  0.0  0.0
29  0.7  0.0  0.0
30  0.725  0.0  0.0
31  0.75  0.0  0.0
32  0.775  0.0  0.0
33  0.8  0.0  0.0
34  0.825  0.0  0.0
35  0.85  0.0  0.0
36  0.875  0.0  0.0
37  0.9  0.0  0.0
38  0.925  0.0  0.0
39  0.95  0.0  0.0
40  0.975  0.0  0.0
41  1.0  0.0  0.0
42  0.0  0.025  0.0
43  0.025  0.025  0.0
44  0.05  0.025  0.0
45  0.075  0.025  0.0
46  0.1  0.025  0.0
47  0.125  0.025  0.0
48  0.15  0.025  0.0
49  0.175  0.025  0.0
50  0.2  0.025  0.0
51  0.225  0.025  0.0
52  0.25  0.025  0.0
53  0.275  0.025  0.0
54  0.3  0.025  0.0
55  0.325  0.025  0.0
56  0.35  0.025  0.0
57  0.375  0.025  0.0
58  0.4  0.025  0.0
59  0.425  0.025  0.0
60  0.45  0.025  0.0
61  0.475  0.025  0.0
62  0.5  0.025  0.0
63  0.525  0.025  0.0
64  0.55  0.025  0.0
65  0.575  0.025  0.0
66  0.6  0.025  0.0
67  0.625  0.025  0.0
68  0.65  0.025  0.0
69  0.675  0.025  0.0
70  0.7  0.025  0.0
71  0.725  0.025  0.0
72  0.75  0.025  0.0
73  0.775  0.025  0.0
74  0.8  0.025  0.0
75  0.825  0.025  0.0
76  0.85  0.025  0.0
77  0.875  0.025  0.0
78  0.9  0.025  0.0
79  0.925  0.025  0.0
80  0.95  0.025  0.0
81  0.975  0.025  0.0
82  1.0  0.025  0.0
83  0.0  0.05  0.0
84  0.025  0.05  0.0
85  0.05  0.05  0.0
86  0.075  0.05  0.0
87  0.1  0.05  0.0
88  0.125  0.05  0.0
89  0.15  0.05  0.0
90  0.175  0.05  0.0
91  0.2  0.05  0.0
92  0.225  0.05  0.0
93  0.25  0.05  0.0
94  0.275  0.05  0.0
95  0.3  0.05  0.0
96  0.325  0.05  0.0
97  0.35  0.05  0.0
98  0.375  0.05  0.0
99  0.4  0.05  0.0
100  0.425  0.05  0.0
101  0.45  0.05  0.0
102  0.475  0.05  0.0
103  0.5  0.05  0.0
104  0.525  0.05  0.0
105  0.55  0.05  0.0
106  0.575  0.05  0.0
107  0.6  0.05  0.0
108  0.625  0.05  0.0
109  0.65  0.05  0.0
110  0.675  0.05  0.0
111  0.7  0.05  0.0
112  0.725  0.05  0.0
113  0.75  0.05  0.0
114  0.775  0.05  0.0
115  0.8  0.05  0.0
116  0.825  0.05  0.0
117  0.85  0.05  0.0
118  0.875  0.05  0.0
119  0.9  0.05  0.0
120  0.925  0.05  0.0
121  0.95  0.05  0.0
122  0.975  0.05  0.0
123  1.0  0.05  0.0
124  0.0  0.075  0.0
125  0.025  0.075  0.0
126  0.05  0.075  0.0
127  0.075  0.075  0.0
128  0.1  0.075  0.0
129  0.125  0.075  0.0
130  0.15  0.075  0.0
131  0.175  0.075  0.0
132  0.2  0.075  0.0
133  0.225  0.075  0.0
134  0.25  0.075  0.0
135  0.275  0.075  0.0
136  0.3  0.075  0.0
137  0.325  0.075  0.0
138  0.35  0.075  0.0
139  0.375  0.075  0.0
140  0.4  0.075  0.0
141  0.425  0.075  0.0
142  0.45  0.075  0.0
143  0.475  0.075  0.0
144  0.5  0.075  0.0
145  0.525  0.075  0.0
146  0.55  0.075  0.0
147  0.575  0.075  0.0
148  0.6  0.075  0.0
149  0.625  0.075  0.0
150  0.65  0.075  0.0
151  0.675  0.075  0.0
152  0.7  0.075  0.0
153  0.725  0.075  0.0
154  0.75  0.075  0.0
155  0.775  0.075  0.0
156  0.8  0.075  0.0
157  0.825  0.075  0.0
158  0.85  0.075  0.0
159  0.875  0.075  0.0
160  0.9  0.075  0.0
161  0.925  0.075  0.0
162  0.95  0.075  0.0
163  0.975  0.075  0.0
164  1.0  0.075  0.0
165  0.0  0.1  0.0
166  0.025  0.1  0.0
167  0.05  0.1  0.0
168  0.075  0.1  0.0
169  0.1  0.1  0.0
170  0.125  0.1  0.0
171  0.15  0.1  0.0
172  0.175  0.1  0.0
173  0.2  0.1  0.0
174  0.225  0.1  0.0
175  0.25  0.1  0.0
176  0.275  0.1  0.0
177  0.3  0.1  0.0
178  0.325  0.1  0.0
179  0.35  0.1  0.0
180  0.375  0.1  0.0
181  0.4  0.1  0.0
182  0.425  0.1  0.0
183  0.45  0.1  0.0
184  0.475  0.1  0.0
185  0.5  0.1  0.0
186  0.525  0.1  0.0
187  0.55  0.1  0.0
188  0.575  0.1  0.0
189  0.6  0.1  0.0
190  0.625  0.1  0.0
191  0.65  0.1  0.0
192  0.675  0.1  0.0
193  0.7  0.1  0.0
194  0.725  0.1  0.0
195  0.75  0.1  0.0
196  0.775  0.1  0.0
197  0.8  0.1  0.0
198  0.825  0.1  0.0
199  0.85  0.1  0.0
200  0.875  0.1  0.0
201  0.9  0.1  0.0
202  0.925  0.1  0.0
203  0.95  0.1  0.0
204  0.975  0.1  0.0
205  1.0  0.1  0.0
206  0.0  0.125  0.0
207  0.025  0.125  0.0
208  0.05  0.125  0.0
209  0.075  0.125  0.0
210  0.1  0.125  0.0
211  0.125  0.125  0.0
212  0.15  0.125  0.0
213  0.175  0.125  0.0
214  0.2  0.125  0.0
215  0.225  0.125  0.0
216  0.25  0.125  0.0
217  0.275  0.125  0.0
218  0.3  0.125  0.0
219  0.325  0.125  0.0
220  0.35  0.125  0.0
221  0.375  0.125  0.0
222  0.4  0.125  0.0
223  0.425  0.125  0.0
224  0.45  0.125  0.0
225  0.475  0.125  0.0
226  0.5  0.125  0.0
227  0.525  0.125  0.0
228  0.55  0.125  0.0
229  0.575  0.125  0.0
230  0.6  0.125  0.0
231  0.625  0.125  0.0
232  0.65  0.125  0.0
233  0.675  0.125  0.0
234  0.7  0.125  0.0
235  0.725  0.125  0.0
236  0.75  0.125  0.0
237  0.775  0.125  0.0
238  0.8  0.125  0.0
239  0.825  0.125  0.0
240  0.85  0.125  0.0
241  0.875  0.125  0.0
242  0.9  0.125  0.0
243  0.925  0.125  0.0
244  0.95  0.125  0.0
245  0.975  0.125  0.0
246  1.0  0.125  0.0
247  0.0  0.15  0.0
248  0.025  0.15  0.0
249  0.05  0.15  0.0
250  0.075  0.15  0.0
251  0.1  0.15  0.0
252  0.125  0.15  0.0
253  0.15  0.15  0.0
254  0.175  0.15  0.0
255  0.2  0.15  0.0
256  0.225  0.15  0.0
257  0.25  0.15  0.0
258  0.275  0.15  0.0
259  0.3  0.15  0.0
260  0.325  0.15  0.0
261  0.35  0.15  0.0
262  0.375  0.15  0.0
263  0.4  0.15  0.0
264  0.425  0.15  0.0
265  0.45  0.15  0.0
266  0.475  0.15  0.0
267  0.5  0.15  0.0
268  0.525  0.15  0.0
269  0.55  0.15  0.0
270  0.575  0.15  0.0
271  0.6  0.15  0.0
272  0.625  0.15  0.0
273  0.65  0.15  0.0
274  0.675  0.15  0.0
275  0.7  0.15  0.0
276  0.725  0.15  0.0
277  0.75  0.15  0.0
278  0.775  0.15  0.0
279  0.8  0.15  0.0
280  0.825  0.15  0.0
281  0.85  0.15  0.0
282  0.875  0.15  0.0
283  0.9  0.15  0.0
284  0.925  0.15  0.0
285  0.95  0.15  0.0
286  0.975  0.15  0.0
287  1.0  0.15  0.0
288  0.0  0.175  0.0
289  0.025  0.175  0.0
290  0.05  0.175  0.0
291  0.075  0.175  0.0
292  0.1  0.175  0.0
293  0.125  0.175  0.0
294  0.15  0.175  0.0
295  0.175  0.175  0.0
296  0.2  0.175  0.0
297  0.225  0.175  0.0
298  0.25  0.175  0.0
299  0.275  0.175  0.0
300  0.3  0.175  0.0
301  0.325  0.175  0.0
302  0.35  0.175  0.0
303  0.375  0.175  0.0
304  0.4  0.175  0.0
305  0.425  0.175  0.0
306  0.45  0.175  0.0
307  0.475  0.175  0.0
308  0.5  0.175  0.0
309  0.525  0.175  0.0
310  0.55  0.175  0.0
311  0.575  0.175  0.0
312  0.6  0.175  0.0
313  0.625  0.175  0.0
314  0.65  0.175  0.0
315  0.675  0.175  0.0
316  0.7  0.175  0.0
317  0.725  0.175  0.0
318  0.75  0.175  0.0
319  0.775  0.175  0.0
320  0.8  0.175  0.0
321  0.825  0.175  0.0
322  0.85  0.175  0.0
323  0.875  0.175  0.0
324  0.9  0.175  0.0
325  0.925  0.175  0.0
326  0.95  0.175  0.0
327  0.975  0.175  0.0
328  1.0  0.175  0.0
329  0.0  0.2  0.0
330  0.025  0.2  0.0
331  0.05  0.2  0.0
332  0.075  0.2  0.0
333  0.1  0.2  0.0
334  0.125  0.2  0.0
335  0.15  0.2  0.0
336  0.175  0.2  0.0
337  0.2  0.2  0.0
338  0.225  0.2  0.0
339  0.25  0.2  0.0
340  0.275  0.2  0.0
341  0.3  0.2  0.0
342  0.325  0.2  0.0
343  0.35  0.2  0.0
344  0.375  0.2  0.0
345  0.4  0.2  0.0
346  0.425  0.2  0.0
347  0.45  0.2  0.0
348  0.475  0.2  0.0
349  0.5  0.2  0.0
350  0.525  0.2  0.0
351  0.55  0.2  0.0
352  0.575  0.2  0.0
353  0.6  0.2  0.0
354  0.625  0.2  0.0
355  0.65  0.2  0.0
356  0.675  0.2  0.0
357  0.7  0.2  0.0
358  0.725  0.2  0.0
359  0.75  0.2  0.0
360  0.775  0.2  0.0
361  0.8  0.2  0.0
362  0.825  0.2  0.0
363  0.85  0.2  0.0
364  0.875  0.2  0.0
365  0.9  0.2  0.0
366  0.925  0.2  0.0
367  0.95  0.2  0.0
368  0.975  0.2  0.0
369  1.0  0.2  0.0
370  0.0  0.225  0.0
371  0.025  0.225  0.0
372  0.05  0.225  0.0
373  0.075  0.225  0.0
374  0.1  0.225  0.0
375  0.125  0.225  0.0
376  0.15  0.225  0.0
377  0.175  0.225  0.0
378  0.2  0.225  0.0
379  0.225  0.225  0.0
380  0.25  0.225  0.0
381  0.275  0.225  0.0
382  0.3  0.225  0.0
383  0.325  0.225  0.0
384  0.35  0.225  0.0
385  0.375  0.225  0.0
386  0.4  0.225  0.0
387  0.425  0.225  0.0
388  0.45  0.225  0.0
389  0.475  0.225  0.0
390  0.5  0.225  0.0
391  0.525  0.225  0.0
392  0.55  0.225  0.0
393  0.575  0.225  0.0
394  0.6  0.225  0.0
395  0.625  0.225  0.0
396  0.65  0.225  0.0
397  0.675  0.225  0.0
398  0.7  0.225  0.0
399  0.725  0.225  0.0
400  0.75  0.225  0.0
401  0.775  0.225  0.0
402  0.8  0.225  0.0
403  0.825  0.225  0.0
404  0.85  0.225  0.0
405  0.875  0.225  0.0
406  0.9  0.225  0.0
407  0.925  0.225  0.0
408  0.95  0.225  0.0
409  0.975  0.225  0.0
410  1.0  0.225  0.0
411  0.0  0.25  0.0
412  0.025  0.25  0.0
413  0.05  0.25  0.0
414  0.075  0.25  0.0
415  0.1  0.25  0.0
416  0.125  0.25  0.0
417  0.15  0.25  0.0
418  0.175  0.25  0.0
419  0.2  0.25  0.0
420  0.225  0.25  0.0
421  0.25  0.25  0.0
422  0.275  0.25  0.0
423  0.3  0.25  0.0
424  0.325  0.25  0.0
425  0.35  0.25  0.0
426  0.375  0.25  0.0
427  0.4  0.25  0.0
428  0.425  0.25  0.0
429  0.45  0.25  0.0
430  0.475  0.25  0.0
431  0.5  0.25  0.0
432  0.525  0.25  0.0
433  0.55  0.25  0.0
434  0.575  0.25  0.0
435  0.6  0.25  0.0
436  0.625  0.25  0.0
437  0.65  0.25  0.0
438  0.675  0.25  0.0
439  0.7  0.25  0.0
440  0.725  0.25  0.0
441  0.75  0.25  0.0
442  0.775  0.25  0.0
443  0.8  0.25  0.0
444  0.825  0.25  0.0
445  0.85  0.25  0.0
446  0.875  0.25  0.0
447  0.9  0.25  0.0
448  0.925  0.25  0.0
449  0.95  0.25  0.0
450  0.975  0.25  0.0
451  1.0  0.25  0.0
452  0.0  0.275  0.0
453  0.025  0.275  0.0
454  0.05  0.275  0.0
455  0.075  0.275  0.0
456  0.1  0.275  0.0
457  0.125  0.275  0.0
458  0.15  0.275  0.0
459  0.175  0.275  0.0
460  0.2  0.275  0.0
461  0.225  0.275  0.0
462  0.25  0.275  0.0
463  0.275  0.275  0.0
464  0.3  0.275  0.0
465  0.325  0.275  0.0
466  0.35  0.275  0.0
467  0.375  0.275  0.0
468  0.4  0.275  0.0
469  0.425  0.275  0.0
470  0.45  0.275  0.0
471  0.475  0.275  0.0
472  0.5  0.275  0.0
473  0.525  0.275  0.0
474  0.55  0.275  0.0
475  0.575  0.275  0.0
476  0.6  0.275  0.0
477  0.625  0.275  0.0
478  0.65  0.275  0.0
479  0.675  0.275  0.0
480  0.7  0.275  0.0
481  0.725  0.275  0.0
482  0.75  0.275  0.0
483  0.775  0.275  0.0
484  0.8  0.275  0.0
485  0.825  0.275  0.0
486  0.85  0.275  0.0
487  0.875  0.275  0.0
488  0.9  0.275  0.0
489  0.925  0.275  0.0
490  0.95  0.275  0.0
491  0.975  0.275  0.0
492  1.0  0.275  0.0
493  0.0  0.3  0.0
494  0.025  0.3  0.0
495  0.05  0.3  0.0
496  0.075  0.3  0.0
497  0.1  0.3  0.0
498  0.125  0.3  0.0
499  0.15  0.3  0.0
500  0.175  0.3  0.0
501  0.2  0.3  0.0
502  0.225  0.3  0.0
503  0.25  0.3  0.0
504  0.275  0.3  0.0
505  0.3  0.3  0.0
506  0.325  0.3  0.0
507  0.35  0.3  0.0
508  0.375  0.3  0.0
509  0.4  0.3  0.0
510  0.425  0.3  0.0
511  0.45  0.3  0.0
512  0.475  0.3  0.0
513  0.5  0.3  0.0
514  0.525  0.3  0.0
515  0.55  0.3  0.0
516  0.575  0.3  0.0
517  0.6  0.3  0.0
518  0.625  0.3  0.0
519  0.65  0.3  0.0
520  0.675  0.3  0.0
521  0.7  0.3  0.0
522  0.725  0.3  0.0
523  0.75  0.3  0.0
524  0.775  0.3  0.0
525  0.8  0.3  0.0
526  0.825  0.3  0.0
527  0.85  0.3  0.0
528  0.875  0.3  0.0
529  0.9  0.3  0.0
530  0.925  0.3  0.0
531  0.95  0.3  0.0
532  0.975  0.3  0.0
533  1.0  0.3  0.0
534  0.0  0.325  0.0
535  0.025  0.325  0.0
536  0.05  0.325  0.0
537  0.075  0.325  0.0
538  0.1  0.325  0.0
539  0.125  0.325  0.0
540  0.15  0.325  0.0
541  0.175  0.325  0.0
542  0.2  0.325  0.0
543  0.225  0.325  0.0
544  0.25  0.325  0.0
545  0.275  0.325  0.0
546  0.3  0.325  0.0
547  0.325  0.325  0.0
548  0.35  0.325  0.0
549  0.375  0.325  0.0
550  0.4  0.325  0.0
551  0.425  0.325  0.0
552  0.45  0.325  0.0
553  0.475  0.325  0.0
554  0.5  0.325  0.0
555  0.525  0.325  0.0
556  0.55  0.325  0.0
557  0.575  0.325  0.0
558  0.6  0.325  0.0
559  0.625  0.325  0.0
560  0.65  0.325  0.0
561  0.675  0.325  0.0
562  0.7  0.325  0.0
563  0.725  0.325  0.0
564  0.75  0.325  0.0
565  0.775  0.325  0.0
566  0.8  0.325  0.0
567  0.825  0.325  0.0
568  0.85  0.325  0.0
569  0.875  0.325  0.0
570  0.9  0.325  0.0
571  0.925  0.325  0.0
572  0.95  0.325  0.0
573  0.975  0.325  0.0
574  1.0  0.325  0.0
575  0.0  0.35  0.0
576  0.025  0.35  0.0
577  0.05  0.35  0.0
578  0.075  0.35  0.0
579  0.1  0.35  0.0
580  0.125  0.35  0.0
581  0.15  0.35  0.0
582  0.175  0.35  0.0
583  0.2  0.35  0.0
584  0.225  0.35  0.0
585  0.25  0.35  0.0
586  0.275  0.35  0.0
587  0.3  0.35  0.0
588  0.325  0.35  0.0
589  0.35  0.35  0.0
590  0.375  0.35  0.0
591  0.4  0.35  0.0
592  0.425  0.35  0.0
593  0.45  0.35  0.0
594  0.475  0.35  0.0
595  0.5  0.35  0.0
596  0.525  0.35  0.0
597  0.55  0.35  0.0
598  0.575  0.35  0.0
599  0.6  0.35  0.0
600  0.625  0.35  0.0
601  0.65  0.35  0.0
602  0.675  0.35  0.0
603  0.7  0.35  0.0
604  0.725  0.35  0.0
605  0.75  0.35  0.0
606  0.775  0.35  0.0
607  0.8  0.35  0.0
608  0.825  0.35  0.0
609  0.85  0.35  0.0
610  0.875  0.35  0.0
611  0.9  0.35  0.0
612  0.925  0.35  0.0
613  0.95  0.35  0.0
614  0.975  0.35  0.0
615  1.0  0.35  0.0
616  0.0  0.375  0.0
617  0.025  0.375  0.0
618  0.05  0.375  0.0
619  0.075  0.375  0.0
620  0.1  0.375  0.0
621  0.125  0.375  0.0
622  0.15  0.375  0.0
623  0.175  0.375  0.0
624  0.2  0.375  0.0
625  0.225  0.375  0.0
626  0.25  0.375  0.0
627  0.275  0.375  0.0
628  0.3  0.375  0.0
629  0.325  0.375  0.0
630  0.35  0.375  0.0
631  0.375  0.375  0.0
632  0.4  0.375  0.0
633  0.425  0.375  0.0
634  0.45  0.375  0.0
635  0.475  0.375  0.0
636  0.5  0.375  0.0
637  0.525  0.375  0.0
638  0.55  0.375  0.0
639  0.575  0.375  0.0
640  0.6  0.375  0.0
641  0.625  0.375  0.0
642  0.65  0.375  0.0
643  0.675  0.375  0.0
644  0.7  0.375  0.0
645  0.725  0.375  0.0
646  0.75  0.375  0.0
647  0.775  0.375  0.0
648  0.8  0.375  0.0
649  0.825  0.375  0.0
650  0.85  0.375  0.0
651  0.875  0.375  0.0
652  0.9  0.375  0.0
653  0.925  0.375  0.0
654  0.95  0.375  0.0
655  0.975  0.375  0.0
656  1.0  0.375  0.0
657  0.0  0.4  0.0
658  0.025  0.4  0.0
659  0.05  0.4  0.0
660  0.075  0.4  0.0
661  0.1  0.4  0.0
662  0.125  0.4  0.0
663  0.15  0.4  0.0
664  0.175  0.4  0.0
665  0.2  0.4  0.0
666  0.225  0.4  0.0
667  0.25  0.4  0.0
668  0.275  0.4  0.0
669  0.3  0.4  0.0
670  0.325  0.4  0.0
671  0.35  0.4  0.0
672  0.375  0.4  0.0
673  0.4  0.4  0.0
674  0.425  0.4  0.0
675  0.45  0.4  0.0
676  0.475  0.4  0.0
677  0.5  0.4  0.0
678  0.525  0.4  0.0
679  0.55  0.4  0.0
680  0.575  0.4  0.0
681  0.6  0.4  0.0
682  0.625  0.4  0.0
683  0.65  0.4  0.0
684  0.675  0.4  0.0
685  0.7  0.4  0.0
686  0.725  0.4  0.0
687  0.75  0.4  0.0
688  0.775  0.4  0.0
689  0.8  0.4  0.0
690  0.825  0.4  0.0
691  0.85  0.4  0.0
692  0.875  0.4  0.0
693  0.9  0.4  0.0
694  0.925  0.4  0.0
695  0.95  0.4  0.0
696  0.975  0.4  0.0
697  1.0  0.4  0.0
698  0.0  0.425  0.0
699  0.025  0.425  0.0
700  0.05  0.425  0.0
701  0.075  0.425  0.0
702  0.1  0.425  0.0
703  0.125  0.425  0.0
704  0.15  0.425  0.0
705  0.175  0.425  0.0
706  0.2  0.425  0.0
707  0.225  0.425  0.0
708  0.25  0.425  0.0
709  0.275  0.425  0.0
710  0.3  0.425  0.0
711  0.325  0.425  0.0
712  0.35  0.425  0.0
713  0.375  0.425  0.0
714  0.4  0.425  0.0
715  0.425  0.425  0.0
716  0.45  0.425  0.0
717  0.475  0.425  0.0
718  0.5  0.425  0.0
719  0.525  0.425  0.0
720  0.55  0.425  0.0
721  0.575  0.425  0.0
722  0.6  0.425  0.0
723  0.625  0.425  0.0
724  0.65  0.425  0.0
725  0.675  0.425  0.0
726  0.7  0.425  0.0
727  0.725  0.425  0.0
728  0.75  0.425  0.0
729  0.775  0.425  0.0
730  0.8  0.425  0.0
731  0.825  0.425  0.0
732  0.85  0.425  0.0
733  0.875  0.425  0.0
734  0.9  0.425  0.0
735  0.925  0.425  0.0
736  0.95  0.425  0.0
737  0.975  0.425  0.0
738  1.0  0.425  0.0
739  0.0  0.45  0.0
740  0.025  0.45  0.0
741  0.05  0.45  0.0
742  0.075  0.45  0.0
743  0.1  0.45  0.0
744  0.125  0.45  0.0
745  0.15  0.45  0.0
746  0.175  0.45  0.0
747  0.2  0.45  0.0
748  0.225  0.45  0.0
749  0.25  0.45  0.0
750  0.275  0.45  0.0
751  0.3  0.45  0.0
752  0.325  0.45  0.0
753  0.35  0.45  0.0
754  0.375  0.45  0.0
755  0.4  0.45  0.0
756  0.425  0.45  0.0
757  0.45  0.45  0.0
758  0.475  0.45  0.0
759  0.5  0.45  0.0
760  0.525  0.45  0.0
761  0.55  0.45  0.0
762  0.575  0.45  0.0
763  0.6  0.45  0.0
764  0.625  0.45  0.0
765  0.65  0.45  0.0
766  0.675  0.45  0.0
767  0.7  0.45  0.0
768  0.725  0.45  0.0
769  0.75  0.45  0.0
770  0.775  0.45  0.0
771  0.8  0.45  0.0
772  0.825  0.45  0.0
773  0.85  0.45  0.0
774  0.875  0.45  0.0
775  0.9  0.45  0.0
776  0.925  0.45  0.0
777  0.95  0.45  0.0
778  0.975  0.45  0.0
779  1.0  0.45  0.0
780  0.0  0.475  0.0
781  0.025  0.475  0.0
782  0.05  0.475  0.0
783  0.075  0.475  0.0
784  0.1  0.475  0.0
785  0.125  0.475  0.0
786  0.15  0.475  0.0
787  0.175  0.475  0.0
788  0.2  0.475  0.0
789  0.225  0.475  0.0
790  0.25  0.475  0.0
791  0.275  0.475  0.0
792  0.3  0.475  0.0
793  0.325  0.475  0.0
794  0.35  0.475  0.0
795  0.375  0.475  0.0
796  0.4  0.475  0.0
797  0.425  0.475  0.0
798  0.45  0.475  0.0
799  0.475  0.475  0.0
800  0.5  0.475  0.0
801  0.525  0.475  0.0
802  0.55  0.475  0.0
803  0.575  0.475  0.0
804  0.6  0.475  0.0
805  0.625  0.475  0.0
806  0.65  0.475  0.0
807  0.675  0.475  0.0
808  0.7  0.475  0.0
809  0.725  0.475  0.0
810  0.75  0.475  0.0
811  0.775  0.475  0.0
812  0.8  0.475  0.0
813  0.825  0.475  0.0
814  0.85  0.475  0.0
815  0.875  0.475  0.0
816  0.9  0.475  0.0
817  0.925  0.475  0.0
818  0.95  0.475  0.0
819  0.975  0.475  0.0
820  1.0  0.475  0.0
821  0.0  0.5  0.0
822  0.025  0.5  0.0
823  0.05  0.5  0.0
824  0.075  0.5  0.0
825  0.1  0.5  0.0
826  0.125  0.5  0.0
827  0.15  0.5  0.0
828  0.175  0.5  0.0
829  0.2  0.5  0.0
830  0.225  0.5  0.0
831  0.25  0.5  0.0
832  0.275  0.5  0.0
833  0.3  0.5  0.0
834  0.325  0.5  0.0
835  0.35  0.5  0.0
836  0.375  0.5  0.0
837  0.4  0.5  0.0
838  0.425  0.5  0.0
839  0.45  0.5  0.0
840  0.475  0.5  0.0
841  0.5  0.5  0.0
842  0.525  0.5  0.0
843  0.55  0.5  0.0
844  0.575  0.5  0.0
845  0.6  0.5  0.0
846  0.625  0.5  0.0
847  0.65  0.5  0.0
848  0.675  0.5  0.0
849  0.7  0.5  0.0
850  0.725  0.5  0.0
851  0.75  0.5  0.0
852  0.775  0.5  0.0
853  0.8  0.5  0.0
854  0.825  0.5  0.0
855  0.85  0.5  0.0
856  0.875  0.5  0.0
857  0.9  0.5  0.0
858  0.925  0.5  0.0
859  0.95  0.5  0.0
860  0.975  0.5  0.0
861  1.0  0.5  0.0

[1D Elements]
#ElemNr  ElemType  NrOfNodes  Level
#Node1 Node2 ... NodeNrOfNodes

[2D Elements]
#ElemNr  ElemType  NrOfNodes  Level
#Node1 Node2 ... NodeNrOfNodes
1 6 4 mech
1 2 43 42
2 6 4 mech
2 3 44 43
3 6 4 mech
3 4 45 44
4 6 4 mech
4 5 46 45
5 6 4 mech
5 6 47 46
6 6 4 mech
6 7 48 47
7 6 4 mech
7 8 49 48
8 6 4 mech
8 9 50 49
9 6 4 mech
9 10 51 50
10 6 4 mech
10 11 52 51
11 6 4 mech
11 12 53 52
12 6 4 mech
12 13 54 53
13 6 4 mech
13 14 55 54
14 6 4 mech
14 15 56 55
15 6 4 mech
15 16 57 56
16 6 4 mech
16 17 58 57
17 6 4 mech
17 18 59 58
18 6 4 mech
18 19 60 59
19 6 4 mech
19 20 61 60
20 6 4 mech
20 21 62 61
21 6 4 mech
21 22 63 62
22 6 4 mech
22 23 64 63
23 6 4 mech
23 24 65 64
24 6 4 mech
24 25 66 65
25 6 4 mech
25 26 67 66
26 6 4 mech
26 27 68 67
27 6 4 mech
27 28 69 68
28 6 4 mech
28 29 70 69
29 6 4 mech
29 30 71 70
30 6 4 mech
30 31 72 71
31 6 4 mech
31 32 73 72
32 6 4 mech
32 33 74 73
33 6 4 mech
33 34 75 74
34 6 4 mech
34 35 76 75
35 6 4 mech
35 36 77 76
36 6 4 mech
36 37 78 77
37 6 4 mech
37 38 79 78
38 6 4 mech
38 39 80 79
39 6 4 mech
39 40 81 80
40 6 4 mech
40 41 82 81
41 6 4 mech
42 43 84 83
42 6 4 mech
43 44 85 84
43 6 4 mech
44 45 86 85
44 6 4 mech
45 46 87 86
45 6 4 mech
46 47 88 87
46 6 4 mech
47 48 89 88
47 6 4 mech
48 49 90 89
48 6 4 mech
49 50 91 90
49 6 4 mech
50 51 92 91
50 6 4 mech
51 52 93 92
51 6 4 mech
52 53 94 93
52 6 4 mech
53 54 95 94
53 6 4 mech
54 55 96 95
54 6 4 mech
55 56 97 96
55 6 4 mech
56 57 98 97
56 6 4 mech
57 58 99 98
57 6 4 mech
58 59 100 99
58 6 4 mech
59 60 101 100
59 6 4 mech
60 61 102 101
60 6 4 mech
61 62 103 102
61 6 4 mech
62 63 104 103
62 6 4 mech
63 64 105 104
63 6 4 mech
64 65 106 105
64 6 4 mech
65 66 107 106
65 6 4 mech
66 67 108 107
66 6 4 mech
67 68 109 108
67 6 4 mech
68 69 110 109
68 6 4 mech
69 70 111 110
69 6 4 mech
70 71 112 111
70 6 4 mech
71 72 113 112
71 6 4 mech
72 73 114 113
72 6 4 mech
73 74 115 114
73 6 4 mech
74 75 116 115
74 6 4 mech
75 76 117 116
75 6 4 mech
76 77 118 117
76 6 4 mech
77 78 119 118
77 6 4 mech
78 79 120 119
78 6 4 mech
79 80 121 120
79 6 4 mech
80 81 122 121
80 6 4 mech
81 82 123 122
81 6 4 mech
83 84 125 124
82 6 4 mech
84 85 126 125
83 6 4 mech
85 86 127 126
84 6 4 mech
86 87 128 127
85 6 4 mech
87 88 129 128
86 6 4 mech
88 89 130 129
87 6 4 mech
89 90 131 130
88 6 4 mech
90 91 132 131
89 6 4 mech
91 92 133 132
90 6 4 mech
92 93 134 133
91 6 4 mech
93 94 135 134
92 6 4 mech
94 95 136 135
93 6 4 mech
95 96 137 136
94 6 4 mech
96 97 138 137
95 6 4 mech
97 98 139 138
96 6 4 mech
98 99 140 139
97 6 4 mech
99 100 141 140
98 6 4 mech
100 101 142 141
99 6 4 mech
101 102 143 142
100 6 4 mech
102 103 144 143
101 6 4 mech
103 104 145 144
102 6 4 mech
104 105 146 145
103 6 4 mech
105 106 147 146
104 6 4 mech
106 107 148 147
105 6 4 mech
107 108 149 148
106 6 4 mech
108 109 150 149
107 6 4 mech
109 110 151 150
108 6 4 mech
110 111 152 151
109 6 4 mech
111 112 153 152
110 6 4 mech
112 113 154 153
111 6 4 mech
113 114 155 154
112 6 4 mech
114 115 156 155
113 6 4 mech
115 116 157 156
114 6 4 mech
116 117 158 157
115 6 4 mech
117 118 159 158
116 6 4 mech
118 119 160 159
117 6 4 mech
119 120 161 160
118 6 4 mech
120 121 162 161
119 6 4 mech
121 122 163 162
120 6 4 mech
122 123 164 163
121 6 4 mech
124 125 166 165
122 6 4 mech
125 126 167 166
123 6 4 mech
126 127 168 167
124 6 4 mech
127 128 169 168
125 6 4 mech
128 129 170 169
126 6 4 mech
129 130 171 170
127 6 4 mech
130 131 172 171
128 6 4 mech
131 132 173 172
129 6 4 mech
132 133 174 173
130 6 4 mech
133 134 175 174
131 6 4 mech
134 135 176 175
132 6 4 mech
135 136 177 176
133 6 4 mech
136 137 178 177
134 6 4 mech
137 138 179 178
135 6 4 mech
138 139 180 179
136 6 4 mech
139 140 181 180
137 6 4 mech
140 141 182 181
138 6 4 mech
141 142 183 182
139 6 4 mech
142 143 184 183
140 6 4 mech
143 144 185 184
141 6 4 mech
144 145 186 185
142 6 4 mech
145 146 187 186
143 6 4 mech
146 147 188 187
144 6 4 mech
147 148 189 188
145 6 4 mech
148 149 190 189
146 6 4 mech
149 150 191 190
147 6 4 mech
150 151 192 191
148 6 4 mech
151 152 193 192
149 6 4 mech
152 153 194 193
150 6 4 mech
153 154 195 194
151 6 4 mech
154 155 196 195
152 6 4 mech
155 156 197 196
153 6 4 mech
156 157 198 197
154 6 4 mech
157 158 199 198
155 6 4 mech
158 159 200 199
156 6 4 mech
159 160 201 200
157 6 4 mech
160 161 202 201
158 6 4 mech
161 162 203 202
159 6 4 mech
162 163 204 203
160 6 4 mech
163 164 205 204
161 6 4 mech
165 166 207 206
162 6 4 mech
166 167 208 207
163 6 4 mech
167 168 209 208
164 6 4 mech
168 169 210 209
165 6 4 mech
169 170 211 210
166 6 4 mech
170 171 212 211
167 6 4 mech
171 172 213 212
168 6 4 mech
172 173 214 213
169 6 4 mech
173 174 215 214
170 6 4 mech
174 175 216 215
171 6 4 mech
175 176 217 216
172 6 4 mech
176 177 218 217
173 6 4 mech
177 178 219 218
174 6 4 mech
178 179 220 219
175 6 4 mech
179 180 221 220
176 6 4 mech
180 181 222 221
177 6 4 mech
181 182 223 222
178 6 4 mech
182 183 224 223
179 6 4 mech
183 184 225 224
180 6 4 mech
184 185 226 225
181 6 4 mech
185 186 227 226
182 6 4 mech
186 187 228 227
183 6 4 mech
187 188 229 228
184 6 4 mech
188 189 230 229
185 6 4 mech
189 190 231 230
186 6 4 mech
190 191 232 231
187 6 4 mech
191 192 233 232
188 6 4 mech
192 193 234 233
189 6 4 mech
193 194 235 234
190 6 4 mech
194 195 236 235
191 6 4 mech
195 196 237 236
192 6 4 mech
196 197 238 237
193 6 4 mech
197 198 239 238
194 6 4 mech
198 199 240 239
195 6 4 mech
199 200 241 240
196 6 4 mech
200 201 242 241
197 6 4 mech
201 202 243 242
198 6 4 mech
202 203 244 243
199 6 4 mech
203 204 245 244
200 6 4 mech
204 205 246 245
201 6 4 mech
206 207 248 247
202 6 4 mech
207 208 249 248
203 6 4 mech
208 209 250 249
204 6 4 mech
209 210 251 250
205 6 4 mech
210 211 252 251
206 6 4 mech
211 212 253 252
207 6 4 mech
212 213 254 253
208 6 4 mech
213 214 255 254
209 6 4 mech
214 215 256 255
210 6 4 mech
215 216 257 256
211 6 4 mech
216 217 258 257
212 6 4 mech
217 218 259 258
213 6 4 mech
218 219 260 259
214 6 4 mech
219 220 261 260
215 6 4 mech
220 221 262 261
216 6 4 mech
221 222 263 262
217 6 4 mech
222 223 264 263
218 6 4 mech
223 224 265 264
219 6 4 mech
224 225 266 265
220 6 4 mech
225 226 267 266
221 6 4 mech
226 227 268 267
222 6 4 mech
227 228 269 268
223 6 4 mech
228 229 270 269
224 6 4 mech
229 230 271 270
225 6 4 mech
230 231 272 271
226 6 4 mech
231 232 273 272
227 6 4 mech
232 233 274 273
228 6 4 mech
233 234 275 274
229 6 4 mech
234 235 276 275
230 6 4 mech
235 236 277 276
231 6 4 mech
236 237 278 277
232 6 4 mech
237 238 279 278
233 6 4 mech
238 239 280 279
234 6 4 mech
239 240 281 280
235 6 4 mech
240 241 282 281
236 6 4 mech
241 242 283 282
237 6 4 mech
242 243 284 283
238 6 4 mech
243 244 285 284
239 6 4 mech
244 245 286 285
240 6 4 mech
245 246 287 286
241 6 4 mech
247 248 289 288
242 6 4 mech
248 249 290 289
243 6 4 mech
249 250 291 290
244 6 4 mech
250 251 292 291
245 6 4 mech
251 252 293 292
246 6 4 mech
252 253 294 293
247 6 4 mech
253 254 295 294
248 6 4 mech
254 255 296 295
249 6 4 mech
255 256 297 296
250 6 4 mech
256 257 298 297
251 6 4 mech
257 258 299 298
252 6 4 mech
258 259 300 299
253 6 4 mech
259 260 301 300
254 6 4 mech
260 261 302 301
255 6 4 mech
261 262 303 302
256 6 4 mech
262 263 304 303
257 6 4 mech
263 264 305 304
258 6 4 mech
264 265 306 305
259 6 4 mech
265 266 307 306
260 6 4 mech
266 267 308 307
261 6 4 mech
267 268 309 308
262 6 4 mech
268 269 310 309
263 6 4 mech
269 270 311 310
264 6 4 mech
270 271 312 311
265 6 4 mech
271 272 313 312
266 6 4 mech
272 273 314 313
267 6 4 mech
273 274 315 314
268 6 4 mech
274 275 316 315
269 6 4 mech
275 276 317 316
270 6 4 mech
276 277 318 317
271 6 4 mech
277 278 319 318
272 6 4 mech
278 279 320 319
273 6 4 mech
279 280 321 320
274 6 4 mech
280 281 322 321
275 6 4 mech
281 282 323 322
276 6 4 mech
282 283 324 323
277 6 4 mech
283 284 325 324
278 6 4 mech
284 285 326 325
279 6 4 mech
285 286 327 326
280 6 4 mech
286 287 328 327
281 6 4 mech
288 289 330 329
282 6 4 mech
289 290 331 330
283 6 4 mech
290 291 332 331
284 6 4 mech
291 292 333 332
285 6 4 mech
292 293 334 333
286 6 4 mech
293 294 335 334
287 6 4 mech
294 295 336 335
288 6 4 mech
295 296 337 336
289 6 4 mech
296 297 338 337
290 6 4 mech
297 298 339 338
291 6 4 mech
298 299 340 339
292 6 4 mech
299 300 341 340
293 6 4 mech
300 301 342 341
294 6 4 mech
301 302 343 342
295 6 4 mech
302 303 344 343
296 6 4 mech
303 304 345 344
297 6 4 mech
304 305 346 345
298 6 4 mech
305 306 347 346
299 6 4 mech
306 307 348 347
300 6 4 mech
307 308 349 348
301 6 4 mech
308 309 350 349
302 6 4 mech
309 310 351 350
303 6 4 mech
310 311 352 351
304 6 4 mech
311 312 353 352
305 6 4 mech
312 313 354 353
306 6 4 mech
313 314 355 354
307 6 4 mech
314 315 356 355
308 6 4 mech
315 316 357 356
309 6 4 mech
316 317 358 357
310 6 4 mech
317 318 359 358
311 6 4 mech
318 319 360 359
312 6 4 mech
319 320 361 360
313 6 4 mech
320 321 362 361
314 6 4 mech
321 322 363 362
315 6 4 mech
322 323 364 363
316 6 4 mech
323 324 365 364
317 6 4 mech
324 325 366 365
318 6 4 mech
325 326 367 366
319 6 4 mech
326 327 368 367
320 6 4 mech
327 328 369 368
321 6 4 mech
329 330 371 370
322 6 4 mech
330 331 372 371
323 6 4 mech
331 332 373 372
324 6 4 mech
332 333 374 373
325 6 4 mech
333 334 375 374
326 6 4 mech
334 335 376 375
327 6 4 mech
335 336 377 376
328 6 4 mech
336 337 378 377
329 6 4 mech
337 338 379 378
330 6 4 mech
338 339 380 379
331 6 4 mech
339 340 381 380
332 6 4 mech
340 341 382 381
333 6 4 mech
341 342 383 382
334 6 4 mech
342 343 384 383
335 6 4 mech
343 344 385 384
336 6 4 mech
344 345 386 385
337 6 4 mech
345 346 387 386
338 6 4 mech
346 347 388 387
339 6 4 mech
347 348 389 388
340 6 4 mech
348 349 390 389
341 6 4 mech
349 350 391 390
342 6 4 mech
350 351 392 391
343 6 4 mech
351 352 393 392
344 6 4 mech
352 353 394 393
345 6 4 mech
353 354 395 394
346 6 4 mech
354 355 396 395
347 6 4 mech
355 356 397 396
348 6 4 mech
356 357 398 397
349 6 4 mech
357 358 399 398
350 6 4 mech
358 359 400 399
351 6 4 mech
359 360 401 400
352 6 4 mech
360 361 402 401
353 6 4 mech
361 362 403 402
354 6 4 mech
362 363 404 403
355 6 4 mech
363 364 405 404
356 6 4 mech
364 365 406 405
357 6 4 mech
365 366 407 406
358 6 4 mech
366 367 408 407
359 6 4 mech
367 368 409 408
360 6 4 mech
368 369 410 409
361 6 4 mech
370 371 412 411
362 6 4 mech
371 372 413 412
363 6 4 mech
372 373 414 413
364 6 4 mech
373 374 415 414
365 6 4 mech
374 375 416 415
366 6 4 mech
375 376 417 416
367 6 4 mech
376 377 418 417
368 6 4 mech
377 378 419 418
369 6 4 mech
378 379 420 419
370 6 4 mech
379 380 421 420
371 6 4 mech
380 381 422 421
372 6 4 mech
381 382 423 422
373 6 4 mech
382 383 424 423
374 6 4 mech
383 384 425 424
375 6 4 mech
384 385 426 425
376 6 4 mech
385 386 427 426
377 6 4 mech
386 387 428 427
378 6 4 mech
387 388 429 428
379 6 4 mech
388 389 430 429
380 6 4 mech
389 390 431 430
381 6 4 mech
390 391 432 431
382 6 4 mech
391 392 433 432
383 6 4 mech
392 393 434 433
384 6 4 mech
393 394 435 434
385 6 4 mech
394 395 436 435
386 6 4 mech
395 396 437 436
387 6 4 mech
396 397 438 437
388 6 4 mech
397 398 439 438
389 6 4 mech
398 399 440 439
390 6 4 mech
399 400 441 440
391 6 4 mech
400 401 442 441
392 6 4 mech
401 402 443 442
393 6 4 mech
402 403 444 443
394 6 4 mech
403 404 445 444
395 6 4 mech
404 405 446 445
396 6 4 mech
405 406 447 446
397 6 4 mech
406 407 448 447
398 6 4 mech
407 408 449 448
399 6 4 mech
408 409 450 449
400 6 4 mech
409 410 451 450
401 6 4 mech
411 412 453 452
402 6 4 mech
412 413 454 453
403 6 4 mech
413 414 455 454
404 6 4 mech
414 415 456 455
405 6 4 mech
415 416 457 456
406 6 4 mech
416 417 458 457
407 6 4 mech
417 418 459 458
408 6 4 mech
418 419 460 459
409 6 4 mech
419 420 461 460
410 6 4 mech
420 421 462 461
411 6 4 mech
421 422 463 462
412 6 4 mech
422 423 464 463
413 6 4 mech
423 424 465 464
414 6 4 mech
424 425 466 465
415 6 4 mech
425 426 467 466
416 6 4 mech
426 427 468 467
417 6 4 mech
427 428 469 468
418 6 4 mech
428 429 470 469
419 6 4 mech
429 430 471 470
420 6 4 mech
430 431 472 471
421 6 4 mech
431 432 473 472
422 6 4 mech
432 433 474 473
423 6 4 mech
433 434 475 474
424 6 4 mech
434 435 476 475
425 6 4 mech
435 436 477 476
426 6 4 mech
436 437 478 477
427 6 4 mech
437 438 479 478
428 6 4 mech
438 439 480 479
429 6 4 mech
439 440 481 480
430 6 4 mech
440 441 482 481
431 6 4 mech
441 442 483 482
432 6 4 mech
442 443 484 483
433 6 4 mech
443 444 485 484
434 6 4 mech
444 445 486 485
435 6 4 mech
445 446 487 486
436 6 4 mech
446 447 488 487
437 6 4 mech
447 448 489 488
438 6 4 mech
448 449 490 489
439 6 4 mech
449 450 491 490
440 6 4 mech
450 451 492 491
441 6 4 mech
452 453 494 493
442 6 4 mech
453 454 495 494
443 6 4 mech
454 455 496 495
444 6 4 mech
455 456 497 496
445 6 4 mech
456 457 498 497
446 6 4 mech
457 458 499 498
447 6 4 mech
458 459 500 499
448 6 4 mech
459 460 501 500
449 6 4 mech
460 461 502 501
450 6 4 mech
461 462 503 502
451 6 4 mech
462 463 504 503
452 6 4 mech
463 464 505 504
453 6 4 mech
464 465 506 505
454 6 4 mech
465 466 507 506
455 6 4 mech
466 467 508 507
456 6 4 mech
467 468 509 508
457 6 4 mech
468 469 510 509
458 6 4 mech
469 470 511 510
459 6 4 mech
470 471 512 511
460 6 4 mech
471 472 513 512
461 6 4 mech
472 473 514 513
462 6 4 mech
473 474 515 514
463 6 4 mech
474 475 516 515
464 6 4 mech
475 476 517 516
465 6 4 mech
476 477 518 517
466 6 4 mech
477 478 519 518
467 6 4 mech
478 479 520 519
468 6 4 mech
479 480 521 520
469 6 4 mech
480 481 522 521
470 6 4 mech
481 482 523 522
471 6 4 mech
482 483 524 523
472 6 4 mech
483 484 525 524
473 6 4 mech
484 485 526 525
474 6 4 mech
485 486 527 526
475 6 4 mech
486 487 528 527
476 6 4 mech
487 488 529 528
477 6 4 mech
488 489 530 529
478 6 4 mech
489 490 531 530
479 6 4 mech
490 491 532 531
480 6 4 mech
491 492 533 532
481 6 4 mech
493 494 535 534
482 6 4 mech
494 495 536 535
483 6 4 mech
495 496 537 536
484 6 4 mech
496 497 538 537
485 6 4 mech
497 498 539 538
486 6 4 mech
498 499 540 539
487 6 4 mech
499 500 541 540
488 6 4 mech
500 501 542 541
489 6 4 mech
501 502 543 542
490 6 4 mech
502 503 544 543
491 6 4 mech
503 504 545 544
492 6 4 mech
504 505 546 545
493 6 4 mech
505 506 547 546
494 6 4 mech
506 507 548 547
495 6 4 mech
507 508 549 548
496 6 4 mech
508 509 550 549
497 6 4 mech
509 510 551 550
498 6 4 mech
510 511 552 551
499 6 4 mech
511 512 553 552
500 6 4 mech
512 513 554 553
501 6 4 mech
513 514 555 554
502 6 4 mech
514 515 556 555
503 6 4 mech
515 516 557 556
504 6 4 mech
516 517 558 557
505 6 4 mech
517 518 559 558
506 6 4 mech
518 519 560 559
507 6 4 mech
519 520 561 560
508 6 4 mech
520 521 562 561
509 6 4 mech
521 522 563 562
510 6 4 mech
522 523 564 563
511 6 4 mech
523 524 565 564
512 6 4 mech
524 525 566 565
513 6 4 mech
525 526 567 566
514 6 4 mech
526 527 568 567
515 6 4 mech
527 528 569 568
516 6 4 mech
528 529 570 569
517 6 4 mech
529 530 571 570
518 6 4 mech
530 531 572 571
519 6 4 mech
531 532 573 572
520 6 4 mech
532 533 574 573
521 6 4 mech
534 535 576 575
522 6 4 mech
535 536 577 576
523 6 4 mech
536 537 578 577
524 6 4 mech
537 538 579 578
525 6 4 mech
538 539 580 579
526 6 4 mech
539 540 581 580
527 6 4 mech
540 541 582 581
528 6 4 mech
541 542 583 582
529 6 4 mech
542 543 584 583
530 6 4 mech
543 544 585 584
531 6 4 mech
544 545 586 585
532 6 4 mech
545 546 587 586
533 6 4 mech
546 547 588 587
534 6 4 mech
547 548 589 588
535 6 4 mech
548 549 590 589
536 6 4 mech
549 550 591 590
537 6 4 mech
550 551 592 591
538 6 4 mech
551 552 593 592
539 6 4 mech
552 553 594 593
540 6 4 mech
553 554 595 594
541 6 4 mech
554 555 596 595
542 6 4 mech
555 556 597 596
543 6 4 mech
556 557 598 597
544 6 4 mech
557 558 599 598
545 6 4 mech
558 559 600 599
546 6 4 mech
559 560 601 600
547 6 4 mech
560 561 602 601
548 6 4 mech
561 562 603 602
549 6 4 mech
562 563 604 603
550 6 4 mech
563 564 605 604
551 6 4 mech
564 565 606 605
552 6 4 mech
565 566 607 606
553 6 4 mech
566 567 608 607
554 6 4 mech
567 568 609 608
555 6 4 mech
568 569 610 609
556 6 4 mech
569 570 611 610
557 6 4 mech
570 571 612 611
558 6 4 mech
571 572 613 612
559 6 4 mech
572 573 614 613
560 6 4 mech
573 574 615 614
561 6 4 mech
575 576 617 616
562 6 4 mech
576 577 618 617
563 6 4 mech
577 578 619 618
564 6 4 mech
578 579 620 619
565 6 4 mech
579 580 621 620
566 6 4 mech
580 581 622 621
567 6 4 mech
581 582 623 622
568 6 4 mech
582 583 624 623
569 6 4 mech
583 584 625 624
570 6 4 mech
584 585 626 625
571 6 4 mech
585 586 627 626
572 6 4 mech
586 587 628 627
573 6 4 mech
587 588 629 628
574 6 4 mech
588 589 630 629
575 6 4 mech
589 590 631 630
576 6 4 mech
590 591 632 631
577 6 4 mech
591 592 633 632
578 6 4 mech
592 593 634 633
579 6 4 mech
593 594 635 634
580 6 4 mech
594 595 636 635
581 6 4 mech
595 596 637 636
582 6 4 mech
596 597 638 637
583 6 4 mech
597 598 639 638
584 6 4 mech
598 599 640 639
585 6 4 mech
599 600 641 640
586 6 4 mech
600 601 642 641
587 6 4 mech
601 602 643 642
588 6 4 mech
602 603 644 643
589 6 4 mech
603 604 645 644
590 6 4 mech
604 605 646 645
591 6 4 mech
605 606 647 646
592 6 4 mech
606 607 648 647
593 6 4 mech
607 608 649 648
594 6 4 mech
608 609 650 649
595 6 4 mech
609 610 651 650
596 6 4 mech
610 611 652 651
597 6 4 mech
611 612 653 652
598 6 4 mech
612 613 654 653
599 6 4 mech
613 614 655 654
600 6 4 mech
614 615 656 655
601 6 4 mech
616 617 658 657
602 6 4 mech
617 618 659 658
603 6 4 mech
618 619 660 659
604 6 4 mech
619 620 661 660
605 6 4 mech
620 621 662 661
606 6 4 mech
621 622 663 662
607 6 4 mech
622 623 664 663
608 6 4 mech
623 624 665 664
609 6 4 mech
624 625 666 665
610 6 4 mech
625 626 667 666
611 6 4 mech
626 627 668 667
612 6 4 mech
627 628 669 668
613 6 4 mech
628 629 670 669
614 6 4 mech
629 630 671 670
615 6 4 mech
630 631 672 671
616 6 4 mech
631 632 673 672
617 6 4 mech
632 633 674 673
618 6 4 mech
633 634 675 674
619 6 4 mech
634 635 676 675
620 6 4 mech
635 636 677 676
621 6 4 mech
636 637 678 677
622 6 4 mech
637 638 679 678
623 6 4 mech
638 639 680 679
624 6 4 mech
639 640 681 680
625 6 4 mech
640 641 682 681
626 6 4 mech
641 642 683 682
627 6 4 mech
642 643 684 683
628 6 4 mech
643 644 685 684
629 6 4 mech
644 645 686 685
630 6 4 mech
645 646 687 686
631 6 4 mech
646 647 688 687
632 6 4 mech
647 648 689 688
633 6 4 mech
648 649 690 689
634 6 4 mech
649 650 691 690
635 6 4 mech
650 651 692 691
636 6 4 mech
651 652 693 692
637 6 4 mech
652 653 694 693
638 6 4 mech
653 654 695 694
639 6 4 mech
654 655 696 695
640 6 4 mech
655 656 697 696
641 6 4 mech
657 658 699 698
642 6 4 mech
658 659 700 699
643 6 4 mech
659 660 701 700
644 6 4 mech
660 661 702 701
645 6 4 mech
661 662 703 702
646 6 4 mech
662 663 704 703
647 6 4 mech
663 664 705 704
648 6 4 mech
664 665 706 705
649 6 4 mech
665 666 707 706
650 6 4 mech
666 667 708 707
651 6 4 mech
667 668 709 708
652 6 4 mech
668 669 710 709
653 6 4 mech
669 670 711 710
654 6 4 mech
670 671 712 711
655 6 4 mech
671 672 713 712
656 6 4 mech
672 673 714 713
657 6 4 mech
673 674 715 714
658 6 4 mech
674 675 716 715
659 6 4 mech
675 676 717 716
660 6 4 mech
676 677 718 717
661 6 4 mech
677 678 719 718
662 6 4 mech
678 679 720 719
663 6 4 mech
679 680 721 720
664 6 4 mech
680 681 722 721
665 6 4 mech
681 682 723 722
666 6 4 mech
682 683 724 723
667 6 4 mech
683 684 725 724
668 6 4 mech
684 685 726 725
669 6 4 mech
685 686 727 726
670 6 4 mech
686 687 728 727
671 6 4 mech
687 688 729 728
672 6 4 mech
688 689 730 729
673 6 4 mech
689 690 731 730
674 6 4 mech
690 691 732 731
675 6 4 mech
691 692 733 732
676 6 4 mech
692 693 734 733
677 6 4 mech
693 694 735 734
678 6 4 mech
694 695 736 735
679 6 4 mech
695 696 737 736
680 6 4 mech
696 697 738 737
681 6 4 mech
698 699 740 739
682 6 4 mech
699 700 741 740
683 6 4 mech
700 701 742 741
684 6 4 mech
701 702 743 742
685 6 4 mech
702 703 744 743
686 6 4 mech
703 704 745 744
687 6 4 mech
704 705 746 745
688 6 4 mech
705 706 747 746
689 6 4 mech
706 707 748 747
690 6 4 mech
707 708 749 748
691 6 4 mech
708 709 750 749
692 6 4 mech
709 710 751 750
693 6 4 mech
710 711 752 751
694 6 4 mech
711 712 753 752
695 6 4 mech
712 713 754 753
696 6 4 mech
713 714 755 754
697 6 4 mech
714 715 756 755
698 6 4 mech
715 716 757 756
699 6 4 mech
716 717 758 757
700 6 4 mech
717 718 759 758
701 6 4 mech
718 719 760 759
702 6 4 mech
719 720 761 760
703 6 4 mech
720 721 762 761
704 6 4 mech
721 722 763 762
705 6 4 mech
722 723 764 763
706 6 4 mech
723 724 765 764
707 6 4 mech
724 725 766 765
708 6 4 mech
725 726 767 766
709 6 4 mech
726 727 768 767
710 6 4 mech
727 728 769 768
711 6 4 mech
728 729 770 769
712 6 4 mech
729 730 771 770
713 6 4 mech
730 731 772 771
714 6 4 mech
731 732 773 772
715 6 4 mech
732 733 774 773
716 6 4 mech
733 734 775 774
717 6 4 mech
734 735 776 775
718 6 4 mech
735 736 777 776
719 6 4 mech
736 737 778 777
720 6 4 mech
737 738 779 778
721 6 4 mech
739 740 781 780
722 6 4 mech
740 741 782 781
723 6 4 mech
741 742 783 782
724 6 4 mech
742 743 784 783
725 6 4 mech
743 744 785 784
726 6 4 mech
744 745 786 785
727 6 4 mech
745 746 787 786
728 6 4 mech
746 747 788 787
729 6 4 mech
747 748 789 788
730 6 4 mech
748 749 790 789
731 6 4 mech
749 750 791 790
732 6 4 mech
750 751 792 791
733 6 4 mech
751 752 793 792
734 6 4 mech
752 753 794 793
735 6 4 mech
753 754 795 794
736 6 4 mech
754 755 796 795
737 6 4 mech
755 756 797 796
738 6 4 mech
756 757 798 797
739 6 4 mech
757 758 799 798
740 6 4 mech
758 759 800 799
741 6 4 mech
759 760 801 800
742 6 4 mech
760 761 802 801
743 6 4 mech
761 762 803 802
744 6 4 mech
762 763 804 803
745 6 4 mech
763 764 805 804
746 6 4 mech
764 765 806 805
747 6 4 mech
765 766 807 806
748 6 4 mech
766 767 808 807
749 6 4 mech
767 768 809 808
750 6 4 mech
768 769 810 809
751 6 4 mech
769 770 811 810
752 6 4 mech
770 771 812 811
753 6 4 mech
771 772 813 812
754 6 4 mech
772 773 814 813
755 6 4 mech
773 774 815 814
756 6 4 mech
774 775 816 815
757 6 4 mech
775 776 817 816
758 6 4 mech
776 777 818 817
759 6 4 mech
777 778 819 818
760 6 4 mech
778 779 820 819
761 6 4 mech
780 781 822 821
762 6 4 mech
781 782 823 822
763 6 4 mech
782 783 824 823
764 6 4 mech
783 784 825 824
765 6 4 mech
784 785 826 825
766 6 4 mech
785 786 827 826
767 6 4 mech
786 787 828 827
768 6 4 mech
787 788 829 828
769 6 4 mech
788 789 830 829
770 6 4 mech
789 790 831 830
771 6 4 mech
790 791 832 831
772 6 4 mech
791 792 833 832
773 6 4 mech
792 793 834 833
774 6 4 mech
793 794 835 834
775 6 4 mech
794 795 836 835
776 6 4 mech
795 796 837 836
777 6 4 mech
796 797 838 837
778 6 4 mech
797 798 839 838
779 6 4 mech
798 799 840 839
780 6 4 mech
799 800 841 840
781 6 4 mech
800 801 842 841
782 6 4 mech
801 802 843 842
783 6 4 mech
802 803 844 843
784 6 4 mech
803 804 845 844
785 6 4 mech
804 805 846 845
786 6 4 mech
805 806 847 846
787 6 4 mech
806 807 848 847
788 6 4 mech
807 808 849 848
789 6 4 mech
808 809 850 849
790 6 4 mech
809 810 851 850
791 6 4 mech
810 811 852 851
792 6 4 mech
811 812 853 852
793 6 4 mech
812 813 854 853
794 6 4 mech
813 814 855 854
795 6 4 mech
814 815 856 855
796 6 4 mech
815 816 857 856
797 6 4 mech
816 817 858 857
798 6 4 mech
817 818 859 858
799 6 4 mech
818 819 860 859
800 6 4 mech
819 820 861 860

[3D Elements]
#ElemNr  ElemType  NrOfNodes  Level
#Node1 Node2 ... NodeNrOfNodes

[Node BC]
#NodeNr Level
1 south
2 south
3 south
4 south
5 south
6 south
7 south
8 south
9 south
10 south
11 south
12 south
13 south
14 south
15 south
16 south
17 south
18 south
19 south
20 south
21 south
22 south
23 south
24 south
25 south
26 south
27 south
28 south
29 south
30 south
31 south
32 south
33 south
34 south
35 south
36 south
37 south
38 south
39 south
40 south
41 south
821 north
822 north
823 north
824 north
825 north
826 north
827 north
828 north
829 north
830 north
831 north
832 north
833 north
834 north
835 north
836 north
837 north
838 north
839 north
840 north
841 north
842 north
843 north
844 north
845 north
846 north
847 north
848 north
849 north
850 north
851 north
852 north
853 north
854 north
855 north
856 north
857 north
858 north
859 north
860 north
861 north
1 west
42 west
83 west
124 west
165 west
206 west
247 west
288 west
329 west
370 west
411 west
452 west
493 west
534 west
575 west
616 west
657 west
698 west
739 west
780 west
821 west
41 east
82 east
123 east
164 east
205 east
246 east
287 east
328 east
369 east
410 east
451 east
492 east
533 east
574 east
615 east
656 east
697 east
738 east
779 east
820 east
861 east
1 left_lower
41 right_lower
821 left_upper
861 right_upper

[Save Nodes]
#NodeNr Level

[Save Elements]
#ElemNr Level

