{
    "type": "solver::Cg",
    "criteria": [
        {
            "type": "Iteration",
            "max_iters": 2000
        },
        {
            "type": "ResidualNorm",
            "reduction_factor": 1e-8
        }
    ]
}
