
0                         0
2.0000000000000003E-6     1.2256442265172456E-6
4.000000000000001E-6      2.3583387502013767E-6
6.0E-6                    3.4033588507121064E-6
8.000000000000001E-6      4.365725842304142E-6
1.0E-5                    5.250223749601156E-6
1.2E-5                    6.061414267468795E-6
1.4000000000000001E-5     6.803650190841087E-6
1.6000000000000003E-5     7.4810874814737845E-6
1.8000000000000004E-5     8.097696121308562E-6
2.0E-5                    8.657269886366002E-6
2.2E-5                    9.163435160770186E-6
2.4E-5                    9.619658897568277E-6
2.6000000000000002E-5     1.0029255821369195E-5
2.8000000000000003E-5     1.0395394957408553E-5
3.0000000000000008E-5     1.0721105562377012E-5
3.2000000000000005E-5     1.1009282524150163E-5
3.4000000000000007E-5     1.1262691290353755E-5
3.600000000000001E-5      1.1483972379413015E-5
3.8E-5                    1.1675645522293966E-5
4.0E-5                    1.1840113478467425E-5
4.2E-5                    1.1979665565637381E-5
4.4E-5                    1.2096480939387147E-5
4.6E-5                    1.2192631656027542E-5
4.8E-5                    1.2270085549487324E-5
5.0E-5                    1.2330708950977253E-5
5.2000000000000004E-5     1.2376269278281767E-5
5.4000000000000005E-5     1.2408437519795986E-5
5.6000000000000006E-5     1.242879063671918E-5
5.800000000000001E-5      1.2438813905049445E-5
6.0000000000000015E-5     1.2439903217100522E-5
6.200000000000002E-5      1.2433367360099339E-5
6.400000000000001E-5      1.2420430286950828E-5
6.600000000000002E-5      1.2402233391427432E-5
6.800000000000001E-5      1.2379837796825582E-5
7.0E-5                    1.2354226663534346E-5
7.200000000000002E-5      1.2326307517014742E-5
7.4E-5                    1.229691459345837E-5
7.6E-5                    1.2266811195981787E-5
7.800000000000001E-5      1.2236692049747532E-5
8.0E-5                    1.2207185640041178E-5
8.200000000000001E-5      1.2178856513249556E-5
8.4E-5                    1.2152207517064632E-5
8.600000000000002E-5      1.2127681953260224E-5
8.8E-5                    1.2105665614225441E-5
9.000000000000002E-5      1.2086488673231301E-5
9.2E-5                    1.20704273982631E-5
9.4E-5                    1.2057705660230407E-5
9.6E-5                    1.2048496208478238E-5
9.8E-5                    1.2042921689717731E-5
1.0E-4                    1.20410553906701E-5
