
0                         0
2.0000000000000003E-6     2.563582139140896E-6
4.000000000000001E-6      4.9893015839899614E-6
6.0E-6                    7.282890717087556E-6
8.000000000000001E-6      9.449892149306912E-6
1.0E-5                    1.149566741718545E-5
1.2E-5                    1.3425404926346097E-5
1.4000000000000001E-5     1.5244127195644501E-5
1.6000000000000003E-5     1.6956697453256032E-5
1.8000000000000004E-5     1.856782563271174E-5
2.0E-5                    2.0082073813898592E-5
2.2E-5                    2.1503861151246656E-5
2.4E-5                    2.283746832872321E-5
2.6000000000000002E-5     2.408704157882762E-5
2.8000000000000003E-5     2.52565963005241E-5
3.0000000000000008E-5     2.635002030894493E-5
3.2000000000000005E-5     2.7371076747733256E-5
3.4000000000000007E-5     2.83234066930626E-5
3.600000000000001E-5      2.9210531476648153E-5
3.8E-5                    3.0035854753449893E-5
4.0E-5                    3.0802664338238054E-5
4.2E-5                    3.151413383373825E-5
4.4E-5                    3.217332407168355E-5
4.6E-5                    3.2783184386763834E-5
4.8E-5                    3.3346553742162525E-5
5.0E-5                    3.3866161724104395E-5
5.2000000000000004E-5     3.434462942158957E-5
5.4000000000000005E-5     3.478447020625896E-5
5.6000000000000006E-5     3.5188090426109135E-5
5.800000000000001E-5      3.555779002555505E-5
6.0000000000000015E-5     3.589576310312357E-5
6.200000000000002E-5      3.620409841684306E-5
6.400000000000001E-5      3.6484779846189895E-5
6.600000000000002E-5      3.6739686818249526E-5
6.800000000000001E-5      3.6970594704570874E-5
7.0E-5                    3.717917519403911E-5
7.200000000000002E-5      3.736699664596761E-5
7.4E-5                    3.753552442654661E-5
7.6E-5                    3.768612123077201E-5
7.800000000000001E-5      3.782004739104646E-5
8.0E-5                    3.793846117279791E-5
8.200000000000001E-5      3.8042419056714526E-5
8.4E-5                    3.8132876006562144E-5
8.600000000000002E-5      3.8210685721035735E-5
8.8E-5                    3.8276600867710396E-5
9.000000000000002E-5      3.8331273296900894E-5
9.2E-5                    3.8375254233116605E-5
9.4E-5                    3.840899444180173E-5
9.6E-5                    3.8432844369172435E-5
9.8E-5                    3.8447054253199345E-5
1.0E-4                    3.84517742041111E-5
