
0                         0
2.0000000000000003E-6     1.7952368162650899E-6
4.000000000000001E-6      3.5559765791240266E-6
6.0E-6                    5.282107042109896E-6
8.000000000000001E-6      6.973518669303137E-6
1.0E-5                    8.630104610785665E-6
1.2E-5                    1.0251760678588797E-5
1.4000000000000001E-5     1.1838385323136375E-5
1.6000000000000003E-5     1.3389879610184567E-5
1.8000000000000004E-5     1.490614719825987E-5
2.0E-5                    1.6387094316596627E-5
2.2E-5                    1.7832629743575488E-5
2.4E-5                    1.9242664785664268E-5
2.6000000000000002E-5     2.0617113256861893E-5
2.8000000000000003E-5     2.1955891458647704E-5
3.0000000000000008E-5     2.3258918160436796E-5
3.2000000000000005E-5     2.4526114580541912E-5
3.4000000000000007E-5     2.5757404367644608E-5
3.600000000000001E-5      2.6952713582775394E-5
3.8E-5                    2.811197068180455E-5
4.0E-5                    2.9235106498444795E-5
4.2E-5                    3.0322054227766305E-5
4.4E-5                    3.1372749410225496E-5
4.6E-5                    3.2387129916208745E-5
4.8E-5                    3.3365135931090795E-5
5.0E-5                    3.430670994081076E-5
5.2000000000000004E-5     3.521179671796427E-5
5.4000000000000005E-5     3.608034330841421E-5
5.6000000000000006E-5     3.691229901842034E-5
5.800000000000001E-5      3.7707615402288404E-5
6.0000000000000015E-5     3.8466246250539403E-5
6.200000000000002E-5      3.91881475786003E-5
6.400000000000001E-5      3.987327761601593E-5
6.600000000000002E-5      4.052159679618367E-5
6.800000000000001E-5      4.11330677466105E-5
7.0E-5                    4.170765527969417E-5
7.200000000000002E-5      4.224532638402759E-5
7.4E-5                    4.27460502162283E-5
7.6E-5                    4.3209798093292706E-5
7.800000000000001E-5      4.363654348547559E-5
8.0E-5                    4.40262620096955E-5
8.200000000000001E-5      4.437893142346651E-5
8.4E-5                    4.469453161935635E-5
8.600000000000002E-5      4.497304461997107E-5
8.8E-5                    4.521445457346772E-5
9.000000000000002E-5      4.54187477495933E-5
9.2E-5                    4.5585912536252134E-5
9.4E-5                    4.571593943660083E-5
9.6E-5                    4.5808821066671025E-5
9.8E-5                    4.5864552153520287E-5
1.0E-4                    4.588312953391149E-5
