
0                         0
2.0000000000000003E-6     2.419520092822222E-6
4.000000000000001E-6      4.751587158234825E-6
6.0E-6                    6.99217382429647E-6
8.000000000000001E-6      9.138200724501325E-6
1.0E-5                    1.1187456859931625E-5
1.2E-5                    1.3138523318360285E-5
1.4000000000000001E-5     1.4990700429319546E-5
1.6000000000000003E-5     1.674393840597448E-5
1.8000000000000004E-5     1.8398771499051282E-5
2.0E-5                    1.9956255664947773E-5
2.2E-5                    2.141790972937226E-5
2.4E-5                    2.2785660009289778E-5
2.6000000000000002E-5     2.4061788339481218E-5
2.8000000000000003E-5     2.5248883435516523E-5
3.0000000000000008E-5     2.634979551228489E-5
3.2000000000000005E-5     2.7367594066298626E-5
3.4000000000000007E-5     2.830552872067282E-5
3.600000000000001E-5      2.916699302387138E-5
3.8E-5                    2.9955491086889375E-5
4.0E-5                    3.067460693841114E-5
4.2E-5                    3.132797647353687E-5
4.4E-5                    3.191926186881532E-5
4.6E-5                    3.245212833446432E-5
4.8E-5                    3.293022307371141E-5
5.0E-5                    3.3357156319069863E-5
5.2000000000000004E-5     3.373648431599125E-5
5.4000000000000005E-5     3.407169412564249E-5
5.6000000000000006E-5     3.436619012046194E-5
5.800000000000001E-5      3.462328204860138E-5
6.0000000000000015E-5     3.484617454629064E-5
6.200000000000002E-5      3.5037957980518646E-5
6.400000000000001E-5      3.5201600508153034E-5
6.600000000000002E-5      3.533994124167825E-5
6.800000000000001E-5      3.5455684416067344E-5
7.0E-5                    3.555139445588852E-5
7.200000000000002E-5      3.562949184653546E-5
7.4E-5                    3.569224971843599E-5
7.6E-5                    3.574179105820906E-5
7.800000000000001E-5      3.578008646597307E-5
8.0E-5                    3.580895238334397E-5
8.200000000000001E-5      3.58300497220776E-5
8.4E-5                    3.584488282878646E-5
8.600000000000002E-5      3.585479872669134E-5
8.8E-5                    3.5860986580930645E-5
9.000000000000002E-5      3.586447733954267E-5
9.2E-5                    3.586614350784775E-5
9.4E-5                    3.5866699019579354E-5
9.6E-5                    3.586669917374862E-5
9.8E-5                    3.586654061185986E-5
1.0E-4                    3.586646131573705E-5
