
0                         0
2.0000000000000003E-6     4.427275682802696E-6
4.000000000000001E-6      8.457673260910166E-6
6.0E-6                    1.2117918533694666E-5
8.000000000000001E-6      1.5433221959337733E-5
1.0E-5                    1.842739225250672E-5
1.2E-5                    2.112293613673859E-5
1.4000000000000001E-5     2.3541146039760773E-5
1.6000000000000003E-5     2.57021773047393E-5
1.8000000000000004E-5     2.7625116296949278E-5
2.0E-5                    2.932804061239943E-5
2.2E-5                    3.082807244127918E-5
2.4E-5                    3.214142600348046E-5
2.6000000000000002E-5     3.328344985468404E-5
2.8000000000000003E-5     3.426866475840865E-5
3.0000000000000008E-5     3.511079773086182E-5
3.2000000000000005E-5     3.5822812790300955E-5
3.4000000000000007E-5     3.641693887980894E-5
3.600000000000001E-5      3.690469538079498E-5
3.8E-5                    3.729691559300197E-5
4.0E-5                    3.760376852410949E-5
4.2E-5                    3.7834779306849715E-5
4.4E-5                    3.7998848542473134E-5
4.6E-5                    3.810427085485559E-5
4.8E-5                    3.8158752927864204E-5
5.0E-5                    3.8169431288051205E-5
5.2000000000000004E-5     3.814289008354249E-5
5.4000000000000005E-5     3.808517909639975E-5
5.6000000000000006E-5     3.800183220818819E-5
5.800000000000001E-5      3.789788651563551E-5
6.0000000000000015E-5     3.7777902264172156E-5
6.200000000000002E-5      3.764598373132442E-5
6.400000000000001E-5      3.750580114945483E-5
6.600000000000002E-5      3.736061370890637E-5
6.800000000000001E-5      3.721329362946097E-5
7.0E-5                    3.706635123197155E-5
7.200000000000002E-5      3.692196088526012E-5
7.4E-5                    3.678198764832326E-5
7.6E-5                    3.6648014377008324E-5
7.800000000000001E-5      3.652136901992026E-5
8.0E-5                    3.640315179231551E-5
8.200000000000001E-5      3.629426189057226E-5
8.4E-5                    3.619542339431945E-5
8.600000000000002E-5      3.610720999866919E-5
8.8E-5                    3.603006822484485E-5
9.000000000000002E-5      3.596433877296133E-5
9.2E-5                    3.591027570456737E-5
9.4E-5                    3.5868063173369296E-5
9.6E-5                    3.583782945884856E-5
9.8E-5                    3.581965809785776E-5
1.0E-4                    3.5813595952518905E-5
