
0                         0.002768847540940707
8.33E-4                   0.0027094724308448143
0.001667                  0.002668520597787267
0.0025                    0.00263050317918052
0.003333                  0.002593250053006436
0.004167                  0.0025565671444241133
0.005                     0.0025203866625327803
0.005833                  0.0024847114658444387
0.006667                  0.0024495607793886616
0.0075                    0.00241489367258899
0.008333                  0.0023807113273026713
0.009167                  0.0023470318308295096
0.01                      0.002313815712867876
0.010833                  0.002281064071905077
0.011667                  0.002248794230228725
0.0125                    0.0022169683715626202
0.013333                  0.0021855875523541434
0.014167                  0.0021546683736280436
0.015                     0.00212417460509259
0.015833                  0.0020941072610857403
0.016667                  0.0020644822485180905
0.0175                    0.002035264852859637
0.018333                  0.0020064560438478258
0.019167                  0.001978071059183342
0.02                      0.0019500766331508243
0.020833                  0.001922473690149915
0.021667                  0.0018952768254084475
0.0225                    0.0018684541615601724
0.023333                  0.0018420065812434793
0.024167                  0.001815948067170033
0.025                     0.0017902480762313454
0.025833                  0.0017649074558003454
0.026667                  0.0017399396065865041
0.0275                    0.0017153152682745595
0.028333                  0.001691035258023586
0.029167                  0.0016671124211131013
0.03                      0.0016435187269389293
0.030833                  0.0016202549626092911
0.031667                  0.0015973334384292031
0.0325                    0.0015747272979536357
0.033333                  0.0015524372943487065
0.034167                  0.0015304752197463872
0.035                     0.0015088153374101536
0.035833                  0.001487458363324666
0.036667                  0.0014664155898165363
0.0375                    0.0014456623513914699
0.038333                  0.001425199328711681
0.039167                  0.001405037337529664
0.04                      0.0013851527427177627
0.040833                  0.0013655461965159205
0.041667                  0.001346228064296003
0.0425                    0.0013271757044205942
0.043333                  0.0013083897477390368
0.044167                  0.0012898801326861413
0.045                     0.001271625172331097
0.045833                  0.0012536254777706466
0.046667                  0.0012358905767976
0.0475                    0.0012183996936051026
0.048333                  0.0012011534148474268
0.049167                  0.001184160868066349
0.05                      0.001167402143269974
0.050833                  0.0011508777966038732
0.051667                  0.0011345965660924371
0.0525                    0.0011185393670992971
0.053333                  0.0011027067244780248
0.054167                  0.0010871070035898707
0.055                     0.0010717219136188894
0.055833                  0.001056551954813466
0.056667                  0.0010416051426544316
0.0575                    0.00102686395494332
0.058333                  0.0010123288767176146
0.059167                  9.980075957996516E-4
0.06                      9.838833322902457E-4
0.060833                  9.699565603175353E-4
0.061667                  9.562346545596402E-4
0.0625                    9.427015442692778E-4
0.063333                  9.293576881814028E-4
0.064167                  9.162101535933538E-4
0.065                     9.032435404880806E-4
0.065833                  8.904582832363355E-4
0.066667                  8.778611453899771E-4
0.0675                    8.654373619019788E-4
0.068333                  8.531873382351942E-4
0.069167                  8.411175444023612E-4
0.07                      8.292138245209462E-4
0.070833                  8.174765604966382E-4
0.071667                  8.059119482899651E-4
0.0725                    7.945064249352332E-4
0.073333                  7.832603605412448E-4
0.074167                  7.721796994137447E-4
0.075                     7.612514563756945E-4
0.075833                  7.50475997985491E-4
0.076667                  7.398590320226784E-4
0.0775                    7.293881278675971E-4
0.078333                  7.190636457660645E-4
0.079167                  7.088910601995225E-4
0.08                      6.988584624245853E-4
0.080833                  6.889661948805567E-4
0.081667                  6.79219495915329E-4
0.0825                    6.696069450014035E-4
0.083333                  6.601288573035229E-4
0.084167                  6.507902378449356E-4
0.085                     6.415801307436169E-4
0.085833                  6.324988262130963E-4
0.086667                  6.235511113902115E-4
0.0875                    6.147264848926945E-4
0.088333                  6.06025225498079E-4
0.089167                  5.974519257393541E-4
0.09                      5.889965337143528E-4
0.090833                  5.806593301511403E-4
0.091667                  5.724447310670894E-4
0.0925                    5.643431210346766E-4
0.093333                  5.563547837591803E-4
0.094167                  5.484839620209484E-4
0.095                     5.407214499545828E-4
0.095833                  5.330675213197675E-4
0.096667                  5.255262374025072E-4
0.0975                    5.180887685917429E-4
0.098333                  5.10755363342218E-4
0.099167                  5.035298958660852E-4
0.1                       4.964038880725852E-4
0.100833                  4.893775601545847E-4
0.101667                  4.824546089751929E-4
0.1025                    4.75626900631479E-4
0.103333                  4.688946408498726E-4
0.104167                  4.6226137307648236E-4
0.105                     4.55719311378213E-4
0.105833                  4.4926866635203785E-4
0.106667                  4.429128511769518E-4
0.1075                    4.366444259893538E-4
0.108333                  4.304636136355987E-4
0.109167                  4.2437370353826565E-4
0.11                      4.1836758202124267E-4
0.110833                  4.1244547189545625E-4
0.111667                  4.066105269904253E-4
0.1125                    4.008559262266299E-4
0.113333                  3.9518187072114225E-4
0.114167                  3.895913638627926E-4
0.115                     3.840778481050576E-4
0.115833                  3.786414919472714E-4
0.116667                  3.7328514980938956E-4
0.1175                    3.680025192237537E-4
0.118333                  3.6279374756326827E-4
0.119167                  3.576615633778505E-4
0.12                      3.525999298527613E-4
0.120833                  3.4760899853254816E-4
0.121667                  3.426914018160783E-4
0.1225                    3.378413788045308E-4
0.123333                  3.3305910179930306E-4
0.124167                  3.283471205353691E-4
0.125                     3.236999396727452E-4
0.125833                  3.1911774388553705E-4
0.126667                  3.1460298784327146E-4
0.1275                    3.1015040871504865E-4
0.128333                  3.0576017621829774E-4
0.129167                  3.014346255727811E-4
0.13                      2.9716869045810486E-4
0.130833                  2.929625039284846E-4
0.131667                  2.8881827174590506E-4
0.1325                    2.8473110987008653E-4
0.133333                  2.8070112001157865E-4
0.134167                  2.767303977069556E-4
0.135                     2.728142553428754E-4
0.135833                  2.689527932327585E-4
0.136667                  2.6514803337150206E-4
0.1375                    2.613955076786707E-4
0.138333                  2.576953435993151E-4
0.139167                  2.540495141226716E-4
0.14                      2.5045377345247555E-4
0.140833                  2.469082762473103E-4
0.141667                  2.4341493803511203E-4
0.1425                    2.3996970546705736E-4
0.143333                  2.365727296501029E-4
0.144167                  2.3322583572140215E-4
0.145                     2.2992511834492727E-4
0.145833                  2.2667069017367556E-4
0.146667                  2.234642609611587E-4
0.1475                    2.2030204814499707E-4
0.148333                  2.17184119908848E-4
0.149167                  2.1411208118774712E-4
0.15                      2.1108228500602453E-4
0.150833                  2.0809478644093202E-4
0.151667                  2.0515112786953887E-4
0.1525                    2.0224783340399392E-4
0.153333                  1.9938498744757557E-4
0.154167                  1.9656410929852163E-4
0.155                     1.937819143108709E-4
0.155833                  1.910385305283527E-4
0.156667                  1.883354558427005E-4
0.1575                    1.8566957508844506E-4
0.158333                  1.83041030193038E-4
0.159167                  1.8045125919003468E-4
0.16                      1.7789726388509758E-4
0.160833                  1.7537915078246697E-4
0.161667                  1.7289825500100306E-4
0.1625                    1.704516537093193E-4
0.163333                  1.6803939443227862E-4
0.164167                  1.6566270468378576E-4
0.165                     1.633187415270832E-4
0.165833                  1.6100752055530414E-4
0.166667                  1.587302055702251E-4
0.1675                    1.5648407892223577E-4
0.168333                  1.542691808557511E-4
0.169167                  1.5208666875764473E-4
0.17                      1.4993399212064618E-4
0.170833                  1.4781125092106962E-4
0.171667                  1.4571961568286032E-4
0.1725                    1.43656696576554E-4
0.173333                  1.4162263174453323E-4
0.174167                  1.3961856674445116E-4
0.175                     1.3764221499929313E-4
0.175833                  1.3569369017569493E-4
0.176667                  1.3377405014926053E-4
0.1775                    1.3188104897566774E-4
0.178333                  1.3001472814839547E-4
0.179167                  1.2817602986279513E-4
0.18                      1.263627359822176E-4
0.180833                  1.2457482989469638E-4
0.181667                  1.228131763720253E-4
0.1825                    1.2107563476408093E-4
0.183333                  1.1936219842562894E-4
0.184167                  1.1767373046415972E-4
0.185                     1.1600823444985046E-4
0.185833                  1.1436577596143266E-4
0.186667                  1.1274726265994292E-4
0.1875                    1.1115086058009921E-4
0.188333                  1.0957670435840733E-4
0.189167                  1.0802571789739295E-4
0.19                      1.0649617431945444E-4
0.190833                  1.0498820599300674E-4
0.191667                  1.035026719954713E-4
0.1925                    1.0203786629158923E-4
0.193333                  1.0059384131543982E-4
0.194167                  9.917133133058295E-5
0.195                     9.776861012309998E-5
0.195833                  9.638563959006176E-5
0.196667                  9.502305062194032E-5
0.1975                    9.36791410530193E-5
0.198333                  9.235385486414546E-5
0.199167                  9.104781064505111E-5
0.2                       8.975942235825549E-5
0.200833                  8.848871033034742E-5
0.201667                  8.723636242074843E-5
0.2025                    8.600096256238804E-5
0.203333                  8.478263572053992E-5
0.204167                  8.358213393550203E-5
0.205                     8.239816945560378E-5
0.205833                  8.123090150699348E-5
0.206667                  8.008105283349891E-5
0.2075                    7.894735533456174E-5
0.208333                  7.782989159265226E-5
0.209167                  7.672925527958103E-5
0.21                      7.56441171545116E-5
0.210833                  7.457443366349801E-5
0.211667                  7.352065878386696E-5
0.2125                    7.248142623923598E-5
0.213333                  7.145663091885565E-5
0.214167                  7.044668474041149E-5
0.215                     6.94502975437053E-5
0.215833                  6.84674300805675E-5
0.216667                  6.749857583632445E-5
0.2175                    6.654262110100407E-5
0.218333                  6.55996672439792E-5
0.219167                  6.467032469096089E-5
0.22                      6.375364514817215E-5
0.220833                  6.28498170408472E-5
0.221667                  6.19594742868286E-5
0.2225                    6.108171015263972E-5
0.223333                  6.021665769829571E-5
0.224167                  5.936483019667659E-5
0.225                     5.8525231517267115E-5
0.225833                  5.769783560274267E-5
0.226667                  5.688297368307421E-5
0.2275                    5.607954436415988E-5
0.228333                  5.528739969155025E-5
0.229167                  5.4506776867434934E-5
0.23                      5.373659209324514E-5
0.230833                  5.297673086977563E-5
0.231667                  5.222750405548666E-5
0.2325                    5.148800074811843E-5
0.233333                  5.075827614286786E-5
0.234167                  5.0038810497146825E-5
0.235                     4.932890727191662E-5
0.235833                  4.862877744987771E-5
0.236667                  4.793899790043748E-5
0.2375                    4.725896303701304E-5
0.238333                  4.6588875391483844E-5
0.239167                  4.59292217973005E-5
0.24                      4.5279300262367194E-5
0.240833                  4.463913290487824E-5
0.241667                  4.400898392640702E-5
0.2425                    4.3387974787078994E-5
0.243333                  4.2775930640447934E-5
0.244167                  4.2172946352112114E-5
0.245                     4.157807855796441E-5
0.245833                  4.099112399172872E-5
0.246667                  4.041221369152508E-5
0.2475                    3.984055231016159E-5
0.248333                  3.927611772469809E-5
0.249167                  3.871925337239922E-5
0.25                      3.8169431288051205E-5
0.250833                  3.76268657602932E-5
0.251667                  3.709209034409286E-5
0.2525                    3.6564747698341566E-5
0.253333                  3.604512338877259E-5
0.254167                  3.5533724163628226E-5
0.255                     3.503012159709253E-5
0.255833                  3.453442384590302E-5
0.256667                  3.4046888253529465E-5
0.2575                    3.356684433919385E-5
0.258333                  3.3094119936037046E-5
0.259167                  3.262870694661711E-5
0.26                      3.216976112839799E-5
0.260833                  3.171698423636692E-5
0.261667                  3.127032745897361E-5
0.2625                    3.082903533427165E-5
0.263333                  3.0392970480982123E-5
0.264167                  2.9962316296089155E-5
0.265                     2.9536629132037014E-5
0.265833                  2.9116091193831194E-5
0.266667                  2.8701185040484263E-5
0.2675                    2.8291746789765634E-5
0.268333                  2.7888147270627155E-5
0.269167                  2.7490947940213876E-5
0.27                      2.7099984072609153E-5
0.270833                  2.6715492233788446E-5
0.271667                  2.6337788283593974E-5
0.2725                    2.5966420320471003E-5
0.273333                  2.560126549587193E-5
0.274167                  2.524226560783239E-5
0.275                     2.4888661804572735E-5
0.275833                  2.4540068769988004E-5
0.276667                  2.4196262866537016E-5
0.2775                    2.3856466979717153E-5
0.278333                  2.3520387950544416E-5
0.279167                  2.318801272012103E-5
0.28                      2.2858893566412575E-5
0.280833                  2.2533126560999456E-5
0.281667                  2.221111057170372E-5
0.2825                    2.189280933835091E-5
0.283333                  2.157866227076368E-5
0.284167                  2.1269302076637158E-5
0.285                     2.096481886730252E-5
0.285833                  2.066561883681667E-5
0.286667                  2.037214462131781E-5
0.2875                    2.0084195389516764E-5
0.288333                  1.9801763311387922E-5
0.289167                  1.9524812113245465E-5
0.29                      1.925268632995998E-5
0.290833                  1.8984943809818774E-5
0.291667                  1.8721205976164868E-5
0.2925                    1.846063263498869E-5
0.293333                  1.820273911473813E-5
0.294167                  1.7947272570811763E-5
0.295                     1.7693689122045714E-5
0.295833                  1.7441925757812875E-5
0.296667                  1.7192237413351915E-5
0.2975                    1.694463022717541E-5
0.298333                  1.6699567959399682E-5
0.299167                  1.6457743634014747E-5
0.3                       1.621948208567411E-5
0.300833                  1.598538972220715E-5
0.301667                  1.5756100591174435E-5
0.3025                    1.5531713110979762E-5
0.303333                  1.5312418395063277E-5
0.304167                  1.5098297027677909E-5
0.305                     1.4888850845884029E-5
0.305833                  1.468364234951568E-5
0.306667                  1.4482184253327947E-5
0.3075                    1.4283561267066214E-5
0.308333                  1.4087077206267805E-5
0.309167                  1.389219930149916E-5
0.31                      1.3698196735030896E-5
0.310833                  1.3504759156043197E-5
0.311667                  1.3311910087940996E-5
0.3125                    1.3119587450790814E-5
0.313333                  1.2928199271253157E-5
0.314167                  1.2738449628028857E-5
0.315                     1.2550851920573713E-5
0.315833                  1.2366218830165324E-5
0.316667                  1.2185424924716232E-5
0.3175                    1.2008920730302547E-5
0.318333                  1.1837192923487956E-5
0.319167                  1.1670556806673087E-5
0.32                      1.150876400475403E-5
0.320833                  1.1351482914737689E-5
0.321667                  1.1198202584677719E-5
0.3225                    1.1047962164245402E-5
0.323333                  1.0899864242333338E-5
0.324167                  1.0753073608147989E-5
0.325                     1.0606593392233513E-5
0.325833                  1.0459771243336472E-5
0.326667                  1.0312289759782619E-5
0.3275                    1.0163881149896675E-5
0.328333                  1.0014776190284119E-5
0.329167                  9.865592001266088E-6
0.33                      9.716942122134167E-6
0.330833                  9.56980890193475E-6
0.331667                  9.425322761690642E-6
0.3325                    9.28432612056031E-6
0.333333                  9.147697810832598E-6
0.334167                  9.016122451997387E-6
0.335                     8.889731330638071E-6
0.335833                  8.768446144500316E-6
0.336667                  8.651868512583138E-6
0.3375                    8.539077356080647E-6
0.338333                  8.429032388409066E-6
0.339167                  8.32060976177017E-6
0.34                      8.212494963695166E-6
0.340833                  8.103607657220498E-6
0.341667                  7.993169790070629E-6
0.3425                    7.880548976791642E-6
0.343333                  7.765636266826546E-6
0.344167                  7.64880867225669E-6
0.345                     7.530634529371422E-6
0.345833                  7.412166113512161E-6
0.346667                  7.294746807117339E-6
0.3475                    7.179611334429779E-6
0.348333                  7.068104104408407E-6
0.349167                  6.961414093955914E-6
0.35                      6.86021084103139E-6
0.350833                  6.764864482321645E-6
0.351667                  6.675287421997706E-6
0.3525                    6.5907551330987E-6
0.353333                  6.510211603101263E-6
0.354167                  6.432317160654864E-6
0.355                     6.355436378467221E-6
0.355833                  6.278004464793944E-6
0.356667                  6.198671538592063E-6
0.3575                    6.11627427646319E-6
0.358333                  6.030170394204065E-6
0.359167                  5.940291087353984E-6
0.36                      5.846949718016217E-6
0.360833                  5.751088030574623E-6
0.361667                  5.654133810379311E-6
0.3625                    5.557640266213934E-6
0.363333                  5.463430740031346E-6
0.364167                  5.373301831900319E-6
0.365                     5.288625967191659E-6
0.365833                  5.210456000629491E-6
0.366667                  5.139281585578392E-6
0.3675                    5.074819554417583E-6
0.368333                  5.016218726832304E-6
0.369167                  4.96208305308146E-6
0.37                      4.910526725712891E-6
0.370833                  4.859498598924587E-6
0.371667                  4.806997887315394E-6
0.3725                    4.751177344704694E-6
0.373333                  4.6906566000705154E-6
0.374167                  4.624678471001732E-6
0.375                     4.553034164135083E-6
0.375833                  4.476288783612589E-6
0.376667                  4.395719272083739E-6
0.3775                    4.313011690872701E-6
0.378333                  4.230370875389568E-6
0.379167                  4.150217616066331E-6
0.38                      4.074749926464631E-6
0.380833                  4.005946147336337E-6
0.381667                  3.945201563293112E-6
0.3825                    3.893022657319191E-6
0.383333                  3.849108648123288E-6
0.384167                  3.8122909619263043E-6
0.385                     3.7806115288428107E-6
0.385833                  3.7516145440033636E-6
0.386667                  3.7226255085352413E-6
0.3875                    3.6909949214362732E-6
0.388333                  3.6544129528631906E-6
0.389167                  3.6111818596938807E-6
0.39                      3.5602722668840076E-6
0.390833                  3.501540657238218E-6
0.391667                  3.4357742365615684E-6
0.3925                    3.3644724019750136E-6
0.393333                  3.2899610241778506E-6
0.394167                  3.215137152693747E-6
0.395                     3.1430173797120357E-6
0.395833                  3.0766798293702645E-6
0.396667                  3.0187731054817974E-6
0.3975                    2.9710468350417542E-6
0.398333                  2.9342622554136778E-6
0.399167                  2.9079481179859418E-6
0.4                       2.890417281496642E-6
0.400833                  2.8790163375102698E-6
0.401667                  2.8704536550434227E-6
0.4025                    2.8612048841970747E-6
0.403333                  2.8478665615412816E-6
0.404167                  2.827563143819515E-6
0.405                     2.798152600674982E-6
0.405833                  2.7584335573650032E-6
0.406667                  2.708307241995207E-6
0.4075                    2.6486590878899463E-6
0.408333                  2.581497448277043E-6
0.409167                  2.509811219822902E-6
0.41                      2.437173172392936E-6
0.410833                  2.3677109137685726E-6
0.411667                  2.3055577814053926E-6
0.4125                    2.2542012522805266E-6
0.413333                  2.216172800750028E-6
0.414167                  2.192460110440314E-6
0.415                     2.1822792462922977E-6
0.415833                  2.183204129789861E-6
0.416667                  2.191499129750197E-6
0.4175                    2.202729713698866E-6
0.418333                  2.2122396056317648E-6
0.419167                  2.215743750481109E-6
0.42                      2.2097212937637224E-6
0.420833                  2.191603478079134E-6
0.421667                  2.160039542128361E-6
0.4225                    2.114866389519465E-6
0.423333                  2.05724129726134E-6
0.424167                  1.9896432669935383E-6
0.425                     1.9155954889479104E-6
0.425833                  1.8397814576851477E-6
0.426667                  1.7676285245275911E-6
0.4275                    1.7046219531416238E-6
0.428333                  1.6558577630074447E-6
0.429167                  1.6249602490788812E-6
0.43                      1.613248184859054E-6
0.430833                  1.6194339700592481E-6
0.431667                  1.6397574676911494E-6
0.4325                    1.66885468442101E-6
0.433333                  1.7005649159209679E-6
0.434167                  1.7288709135764643E-6
0.435                     1.748582783087284E-6
0.435833                  1.7555104673993501E-6
0.436667                  1.7467989196420168E-6
0.4375                    1.7209411007466963E-6
0.438333                  1.677814259863776E-6
0.439167                  1.6187793237572279E-6
0.44                      1.5465018143772492E-6
0.440833                  1.465225773631565E-6
0.441667                  1.3806840862261818E-6
0.4425                    1.2997192301932731E-6
0.443333                  1.2301862055862668E-6
0.444167                  1.1796994806935319E-6
0.445                     1.1538866087057563E-6
0.445833                  1.154803942954949E-6
0.446667                  1.1799082552696344E-6
0.4475                    1.222964144152724E-6
0.448333                  1.275695319500873E-6
0.449167                  1.3296320164318174E-6
0.45                      1.3774035253866135E-6
0.450833                  1.4129261519205202E-6
0.451667                  1.4317241721335485E-6
0.4525                    1.4308935625937878E-6
0.453333                  1.4089121881359536E-6
0.454167                  1.3657415576403933E-6
0.455                     1.3026424169030544E-6
0.455833                  1.2224222501856876E-6
0.456667                  1.1295745422440263E-6
0.4575                    1.0302696643021034E-6
0.458333                  9.331383219953842E-7
0.459167                  8.492137087960219E-7
0.46                      7.908072476640713E-7
0.460833                  7.685356336853469E-7
0.461667                  7.858283291773039E-7
0.4625                    8.367021958330968E-7
0.463333                  9.090133996375246E-7
0.464167                  9.896856807429626E-7
0.465                     1.067890464039435E-6
0.465833                  1.1352108498693089E-6
0.466667                  1.1855786682171594E-6
0.4675                    1.214921015479861E-6
0.468333                  1.2205702328680877E-6
0.469167                  1.2012896316462773E-6
0.47                      1.1570260953812461E-6
0.470833                  1.0889482351866204E-6
0.471667                  9.995481970919636E-7
0.4725                    8.925179362394421E-7
0.473333                  7.736299419154103E-7
0.474167                  6.516541019434585E-7
0.475                     5.402711696883813E-7
0.475833                  4.616127180984948E-7
0.476667                  4.4174313302233797E-7
0.4775                    4.882492279933557E-7
0.478333                  5.802041804872175E-7
0.479167                  6.910891248857592E-7
0.48                      8.029840611190925E-7
0.480833                  9.047320249677005E-7
0.481667                  9.89230049013017E-7
0.4825                    1.0519157149587376E-6
0.483333                  1.0895733057554005E-6
0.484167                  1.1002957456625121E-6
0.485                     1.083248459940976E-6
0.485833                  1.0385207098133892E-6
0.486667                  9.672101199487887E-7
0.4875                    8.711053583240825E-7
0.488333                  7.530125005682211E-7
0.489167                  6.167480967673653E-7
0.49                      4.6712360688369356E-7
0.490833                  3.1251891848424835E-7
0.491667                  1.770046623583441E-7
0.4925                    1.6054783765376214E-7
0.493333                  2.84954835692904E-7
0.494167                  4.3707078225255173E-7
0.495                     5.857591850761391E-7
0.495833                  7.214539398294285E-7
0.496667                  8.387200954428631E-7
0.4975                    9.338811681118217E-7
0.498333                  1.0039224805847626E-6
0.499167                  1.0467628495341941E-6
0.5                       1.0611686987923289E-6
