[Info]
Version 1
Dimension 2
NumNodes 16
Num3DElements 0
Num2DElements 9
Num1DElements 0
NumNodeBC 24
NumSaveNodes 0
NumSaveElements 0
Num 2d-line      : 0
Num 2d-line,quad : 0
Num 3d-line      : 0
Num 3d-line,quad : 0
Num triangle     : 0
Num triangle,quad: 0
Num quadr        : 9
Num quadr,quad   : 0
Num tetra        : 0
Num tetra,quad   : 0
Num brick        : 0
Num brick,quad   : 0
Num pyramid      : 0
Num pyramid,quad : 0
Num wedge        : 0
Num wedge,quad   : 0

[Nodes]
#NodeNr x-coord y-coord z-coord
1  0.0  0.0  0.0
2  0.333333333333  0.0  0.0
3  0.666666666667  0.0  0.0
4  1.0  0.0  0.0
5  0.0  0.333333333333  0.0
6  0.333333333333  0.333333333333  0.0
7  0.666666666667  0.333333333333  0.0
8  1.0  0.333333333333  0.0
9  0.0  0.666666666667  0.0
10  0.333333333333  0.666666666667  0.0
11  0.666666666667  0.666666666667  0.0
12  1.0  0.666666666667  0.0
13  0.0  1.0  0.0
14  0.333333333333  1.0  0.0
15  0.666666666667  1.0  0.0
16  1.0  1.0  0.0

[1D Elements]
#ElemNr  ElemType  NrOfNodes  Level
#Node1 Node2 ... NodeNrOfNodes

[2D Elements]
#ElemNr  ElemType  NrOfNodes  Level
#Node1 Node2 ... NodeNrOfNodes
1 6 4 mech
1 2 6 5
2 6 4 mech
2 3 7 6
3 6 4 mech
3 4 8 7
4 6 4 mech
5 6 10 9
5 6 4 mech
6 7 11 10
6 6 4 mech
7 8 12 11
7 6 4 mech
9 10 14 13
8 6 4 mech
10 11 15 14
9 6 4 mech
11 12 16 15

[3D Elements]
#ElemNr  ElemType  NrOfNodes  Level
#Node1 Node2 ... NodeNrOfNodes

[Node BC]
#NodeNr Level
1 left_lower
4 right_lower
13 left_upper
16 right_upper
1 south
2 south
3 south
4 south
13 north
14 north
15 north
16 north
1 west
5 west
9 west
13 west
4 east
8 east
12 east
16 east
1 left_lower
4 right_lower
13 left_upper
16 right_upper

[Save Nodes]
#NodeNr Level

[Save Elements]
#ElemNr Level

 
