
0                         17370.20278236804
2.999999999949375E-4      -55179.43666317988
5.999999999949459E-4      -127546.02448510562
8.999999999949543E-4      -199552.77253934863
0.0011999999999949627     -270935.94966743904
0.0014999999999949706     -341478.18558973295
0.001799999999994979      -411006.94687399385
0.0020999999999949874     -479267.37512521603
0.0023999999999949955     -546052.0188722293
0.002699999999995004      -611197.3277187957
0.0029999999999950127     -674464.3005442945
0.003299999999995021      -735661.089982005
0.003599999999995028      -794637.6108416015
0.003899999999995038      -851177.2692069466
0.004199999999995046      -905109.0794769508
0.004499999999995054      -956300.534817959
0.0047999999999950626     -1004563.3843700336
0.005099999999995069      -1049752.1902335796
0.005399999999995078      -1091755.6553423551
0.005699999999995085      -1130419.0309901398
0.005999999999995094      -1165626.4127708806
0.006299999999995104      -1197290.7635329233
0.006599999999995111      -1225289.759821246
0.006899999999995119      -1249556.1607206913
0.007199999999995125      -1270013.6207055743
0.0074999999999951356     -1286588.4279724008
0.0077999999999951415     -1299241.2992435219
0.008099999999995153      -1307931.2215298272
0.00839999999999516       -1312627.5985798296
0.008699999999995165      -1313320.1813335635
0.008999999999995173      -1310004.4133219665
0.00929999999999518       -1302693.6523542677
0.009599999999995194      -1291406.9644731318
0.009899999999995199      -1276176.3746070275
0.010199999999995206      -1257058.828554543
0.010499999999995216      -1234102.1849534574
0.010799999999995225      -1207374.1724777287
0.011099999999995237      -1176973.7642972802
0.011399999999995242      -1142976.3000631134
0.01169999999999525       -1105483.3560671536
0.011999999999995258      -1064633.2204531105
0.012299999999995268      -1020526.6491749069
0.012599999999995276      -973296.2824053623
0.012899999999995285      -923115.9334214989
0.013199999999995292      -870097.95720661
0.0134999999999953        -814435.590810973
0.013799999999995309      -756300.2411689947
0.014099999999995314      -695833.1308871148
0.014399999999995328      -633254.9230283605
0.014699999999995333      -568757.7958330775
0.014999999999995343      -502498.67755754286
0.015299999999995354      -434719.6099155345
0.015599999999995364      -365628.27572786564
0.015899999999995366      -295393.00822206
0.01619999999999538       -224270.59450857752
0.016499999999995393      -152478.53035267364
0.016799999999995395      -80191.94070374133
0.017099999999995407      -7675.320714358337
0.017399999999995416      64849.981464734636
0.017699999999995417      137206.84853841978
0.017999999999995433      209130.3259138954
0.01829999999999544       280401.27920012426
0.018599999999995443      350845.45272443444
0.01889999999999546       420190.7110045229
0.01919999999999546       488268.0868230473
0.01949999999999548       554869.0137342662
0.019799999999995484      619750.1859592807
0.020099999999995486      682753.7242345561
0.020399999999995495      743686.1770439246
0.02069999999999551       802325.1662431572
0.020999999999995522      858528.2272856003
0.021299999999995527      912122.3252058947
0.021599999999995536      962912.1038816173
0.021899999999995545      1010774.4177648703
0.022199999999995546      1055561.3905491503
0.022499999999995562      1097110.0419578562
0.02279999999999557       1135319.920312896
0.023099999999995572      1170072.360575156
0.023399999999995588      1201241.2248589315
0.02369999999999559       1228751.5082796346
0.023999999999995608      1252517.0091399623
0.024299999999995613      1272451.8888110195
0.024599999999995615      1288508.6447511732
0.024899999999995624      1300635.90100331
0.02519999999999564       1308790.4706430065
0.02549999999999564       1312954.0946293934
0.025799999999995656      1313110.3127545936
0.026099999999995665      1309261.0913371048
0.026399999999995677      1301414.608911208
0.026699999999995682      1289598.3731269662
0.026999999999995684      1273850.848658966
0.0272999999999957        1254209.2944872126
0.0275999999999957        1230744.432265919
0.02789999999999572       1203530.1708885597
0.02819999999999573       1172631.8286875577
0.028499999999995727      1138161.4031697998
0.02879999999999574       1100226.2219511105
0.029099999999995737      1058917.8726476051
0.029399999999995763      1014386.559275425
0.029699999999995765      966770.0868169431
0.02999999999999577       916183.8021704914
0.03029999999999579       862811.9994748152
0.03059999999999579       806819.1844758734
0.03089999999999581       748341.3022285457
0.031199999999995814      687591.6863323498
0.03149999999999581       624757.0349506632
0.031799999999995825      559990.1656676135
0.03209999999999584       493541.28195091704
0.03239999999999585       425573.12712475896
0.032699999999995864      356292.23398947285
0.03299999999999586       285952.56734901515
0.033299999999995875      214726.17972825668
0.03359999999999586       142829.934935384
0.03389999999999589       70527.17379470333
0.0341999999999959        -2005.4571409862924
0.0344999999999959        -74546.70630038896
0.034799999999995904      -146831.0738066576
0.035099999999995926      -218682.16015348287
0.035399999999995935      -289880.3895016154
0.035699999999995936      -360165.3790595606
0.03599999999999594       -429365.8106735991
0.036299999999995954      -497269.8018065124
0.03659999999999597       -563629.2226561498
0.03689999999999598       -628282.5314688296
0.03719999999999599       -691031.3457450332
0.03749999999999599       -751646.5887800131
0.037799999999996         -809992.5405314543
0.03809999999999601       -865854.9007263448
0.03839999999999602       -919064.7782709178
0.03869999999999603       -969491.4157251143
0.03899999999999604       -1016949.3492231913
0.03929999999999604       -1061295.620631682
0.039599999999996055      -1102420.9789743905
0.03989999999999606       -1140173.8795182572
0.040199999999996065      -1174441.2149206544
0.04049999999999606       -1205138.2347395145
0.04079999999999608       -1232151.4665292986
0.04109999999999608       -1255400.7534969968
0.04139999999999611       -1274828.1683649984
0.04169999999999611       -1290361.4207405471
0.0419999999999961        -1301955.5011140003
0.04229999999999613       -1309580.8928975086
0.04259999999999614       -1313208.4689062145
0.04289999999999615       -1312829.6004301824
0.04319999999999616       -1308443.9904957523
0.04349999999999617       -1300066.4733627534
0.04379999999999617       -1287725.0375951668
0.044099999999996184      -1271448.613974731
0.044399999999996186      -1251300.080851889
0.0446999999999962        -1227329.809533085
0.04499999999999619       -1199608.6331935574
0.04529999999999621       -1168239.1536508137
0.045599999999996206      -1133299.069258356
0.045899999999996235      -1094892.8496426896
0.046199999999996244      -1053162.1164753186
0.04649999999999623       -1008209.7658162663
0.04679999999999626       -960171.0407033297
0.04709999999999627       -909222.701477345
0.04739999999999628       -855490.0219813643
0.04769999999999629       -799135.3122644111
0.047999999999996296      -740365.6271714558
0.04829999999999628       -679325.1851700027
0.04859999999999631       -616198.9151313364
0.048899999999996314      -551218.4919477409
0.04919999999999632       -484543.126338715
0.04949999999999634       -416375.2979738334
0.04979999999999634       -346964.9526464253
0.050099999999996335      -276467.50248672994
0.050399999999996364      -205140.7117205782
0.050699999999996366      -133202.6643689947
0.05099999999999638       -60828.85988767445
0.05129999999999638       11715.869430957191
0.0515999999999964        84210.12567308392
0.05189999999999641       156476.84914500554
0.052199999999996416      228251.39733359177
0.052499999999996404      299315.12593416846
0.052799999999996426      369494.2674161436
0.05309999999999644       438531.6216864519
0.05339999999999644       506217.29009582906
0.05369999999999645       572385.5594505279
0.053999999999996474      636793.7207600386
0.05429999999999647       699246.3733918925
0.054599999999996464      759590.3999361773
0.05489999999999649       817604.2340500071
0.055199999999996495      873112.3281626169
0.05549999999999652       925978.3568964945
0.05579999999999651       976007.9686802701
0.05609999999999653       1023050.2799707195
0.05639999999999652       1066989.4934709142
0.056699999999996545      1107655.8662418448
0.05699999999999654       1144951.111124423
0.05729999999999655       1178759.335059472
0.05759999999999655       1208957.8649713118
0.057899999999996565      1235474.0729375712
0.05819999999999659       1258224.7770043903
0.0584999999999966        1277127.858947125
0.05879999999999659       1292138.340497838
0.05909999999999659       1303208.030430806
0.05939999999999661       1310297.6158736607
0.05969999999999662       1313391.0008646818
0.05999999999999662       1312476.3056119117
0.060299999999996655      1307558.099985992
0.06059999999999666       1298649.6114524656
0.06089999999999665       1285775.5972291771
0.061199999999996674      1268984.3846948454
0.06149999999999667       1248318.162243448
0.06179999999999668       1223837.6456267722
0.0620999999999967        1195633.5952995159
0.062399999999996694      1163776.0044001823
0.06269999999999668       1128359.8832722313
0.06299999999999673       1089515.9381274765
0.06329999999999672       1047331.1415224833
0.06359999999999671       1001958.915998275
0.06389999999999675       953539.6100681497
0.06419999999999676       902190.5430754008
0.06449999999999675       848098.8138949065
0.06479999999999676       791431.0982887151
0.06509999999999679       732325.0034489569
0.06539999999999678       670996.1770633276
0.06569999999999679       607633.0543260644
0.06599999999999681       542389.7590651725
0.0662999999999968        475504.57791069173
0.06659999999999681       407182.54131247755
0.06689999999999682       337590.0659758138
0.0671999999999968        266981.54702690267
0.06749999999999687       195572.99127324737
0.06779999999999685       123538.54753238469
0.06809999999999684       51141.74767969546
0.06839999999999687       -21396.34490564247
0.06869999999999689       -93898.62191367605
0.0689999999999969        -166084.9972012971
0.06929999999999689       -237779.32834077315
0.06959999999999691       -308762.4820728738
0.06989999999999692       -378774.88060782134
0.07019999999999692       -447645.88870294386
0.07049999999999694       -515164.59462088346
0.07079999999999693       -581084.2957600497
0.07109999999999694       -645244.5403964604
0.07139999999999697       -707448.4184466945
0.07169999999999696       -767468.8634874284
0.07199999999999697       -825160.0045658128
0.07229999999999698       -880344.3296626367
0.07259999999999699       -932820.6313911128
0.072899999999997         -982461.6172300334
0.07319999999999702       -1029114.0380192937
0.07349999999999698       -1072608.0595852882
0.07379999999999702       -1112838.456350101
0.07409999999999704       -1149680.441874034
0.07439999999999702       -1183000.2095863635
0.07469999999999705       -1212717.484607414
0.07499999999999703       -1238739.3630509004
0.0752999999999971        -1260971.7329713237
0.07559999999999707       -1279364.8147315974
0.0758999999999971        -1293850.0993673818
0.0761999999999971        -1304385.782458946
0.07649999999999714       -1310944.9291024557
0.07679999999999713       -1313502.3132830523
0.07709999999999716       -1312052.573264275
0.07739999999999715       -1306598.0272244504
0.07769999999999715       -1297157.4234253634
0.07799999999999717       -1283761.9897736935
0.0782999999999972        -1266443.233988584
0.07859999999999719       -1245263.3648106419
0.07889999999999721       -1220289.3439760127
0.07919999999999726       -1191581.0052730648
0.07949999999999727       -1159242.3130682718
0.07979999999999729       -1123374.1278159237
0.08009999999999726       -1084062.9695953564
0.0803999999999973        -1041451.7092265402
0.0806999999999973        -995672.3417584269
0.08099999999999731       -946835.7024503808
0.0812999999999973        -895130.4540599424
0.08159999999999734       -840683.7060328829
0.08189999999999734       -783659.9741596346
0.08219999999999737       -724268.7480728184
0.08249999999999737       -662655.7493691543
0.0827999999999974        -599007.6844805141
0.08309999999999743       -533558.1225167381
0.08339999999999743       -466467.4036669842
0.08369999999999743       -397939.3082427236
0.08399999999999744       -328225.08376119053
0.08429999999999745       -257495.29481104447
0.08459999999999746       -185965.2108937034
0.08489999999999749       -113896.87240429518
0.08519999999999749       -41466.393902516545
0.08549999999999751       31105.36544358947
0.08579999999999749       103552.75371208465
0.08609999999999753       175698.93282902436
0.08639999999999755       247323.50675303812
0.08669999999999756       318164.4923277869
0.08699999999999757       388049.1742946601
0.08729999999999759       456763.65977800457
0.08759999999999755       524056.814146516
0.08789999999999763       589777.9652427325
0.08819999999999761       653686.0243641611
0.08849999999999762       715587.1486865458
0.08879999999999764       775329.5519997979
0.08909999999999767       832693.8552718996
0.08939999999999769       887506.5214769638
0.08969999999999766       939632.9095743034
0.08999999999999768       988881.3623829868
0.09029999999999773       1035103.4045348577
0.09059999999999771       1078185.2300635614
0.09089999999999773       1117968.1560918647
0.09119999999999774       1154332.8379430822
0.09149999999999776       1187189.4236273875
0.09179999999999779       1216416.5533511606
0.09209999999999775       1241927.2838258524
0.0923999999999978        1263658.179476353
0.09269999999999781       1281528.5295117674
0.09299999999999782       1295486.1747553486
0.09329999999999782       1305495.8345340597
0.09359999999999785       1311519.6589707285
0.09389999999999789       1313541.702456894
0.09419999999999787       1311555.806085803
0.09449999999999786       1305569.6419020288
0.0947999999999979        1295599.0438182037
0.0950999999999979        1281672.0145391508
0.09539999999999793       1263840.732623764
0.09569999999999795       1242149.921879054
0.09599999999999793       1216663.4349377856
0.09629999999999797       1187475.7083049554
0.09659999999999794       1154659.130029673
0.096899999999998         1118311.6527249352
0.097199999999998         1078567.382809314
0.09749999999999799       1035524.3887826472
0.097799999999998         989312.0387109888
0.09809999999999802       940100.4337806043
0.09839999999999807       888010.6352317014
0.09869999999999807       833199.8813511955
0.09899999999999805       775869.6062472247
0.09929999999999808       716160.5462549953
0.0995999999999981        654253.500632726
0.09989999999999812       590375.7160937754
0.10019999999999812       524670.2173051522
0.10049999999999812       457376.99895610946
0.10079999999999815       388702.3032384411
0.10109999999999819       318813.4251453248
0.10139999999999819       247965.86206193824
0.10169999999999815       176376.31507303083
0.10199999999999822       104219.39284005387
0.10229999999999823       31759.09343690807
0.10259999999999822       -40783.36196147649
0.10289999999999824       -113230.83623764421
0.10319999999999824       -185318.0656240419
0.10349999999999827       -256825.37148458415
0.10379999999999827       -327577.9428460539
0.10409999999999828       -397316.5198295484
0.10439999999999831       -465828.9868081428
0.10469999999999834       -532947.6496026908
0.10499999999999836       -598426.3574866476
0.10529999999999835       -662066.370895252
0.10559999999999835       -723711.7082330964
0.10589999999999837       -783136.0737364363
0.10619999999999838       -840159.5504786931
0.10649999999999837       -894642.144186741
0.10679999999999842       -946373.3813722596
0.10709999999999843       -995227.8017402682
0.10739999999999844       -1041054.5316656203
0.10769999999999842       -1083686.7708701047
0.10799999999999844       -1123021.4087932706
0.10829999999999847       -1158936.3724126273
0.10859999999999849       -1191301.2575245795
0.1088999999999985        -1220038.1290724243
0.10919999999999853       -1245057.0601198652
0.10949999999999852       -1266267.616305276
0.10979999999999852       -1283619.1739419003
0.11009999999999853       -1297056.4166616232
0.11039999999999858       -1306531.3583533973
0.11069999999999858       -1312022.0740555758
0.1109999999999986        -1313509.3739479573
0.1112999999999986        -1310989.035250672
0.11159999999999858       -1304468.432601521
0.11189999999999861       -1293965.0286437434
0.11219999999999862       -1279518.4796652943
0.11249999999999864       -1261165.2577583499
0.11279999999999867       -1238958.9995038623
0.11309999999999866       -1212982.1534395977
0.11339999999999864       -1183292.882390696
0.11369999999999872       -1149998.7486597344
0.11399999999999873       -1113203.5117414577
0.11429999999999875       -1072995.9645574791
0.11459999999999873       -1029522.2690523238
0.11489999999999873       -982917.0304809369
0.11519999999999873       -933293.1123181394
0.11549999999999878       -880831.2705278203
0.11579999999999879       -825693.2671849325
0.11609999999999875       -768012.9433062844
0.11639999999999881       -708000.695124563
0.1166999999999988        -645841.0085061447
0.11699999999999881       -581685.0339110482
0.11729999999999882       -515767.04203356744
0.11759999999999883       -448289.18647359865
0.11789999999999884       -379415.78492149693
0.11819999999999883       -309398.5622093935
0.11849999999999883       -238451.7996999192
0.11879999999999885       -166748.47903985897
0.11909999999999885       -94565.60078301918
0.11939999999999888       -22079.54134252782
0.1196999999999989        50488.63407043154
0.11999999999999891       122873.30343598245
0.12029999999999892       194897.7997545203
0.1205999999999989        266342.06176279316
0.12089999999999892       336944.78211011447
0.12119999999999895       406533.8449050155
0.12149999999999896       474896.22354329296
0.12179999999999899       541782.0862206828
0.12209999999999899       607028.5850281357
0.12239999999999902       670435.5659417175
0.12269999999999903       731771.5187407564
0.12299999999999899       790887.3265098162
0.12329999999999901       847601.1927877927
0.12359999999999906       901706.2725212761
0.12389999999999905       953071.2664812562
0.12419999999999906       1001537.7174861885
0.12449999999999907       1046929.1126922275
0.12479999999999908       1089135.5689937347
0.12509999999999913       1128026.3103045505
0.1253999999999991        1163459.9908616648
0.12569999999999912       1195357.2777261622
0.12599999999999914       1223600.2913021282
0.12629999999999914       1248105.0899815848
0.12659999999999913       1268810.6912494544
0.12689999999999915       1285640.0958811834
0.12719999999999915       1298544.305557616
0.12749999999999917       1307490.6132021474
0.12779999999999922       1312445.0026075288
0.12809999999999921       1313394.7567659866
0.1283999999999992        1310336.3419779486
0.1286999999999992        1303279.6456033182
0.12899999999999925       1292248.5731002842
0.12929999999999922       1277268.8634515896
0.12959999999999927       1258394.0186430886
0.1298999999999993        1235683.900142511
0.13019999999999932       1209192.818016212
0.13049999999999928       1179016.3950722525
0.1307999999999993        1145248.7909492773
0.1310999999999993        1107971.4043021884
0.13139999999999932       1067327.8457891603
0.13169999999999935       1023418.3769413203
0.13199999999999937       976374.8527535578
0.13229999999999936       926369.8679593276
0.13259999999999936       873526.4203912163
0.13289999999999932       818003.799791164
0.13319999999999937       760005.2083325326
0.13349999999999937       699673.0189009893
0.1337999999999994        637189.542306914
0.1340999999999994        572782.8609511823
0.1343999999999994        506610.8359454548
0.13469999999999946       438873.7306860752
0.13499999999999945       369818.0204936522
0.1352999999999995        299612.75194701814
0.13559999999999947       228470.5457412074
0.1358999999999995        156649.16511710818
0.13619999999999952       84324.24623796015
0.13649999999999954       11714.78320104355
0.13679999999999953       -60917.74912818216
0.13709999999999956       -133395.88047735245
0.13739999999999952       -205500.47168984587
0.13769999999999954       -276974.2393946266
0.1379999999999996        -347655.3781126937
0.1382999999999996        -417292.751672656
0.1385999999999996        -485679.5355295338
0.1388999999999996        -552647.2345460319
0.1391999999999996        -617961.7985023719
0.13949999999999962       -681432.1830789698
0.13979999999999965       -742901.1764766996
0.14009999999999967       -802159.8263845468
0.1403999999999997        -859038.9047932483
0.1406999999999997        -913396.3536576489
0.14099999999999963       -965056.0130263333
0.14129999999999973       -1013875.9528015222
0.14159999999999975       -1059732.5673153838
0.1418999999999997        -1102489.3911009117
0.14219999999999974       -1142036.225624917
0.14249999999999974       -1178270.5490864336
0.14279999999999976       -1211100.6672216558
0.14309999999999978       -1240450.5224667662
0.1433999999999998        -1266240.6312302633
0.1436999999999998        -1288425.1121482318
0.14399999999999985       -1306960.5636768995
0.14429999999999985       -1321791.9518014344
0.14459999999999978       -1332918.5003724857
0.14489999999999983       -1340301.471532617
0.14519999999999983       -1343931.0032910353
0.14549999999999985       -1343811.9510841458
0.1457999999999999        -1339925.4460688978
0.1460999999999999        -1332274.4101960862
0.14639999999999992       -1320832.8577977766
0.14669999999999989       -1305601.118621671
0.14699999999999996       -1286571.9804467137
0.14729999999999993       -1263650.7809902139
0.14759999999999995       -1236863.150575397
0.14789999999999995       -1206179.4027239694
0.14819999999999997       -1171458.630259714
0.1485                    -1132767.2841888422
0.14880000000000002       -1090085.96200997
0.14909999999999998       -1043306.0284127546
0.1494                    -992540.6087974207
0.14970000000000006       -937828.1907043676
0.15                      -878981.4610941818
