$MeshFormat
2.2 0 8
$EndMeshFormat
$PhysicalNames
4
1 3 "outer_iface1"
1 4 "outer_iface2"
2 1 "outer"
2 2 "pml"
$EndPhysicalNames
$Nodes
249
1 0.5 0 0
2 1 0 0
3 1.5 0 0
4 0 0.5 0
5 0.5 0.5 0
6 1 0.5 0
7 1.5 0.5 0
8 0 1 0
9 0.5 1 0
10 1 1 0
11 1.5 1 0
12 0 1.5 0
13 0.5 1.5 0
14 1 1.5 0
15 1.5 1.5 0
16 0.75 0 0
17 0.625 0 0
18 0.8749999999999769 0 0
19 1.25 0 0
20 1.125 0 0
21 1.374999999999954 0 0
22 0.249999999999347 0.5 0
23 0.1249999999997097 0.5 0
24 0.3749999999996735 0.5 0
25 0.5 0.249999999999347 0
26 0.5 0.1249999999997097 0
27 0.5 0.3749999999996735 0
28 0.75 0.5 0
29 0.625 0.5 0
30 0.8749999999999769 0.5 0
31 1 0.249999999999347 0
32 1 0.1249999999997097 0
33 1 0.3749999999996735 0
34 1.25 0.5 0
35 1.125 0.5 0
36 1.374999999999954 0.5 0
37 1.5 0.249999999999347 0
38 1.5 0.1249999999997097 0
39 1.5 0.3749999999996735 0
40 0.249999999999347 1 0
41 0.1249999999997097 1 0
42 0.3749999999996735 1 0
43 0 0.75 0
44 0 0.625 0
45 0 0.8749999999999769 0
46 0.5 0.75 0
47 0.5 0.625 0
48 0.5 0.8749999999999769 0
49 0.75 1 0
50 0.625 1 0
51 0.8749999999999769 1 0
52 1 0.75 0
53 1 0.625 0
54 1 0.8749999999999769 0
55 1.25 1 0
56 1.125 1 0
57 1.374999999999954 1 0
58 1.5 0.75 0
59 1.5 0.625 0
60 1.5 0.8749999999999769 0
61 0.249999999999347 1.5 0
62 0.1249999999997097 1.5 0
63 0.3749999999996735 1.5 0
64 0 1.25 0
65 0 1.125 0
66 0 1.374999999999954 0
67 0.5 1.25 0
68 0.5 1.125 0
69 0.5 1.374999999999954 0
70 0.75 1.5 0
71 0.625 1.5 0
72 0.8749999999999769 1.5 0
73 1 1.25 0
74 1 1.125 0
75 1 1.374999999999954 0
76 1.25 1.5 0
77 1.125 1.5 0
78 1.374999999999954 1.5 0
79 1.5 1.25 0
80 1.5 1.125 0
81 1.5 1.374999999999954 0
82 0.75 0.1785714285711487 0
83 0.675 0.3607142857140339 0
84 0.835 0.3578571428569058 0
85 0.625 0.2142857142852478 0
86 0.625 0.08928571428557434 0
87 0.75 0.08928571428557434 0
88 0.875 0.2142857142852478 0
89 0.875 0.08928571428557434 0
90 0.5875 0.3053571428566904 0
91 0.5875 0.4303571428570169 0
92 0.7125 0.2696428571425913 0
93 0.7125 0.4303571428570169 0
94 0.7925 0.4289285714284529 0
95 0.9175 0.4289285714284529 0
96 0.9175 0.3039285714281264 0
97 0.7925 0.2682142857140273 0
98 0.755 0.3592857142854698 0
99 1.25 0.1785714285711487 0
100 1.175 0.3607142857140339 0
101 1.335 0.3578571428569058 0
102 1.125 0.2142857142852478 0
103 1.125 0.08928571428557434 0
104 1.25 0.08928571428557434 0
105 1.375 0.2142857142852478 0
106 1.375 0.08928571428557434 0
107 1.0875 0.3053571428566904 0
108 1.0875 0.4303571428570169 0
109 1.2125 0.2696428571425913 0
110 1.2125 0.4303571428570169 0
111 1.4175 0.3039285714281264 0
112 1.4175 0.4289285714284529 0
113 1.2925 0.4289285714284529 0
114 1.2925 0.2682142857140273 0
115 1.255 0.3592857142854698 0
116 0.1785714285711487 0.75 0
117 0.3607142857140339 0.825 0
118 0.3578571428569058 0.665 0
119 0.08928571428557434 0.75 0
120 0.08928571428557434 0.875 0
121 0.2142857142852478 0.875 0
122 0.08928571428557434 0.625 0
123 0.2142857142852478 0.625 0
124 0.3053571428566904 0.9125 0
125 0.4303571428570169 0.9125 0
126 0.2696428571425913 0.7875 0
127 0.4303571428570169 0.7875 0
128 0.4289285714284529 0.7075 0
129 0.4289285714284529 0.5825 0
130 0.3039285714281264 0.5825 0
131 0.2682142857140273 0.7075 0
132 0.3592857142854698 0.745 0
133 0.75 0.75 0
134 0.625 0.875 0
135 0.875 0.625 0
136 0.625 0.625 0
137 0.875 0.875 0
138 0.5625 0.8125 0
139 0.5625 0.9375 0
140 0.6875 0.9375 0
141 0.6875 0.8125 0
142 0.75 0.875 0
143 0.625 0.75 0
144 0.8125 0.5625 0
145 0.9375 0.5625 0
146 0.9375 0.6875 0
147 0.875 0.75 0
148 0.8125 0.6875 0
149 0.75 0.625 0
150 0.6875 0.5625 0
151 0.5625 0.5625 0
152 0.5625 0.6875 0
153 0.6875 0.6875 0
154 0.9375 0.8125 0
155 0.9375 0.9375 0
156 0.8125 0.9375 0
157 0.8125 0.8125 0
158 1.25 0.75 0
159 1.125 0.875 0
160 1.125 0.625 0
161 1.375 0.875 0
162 1.375 0.625 0
163 1.0625 0.8125 0
164 1.0625 0.9375 0
165 1.1875 0.9375 0
166 1.1875 0.8125 0
167 1.25 0.875 0
168 1.125 0.75 0
169 1.1875 0.5625 0
170 1.0625 0.5625 0
171 1.0625 0.6875 0
172 1.1875 0.6875 0
173 1.25 0.625 0
174 1.3125 0.9375 0
175 1.4375 0.9375 0
176 1.4375 0.8125 0
177 1.3125 0.8125 0
178 1.375 0.75 0
179 1.3125 0.5625 0
180 1.4375 0.5625 0
181 1.4375 0.6875 0
182 1.3125 0.6875 0
183 0.1785714285711487 1.25 0
184 0.3607142857140338 1.325 0
185 0.3578571428569058 1.165 0
186 0.2142857142852478 1.375 0
187 0.08928571428557434 1.375 0
188 0.08928571428557434 1.25 0
189 0.2142857142852478 1.125 0
190 0.08928571428557434 1.125 0
191 0.3053571428566904 1.4125 0
192 0.4303571428570169 1.4125 0
193 0.4303571428570169 1.2875 0
194 0.2696428571425912 1.2875 0
195 0.3039285714281264 1.0825 0
196 0.4289285714284529 1.0825 0
197 0.4289285714284529 1.2075 0
198 0.2682142857140273 1.2075 0
199 0.3592857142854698 1.245 0
200 0.75 1.25 0
201 0.875 1.375 0
202 0.625 1.375 0
203 0.875 1.125 0
204 0.625 1.125 0
205 0.9375 1.3125 0
206 0.9375 1.4375 0
207 0.8125 1.4375 0
208 0.75 1.375 0
209 0.8125 1.3125 0
210 0.875 1.25 0
211 0.6875 1.4375 0
212 0.5625 1.4375 0
213 0.5625 1.3125 0
214 0.625 1.25 0
215 0.6875 1.3125 0
216 0.9375 1.1875 0
217 0.9375 1.0625 0
218 0.8125 1.0625 0
219 0.8125 1.1875 0
220 0.75 1.125 0
221 0.6875 1.0625 0
222 0.5625 1.0625 0
223 0.5625 1.1875 0
224 0.6875 1.1875 0
225 1.25 1.25 0
226 1.375 1.125 0
227 1.375 1.375 0
228 1.125 1.375 0
229 1.125 1.125 0
230 1.4375 1.1875 0
231 1.4375 1.0625 0
232 1.3125 1.0625 0
233 1.3125 1.1875 0
234 1.25 1.125 0
235 1.375 1.25 0
236 1.4375 1.3125 0
237 1.4375 1.4375 0
238 1.3125 1.4375 0
239 1.25 1.375 0
240 1.3125 1.3125 0
241 1.0625 1.3125 0
242 1.0625 1.4375 0
243 1.1875 1.4375 0
244 1.1875 1.3125 0
245 1.125 1.25 0
246 1.0625 1.1875 0
247 1.0625 1.0625 0
248 1.1875 1.0625 0
249 1.1875 1.1875 0
$EndNodes
$Elements
116
1 8 2 4 4 4 22 23
2 8 2 4 4 22 5 24
3 8 2 3 6 1 25 26
4 8 2 3 6 25 5 27
5 9 2 1 11 82 25 1 85 26 86
6 9 2 1 11 16 82 1 87 86 17
7 9 2 1 11 31 82 2 88 89 32
8 9 2 1 11 82 16 2 87 18 89
9 9 2 1 11 25 83 5 90 91 27
10 9 2 1 11 83 25 82 90 85 92
11 9 2 1 11 83 28 5 93 29 91
12 9 2 1 11 28 84 6 94 95 30
13 9 2 1 11 31 84 82 96 97 88
14 9 2 1 11 84 31 6 96 33 95
15 9 2 1 11 83 84 28 98 94 93
16 9 2 1 11 83 82 84 92 97 98
17 9 2 2 15 99 31 2 102 32 103
18 9 2 2 15 19 99 2 104 103 20
19 9 2 2 15 37 99 3 105 106 38
20 9 2 2 15 99 19 3 104 21 106
21 9 2 2 15 31 100 6 107 108 33
22 9 2 2 15 100 31 99 107 102 109
23 9 2 2 15 100 34 6 110 35 108
24 9 2 2 15 101 37 7 111 39 112
25 9 2 2 15 34 101 7 113 112 36
26 9 2 2 15 37 101 99 111 114 105
27 9 2 2 15 100 101 34 115 113 110
28 9 2 2 15 100 99 101 109 114 115
29 9 2 1 19 43 116 8 119 120 45
30 9 2 1 19 116 40 8 121 41 120
31 9 2 1 19 116 43 4 119 44 122
32 9 2 1 19 22 116 4 123 122 23
33 9 2 1 19 40 117 9 124 125 42
34 9 2 1 19 117 40 116 124 121 126
35 9 2 1 19 117 46 9 127 48 125
36 9 2 1 19 46 118 5 128 129 47
37 9 2 1 19 22 118 116 130 131 123
38 9 2 1 19 118 22 5 130 24 129
39 9 2 1 19 117 118 46 132 128 127
40 9 2 1 19 117 116 118 126 131 132
41 9 2 1 23 46 134 9 138 139 48
42 9 2 1 23 49 134 133 140 141 142
43 9 2 1 23 134 49 9 140 50 139
44 9 2 1 23 134 46 133 138 143 141
45 9 2 1 23 135 28 6 144 30 145
46 9 2 1 23 135 52 133 146 147 148
47 9 2 1 23 52 135 6 146 145 53
48 9 2 1 23 28 135 133 144 148 149
49 9 2 1 23 28 136 5 150 151 29
50 9 2 1 23 46 136 133 152 153 143
51 9 2 1 23 136 46 5 152 47 151
52 9 2 1 23 136 28 133 150 149 153
53 9 2 1 23 137 52 10 154 54 155
54 9 2 1 23 137 49 133 156 142 157
55 9 2 1 23 49 137 10 156 155 51
56 9 2 1 23 52 137 133 154 157 147
57 9 2 2 27 52 159 10 163 164 54
58 9 2 2 27 55 159 158 165 166 167
59 9 2 2 27 159 55 10 165 56 164
60 9 2 2 27 159 52 158 163 168 166
61 9 2 2 27 34 160 6 169 170 35
62 9 2 2 27 52 160 158 171 172 168
63 9 2 2 27 160 52 6 171 53 170
64 9 2 2 27 160 34 158 169 173 172
65 9 2 2 27 55 161 11 174 175 57
66 9 2 2 27 58 161 158 176 177 178
67 9 2 2 27 161 58 11 176 60 175
68 9 2 2 27 161 55 158 174 167 177
69 9 2 2 27 162 34 7 179 36 180
70 9 2 2 27 162 58 158 181 178 182
71 9 2 2 27 58 162 7 181 180 59
72 9 2 2 27 34 162 158 179 182 173
73 9 2 2 31 183 61 12 186 62 187
74 9 2 2 31 64 183 12 188 187 66
75 9 2 2 31 40 183 8 189 190 41
76 9 2 2 31 183 64 8 188 65 190
77 9 2 2 31 61 184 13 191 192 63
78 9 2 2 31 184 67 13 193 69 192
79 9 2 2 31 184 61 183 191 186 194
80 9 2 2 31 185 40 9 195 42 196
81 9 2 2 31 67 185 9 197 196 68
82 9 2 2 31 40 185 183 195 198 189
83 9 2 2 31 184 185 67 199 197 193
84 9 2 2 31 184 183 185 194 198 199
85 9 2 2 35 201 73 14 205 75 206
86 9 2 2 35 201 70 200 207 208 209
87 9 2 2 35 70 201 14 207 206 72
88 9 2 2 35 73 201 200 205 209 210
89 9 2 2 35 202 70 13 211 71 212
90 9 2 2 35 202 67 200 213 214 215
91 9 2 2 35 67 202 13 213 212 69
92 9 2 2 35 70 202 200 211 215 208
93 9 2 2 35 73 203 10 216 217 74
94 9 2 2 35 49 203 200 218 219 220
95 9 2 2 35 203 49 10 218 51 217
96 9 2 2 35 203 73 200 216 210 219
97 9 2 2 35 49 204 9 221 222 50
98 9 2 2 35 67 204 200 223 224 214
99 9 2 2 35 204 67 9 223 68 222
100 9 2 2 35 204 49 200 221 220 224
101 9 2 2 39 79 226 11 230 231 80
102 9 2 2 39 55 226 225 232 233 234
103 9 2 2 39 226 55 11 232 57 231
104 9 2 2 39 226 79 225 230 235 233
105 9 2 2 39 227 79 15 236 81 237
106 9 2 2 39 227 76 225 238 239 240
107 9 2 2 39 76 227 15 238 237 78
108 9 2 2 39 79 227 225 236 240 235
109 9 2 2 39 73 228 14 241 242 75
110 9 2 2 39 76 228 225 243 244 239
111 9 2 2 39 228 76 14 243 77 242
112 9 2 2 39 228 73 225 241 245 244
113 9 2 2 39 229 73 10 246 74 247
114 9 2 2 39 229 55 225 248 234 249
115 9 2 2 39 55 229 10 248 247 56
116 9 2 2 39 73 229 225 246 249 245
$EndElements
