$MeshFormat
2.2 0 8
$EndMeshFormat
$PhysicalNames
5
1 1 "inner"
1 2 "outer"
1 3 "x-axis"
1 4 "y-axis"
2 5 "pipe"
$EndPhysicalNames
$Nodes
861
1 20 0 0
2 22 0 0
3 0 22 0
4 0 20 0
5 20.4 0 0
6 20.8 0 0
7 21.2 0 0
8 21.6 0 0
9 20.20000000000279 0 0
10 20.59999999999818 0 0
11 20.99999999999869 0 0
12 21.4 0 0
13 21.80000000000035 0 0
14 21.98914432804627 0.6910366997132792 0
15 21.95658802542242 1.381391429637862 0
16 21.90236322126859 2.070382892998585 0
17 21.82652342891979 2.757331138404588 0
18 21.72914349309482 3.441558230873795 0
19 21.61031951603352 4.122388920873528 0
20 21.47016876265548 4.799151310710377 0
21 21.30882954483381 5.471177517611499 0
22 21.12646108489766 6.137804332846142 0
23 20.92324335849941 6.798373876230276 0
24 20.69937691700023 7.452234245376207 0
25 20.45508268955009 8.098740159041302 0
26 20.19060176505737 8.737253593942565 0
27 19.90619515426379 9.36714441440745 0
28 19.60214353215758 9.987790994243554 0
29 19.2787469609802 10.59858083021009 0
30 18.93632459410366 11.1989111464796 0
31 18.57521436106307 11.7881894895084 0
32 18.19577263406104 12.36583431271644 0
33 17.79837387627071 12.93127555040432 0
34 17.38341027228883 13.483955180335 0
35 16.95129134109247 14.02332777444083 0
36 16.50244353189689 14.54886103708997 0
37 16.03730980330013 15.06003633040019 0
38 15.55634918613439 15.55634918607371 0
39 15.06003633046168 16.03730980324238 0
40 14.5488610371491 16.50244353184476 0
41 14.02332777449943 16.95129134104399 0
42 13.48395518039252 17.38341027224421 0
43 12.93127555045971 17.79837387623046 0
44 12.36583431277149 18.19577263402363 0
45 11.78818948956155 18.57521436102934 0
46 11.19891114653096 18.93632459407328 0
47 10.59858083026046 19.27874696095251 0
48 9.987790994290696 19.60214353213356 0
49 9.367144414451735 19.90619515424295 0
50 8.737253593983617 20.1906017650396 0
51 8.098740159079565 20.45508268953494 0
52 7.45223424541039 20.69937691698793 0
53 6.798373876261304 20.92324335848933 0
54 6.137804332873045 21.12646108488984 0
55 5.471177517635378 21.30882954482768 0
56 4.799151310730866 21.47016876265089 0
57 4.122388920891755 21.61031951603004 0
58 3.44155823088965 21.72914349309231 0
59 2.757331138418115 21.82652342891808 0
60 2.070382893008141 21.90236322126768 0
61 1.381391429643528 21.95658802542206 0
62 0.6910366997160221 21.98914432804618 0
63 21.99728591459658 0.3455609808572799 0
64 21.97557724916363 1.036341915605891 0
65 21.93218134212943 1.726100106004739 0
66 21.86714102001499 2.414154843993605 0
67 21.78052046976578 3.099827102616167 0
68 21.6724051754071 3.782440206135139 0
69 21.5429018336815 4.461320497830438 0
70 21.39213824875234 5.13579800481552 0
71 21.22026320607598 5.805207099222046 0
72 21.0274463255687 6.468887155093018 0
73 20.81387789421265 7.126183200339856 0
74 20.57976867826498 7.776446563122758 0
75 20.32534971525753 8.419035512009712 0
76 20.05087208599041 9.053315889288895 0
77 19.7566066667459 9.678661736804912 0
78 19.44284386196549 10.29445591370574 0
79 19.10989331765622 10.90009070548489 0
80 18.75808361580778 11.49496842372191 0
81 18.38776195012168 12.07850199592886 0
82 17.9992937833719 12.6501155449217 0
83 17.5930624867388 13.20924495713907 0
84 17.16946896146767 13.75533843935504 0
85 16.72893124322671 14.28785706323357 0
86 16.27188408955724 14.80627529718443 0
87 15.7987785508196 15.31008152500053 0
88 15.3100815250614 15.79877855076061 0
89 14.8062752972446 16.27188408950249 0
90 14.28785706329238 16.72893124317648 0
91 13.7553384394133 17.16946896142099 0
92 13.20924495719567 17.5930624866963 0
93 12.65011554497695 17.99929378333307 0
94 12.07850199598313 18.38776195008603 0
95 11.4949684237743 18.75808361577567 0
96 10.900090705536 19.10989331762707 0
97 10.29445591375439 19.44284386193972 0
98 9.678661736850465 19.75660666672358 0
99 9.053315889331584 20.05087208597113 0
100 8.41903551204941 20.32534971524109 0
101 7.776446563158905 20.57976867825132 0
102 7.126183200372407 20.8138778942015 0
103 6.468887155122045 21.02744632555977 0
104 5.805207099247803 21.22026320606893 0
105 5.135798004837368 21.3921382487471 0
106 4.461320497849843 21.54290183367749 0
107 3.782440206151966 21.67240517540416 0
108 3.099827102630758 21.78052046976371 0
109 2.414154844005042 21.86714102001373 0
110 1.726100106012337 21.93218134212884 0
111 1.036341915610226 21.97557724916343 0
112 0.3455609808586524 21.99728591459656 0
113 0 21.6 0
114 0 21.2 0
115 0 20.8 0
116 0 20.4 0
117 0 21.79999999999721 0
118 0 21.40000000000182 0
119 0 21.00000000000131 0
120 0 20.6 0
121 0 20.19999999999965 0
122 0.6282151815576354 19.99013120731479 0
123 1.255810390580183 19.96053456856581 0
124 1.882166266362949 19.91123929206229 0
125 2.506664671277881 19.84229402629059 0
126 3.128689300795547 19.75376681190419 0
127 3.747626291704227 19.64574501457573 0
128 4.362864827919521 19.51833523877748 0
129 4.973797743283911 19.37166322257601 0
130 5.579822120770094 19.20587371354307 0
131 6.180339887482821 19.02113032590831 0
132 6.774758404888277 18.81761537909083 0
133 7.362491053674724 18.59552971777249 0
134 7.942957812675873 18.35509251368816 0
135 8.515585831279814 18.09654104933057 0
136 9.079809994767755 17.82013048377917 0
137 9.635073482010222 17.52613360089051 0
138 10.18082831498238 17.21484054009369 0
139 10.71653589955487 16.88655851005621 0
140 11.24166755701743 16.54161148550835 0
141 11.75570504582352 16.1803398875178 0
142 12.25814107303272 15.80310024753461 0
143 12.74847979494687 15.41026485553806 0
144 13.22623730644569 15.00222139263331 0
145 13.69094211854628 14.57937254845405 0
146 14.14213562370449 14.14213562375741 0
147 14.57937254840319 13.69094211860044 0
148 15.00222139258687 13.22623730649836 0
149 15.41026485549527 12.74847979499859 0
150 15.8031002474953 12.25814107308338 0
151 16.18033988748203 11.75570504587275 0
152 16.54161148547609 11.2416675570649 0
153 16.88655851002577 10.71653589960283 0
154 17.21484054006561 10.18082831502985 0
155 17.52613360086546 9.635073482055796 0
156 17.82013048375721 9.079809994810855 0
157 18.09654104931182 8.515585831319664 0
158 18.35509251367227 7.942957812712603 0
159 18.59552971775875 7.362491053709409 0
160 18.81761537907948 6.77475840491979 0
161 19.02113032589907 6.180339887511278 0
162 19.20587371353615 5.579822120793921 0
163 19.37166322257059 4.973797743305018 0
164 19.51833523877342 4.362864827937702 0
165 19.64574501457268 3.747626291720214 0
166 19.75376681190202 3.128689300809233 0
167 19.84229402628913 2.506664671289451 0
168 19.91123929206151 1.882166266371236 0
169 19.96053456856549 1.255810390585269 0
170 19.99013120731471 0.62821518156014 0
171 0.3141463462339534 19.99753264963325 0
172 0.9421290141873684 19.97779749923966 0
173 1.569181914550146 19.93834667466309 0
174 2.19468622181309 19.87921910910445 0
175 2.818024638743035 19.80047315433238 0
176 3.438582005578583 19.70218652309715 0
177 4.055745907119544 19.58445621243753 0
178 4.668907277105695 19.44739840795651 0
179 5.277460999293612 19.29114836915975 0
180 5.880806504630534 19.11586029597138 0
181 6.478348363946065 18.9217071765567 0
182 7.069496875566797 18.70888061660428 0
183 7.65366864728256 18.4775906502337 0
184 8.230287172081413 18.22806553271828 0
185 8.798783397096074 17.9605515152232 0
186 9.358596285187936 17.67531260178633 0
187 9.909173368623531 17.37263028877787 0
188 10.44997129429417 17.05280328709705 0
189 10.9804563599377 16.71614722738178 0
190 11.50010504084021 16.36299434851829 0
191 12.00840450649148 15.99369316976148 0
192 12.50485312668731 15.60860814678806 0
193 12.98896096657652 15.20811931202381 0
194 13.46025027016784 14.79262189959733 0
195 13.91825593181888 14.36252595529034 0
196 14.36252595523789 13.918255931873 0
197 14.79262189954871 13.46025027022127 0
198 15.20811931197923 12.98896096662872 0
199 15.60860814674709 12.50485312673845 0
200 15.99369316972411 12.00840450654125 0
201 16.3629943484845 11.5001050408883 0
202 16.71614722735071 10.98045635998501 0
203 17.05280328706784 10.44997129434183 0
204 17.37263028875137 9.909173368669984 0
205 17.67531260176293 9.358596285232123 0
206 17.96055151520277 8.798783397137788 0
207 18.22806553270091 8.230287172119892 0
208 18.47759065021886 7.653668647318397 0
209 18.70888061659169 7.06949687560011 0
210 18.92170717654644 6.478348363976037 0
211 19.11586029596322 5.880806504657063 0
212 19.29114836915357 5.277460999316194 0
213 19.44739840795174 4.668907277125567 0
214 19.58445621243396 4.055745907136786 0
215 19.70218652309458 3.438582005593335 0
216 19.8004731543306 2.81802463875556 0
217 19.87921910910336 2.194686221823008 0
218 19.93834667466255 1.56918191455706 0
219 19.97779749923949 0.9421290141909505 0
220 19.99753264963324 0.3141463462348055 0
221 20.38993383146102 0.6407794851907678 0
222 20.35974525993688 1.280926598395787 0
223 20.30946407790292 1.919809591696706 0
224 20.23913990681526 2.556797964712479 0
225 20.14884214814058 3.191263086822144 0
226 20.03865991486485 3.822578817550876 0
227 19.90870194354982 4.450122124492236 0
228 19.75909648702323 5.073273698166313 0
229 19.58999118780844 5.691418563204364 0
230 19.40155293241913 6.303946685255077 0
231 19.19396768666363 6.910253573011071 0
232 18.96744031211702 7.509740874775785 0
233 18.72219436394929 8.101816968958595 0
234 18.45847187030221 8.68589754793722 0
235 18.17653309343728 9.261406194697395 0
236 17.8766562728884 9.827774951686655 0
237 17.55913735087322 10.3844448813198 0
238 17.22428968023323 10.93086661758394 0
239 16.87244371519308 11.46650090819521 0
240 16.50394668523976 11.99081914677906 0
241 16.11916225245401 12.5033038945337 0
242 15.71847015261471 13.00344939088704 0
243 15.30226582044887 13.49076205261668 0
244 14.87095999938258 13.96476096096039 0
245 14.42497833619047 14.42497833622067 0
246 13.96476096092936 14.87095999941171 0
247 13.49076205258637 15.3022658204756 0
248 13.00344939085738 15.71847015263924 0
249 12.50330389450467 16.11916225247653 0
250 11.99081914675076 16.50394668526032 0
251 11.46650090816824 16.87244371521141 0
252 10.93086661755621 17.22428968025083 0
253 10.38444488129209 17.5591373508896 0
254 9.827774951660267 17.87665627290291 0
255 9.261406194672343 18.17653309345004 0
256 8.685897547914198 18.45847187031305 0
257 8.101816968937422 18.72219436395845 0
258 7.509740874755691 18.96744031212498 0
259 6.910253572992698 19.19396768667024 0
260 6.303946685238519 19.40155293242451 0
261 5.691418563190683 19.58999118781242 0
262 5.073273698154203 19.75909648702634 0
263 4.450122124481789 19.90870194355216 0
264 3.822578817541732 20.0386599148666 0
265 3.191263086814367 20.14884214814181 0
266 2.556797964705927 20.23913990681609 0
267 1.919809591691987 20.30946407790337 0
268 1.280926598392852 20.35974525993706 0
269 0.6407794851893128 20.38993383146106 0
270 20.78973645560733 0.6533437888213958 0
271 20.75895595130826 1.306042806206306 0
272 20.70768886374434 1.957452917022176 0
273 20.6359857873414 2.606931258135506 0
274 20.54391748437914 3.253836872835058 0
275 20.43157481515702 3.89753134338154 0
276 20.29906864832624 4.537379421046772 0
277 20.14652975147589 5.17274965302761 0
278 19.97410866208076 5.803015005614808 0
279 19.7819755389392 6.427553482998876 0
280 19.57031999424778 7.045748741102358 0
281 19.33935090647529 7.656990695842166 0
282 19.08929621422631 8.260676125204588 0
283 18.82040269129261 8.856209264554776 0
284 18.53293570311736 9.443002394583935 0
285 18.22717894491136 10.02047642131751 0
286 17.90343416168083 10.58806144760975 0
287 17.56202085044069 11.14519733556506 0
288 17.20327594491006 11.69133425932552 0
289 16.8275534829975 12.22593324768537 0
290 16.43522425741271 12.74846671598403 0
291 16.02667544973415 13.25841898677549 0
292 15.60231024831088 13.755286798735 0
293 15.16254745036197 14.23857980332034 0
294 14.70782104867645 14.70782104868393 0
295 14.23857980331244 15.16254745036938 0
296 13.75528679872705 15.60231024831789 0
297 13.25841898676789 16.02667544974043 0
298 12.74846671597664 16.43522425741845 0
299 12.22593324767799 16.82755348300287 0
300 11.69133425931905 17.20327594491447 0
301 11.14519733555754 17.56202085044546 0
302 10.58806144760181 17.90343416168552 0
303 10.02047642131032 18.22717894491531 0
304 9.443002394576933 18.53293570312093 0
305 8.856209264548582 18.82040269129553 0
306 8.260676125198971 19.08929621422874 0
307 7.65699069583666 19.33935090647747 0
308 7.045748741097122 19.57031999424967 0
309 6.427553482994216 19.78197553894072 0
310 5.803015005611275 19.97410866208178 0
311 5.172749653024498 20.14652975147668 0
312 4.537379421044059 20.29906864832684 0
313 3.897531343379238 20.43157481515746 0
314 3.253836872833188 20.54391748437943 0
315 2.606931258133974 20.63598578734159 0
316 1.957452917021026 20.70768886374445 0
317 1.306042806205521 20.75895595130831 0
318 0.6533437888209901 20.78973645560734 0
319 21.18953907975365 0.6659080924520236 0
320 21.15816664267965 1.331159014016825 0
321 21.10591364958576 1.995096242347645 0
322 21.03283166786753 2.657064551558533 0
323 20.9389928206177 3.31641065884797 0
324 20.82448971544919 3.972483869212202 0
325 20.68943535310265 4.624636717601306 0
326 20.53396301592852 5.272225607888908 0
327 20.35822613635306 5.914611448025252 0
328 20.16239814545927 6.551160280742677 0
329 19.94667230183193 7.181243909193641 0
330 19.71126150083355 7.804240516908543 0
331 19.45639806450333 8.41953528145058 0
332 19.18233351228301 9.026520981172336 0
333 18.88933831279743 9.624598594470474 0
334 18.5777016169343 10.21317789094837 0
335 18.24773097248843 10.7916780138997 0
336 17.89975202064815 11.35952805354617 0
337 17.53410817462706 11.91616761045583 0
338 17.15116028075524 12.46104734859169 0
339 16.75128626237142 12.99362953743436 0
340 16.33488074685359 13.51338858266393 0
341 15.90235467617288 14.01981154485332 0
342 15.45413490134135 14.51239864568029 0
343 14.99066376116243 14.99066376114719 0
344 14.51239864569552 15.45413490132705 0
345 14.01981154486773 15.90235467616017 0
346 13.51338858267841 16.33488074684162 0
347 12.9936295374486 16.75128626236037 0
348 12.46104734860523 17.15116028074539 0
349 11.91616761046986 17.53410817461752 0
350 11.35952805355888 17.89975202064009 0
351 10.79167801391153 18.24773097248144 0
352 10.21317789096036 18.57770161692771 0
353 9.624598594481519 18.8893383127918 0
354 9.026520981182966 19.182333512278 0
355 8.419535281460519 19.45639806449902 0
356 7.804240516917631 19.71126150082996 0
357 7.181243909201544 19.94667230182909 0
358 6.551160280749911 20.16239814545692 0
359 5.914611448031865 20.35822613635113 0
360 5.27222560789479 20.53396301592701 0
361 4.624636717606328 20.68943535310153 0
362 3.972483869216743 20.82448971544832 0
363 3.316410658852008 20.93899282061706 0
364 2.657064551562021 21.03283166786708 0
365 1.995096242350064 21.10591364958552 0
366 1.33115901401819 21.15816664267957 0
367 0.6659080924526675 21.18953907975363 0
368 21.58934170389996 0.6784723960826513 0
369 21.55737733405103 1.356275221827344 0
370 21.50413843542717 2.032739567673115 0
371 21.42967754839366 2.70719784498156 0
372 21.33406815685626 3.378984444860883 0
373 21.21740461574135 4.047436395042866 0
374 21.07980205787906 4.711894014155842 0
375 20.92139628038117 5.371701562750204 0
376 20.74234361062535 6.026207890435697 0
377 20.54282075197934 6.674767078486476 0
378 20.32302460941609 7.316739077284923 0
379 20.08317209519182 7.951490337974923 0
380 19.82349991478035 8.578394437696574 0
381 19.5442643332734 9.196832697789894 0
382 19.24574092247751 9.806194794357014 0
383 18.92822428895725 10.40587936057923 0
384 18.59202778329605 10.99529458018965 0
385 18.23748319085561 11.57385877152729 0
386 17.86494040434405 12.14100096158614 0
387 17.47476707851297 12.69616144949801 0
388 17.06734826733013 13.23879235888468 0
389 16.64308604397303 13.76835817855238 0
390 16.20239910403489 14.28433629097164 0
391 15.74572235232075 14.78621748804024 0
392 15.27350647364841 15.27350647361045 0
393 14.7862174880786 15.74572235228472 0
394 14.28433629100842 16.20239910400246 0
395 13.76835817858892 16.64308604394281 0
396 13.23879235892056 17.06734826730229 0
397 12.69616144953247 17.47476707848793 0
398 12.14100096162068 17.86494040432058 0
399 11.57385877156021 18.23748319083472 0
400 10.99529458022125 18.59202778327736 0
401 10.40587936061041 18.92822428894011 0
402 9.806194794386109 19.24574092246268 0
403 9.196832697817349 19.54426433326047 0
404 8.57839443772207 19.82349991476932 0
405 7.951490337998598 20.08317209518245 0
406 7.316739077305968 20.32302460940851 0
407 6.674767078505608 20.54282075197313 0
408 6.026207890452455 20.74234361062048 0
409 5.371701562765086 20.92139628037735 0
410 4.711894014168597 21.07980205787621 0
411 4.04743639505425 21.21740461573918 0
412 3.378984444870829 21.33406815685468 0
413 2.707197844990068 21.42967754839258 0
414 2.032739567679103 21.5041384354266 0
415 1.356275221830859 21.55737733405081 0
416 0.6784723960843448 21.5893417038999 0
417 20.39496691573051 0.3203897425953839 0
418 20.19003251938786 0.6344973333754539 0
419 20.37483954569895 0.9608530417932776 0
420 20.16013991425119 1.268368494490528 0
421 20.3346046689199 1.600368095046247 0
422 20.11035168498222 1.900987929033971 0
423 20.27430199235909 2.238303778204592 0
424 20.0407169665522 2.531731318000965 0
425 20.19399102747792 2.874030525767312 0
426 19.9513044800213 3.159976193815688 0
427 20.09375103150272 3.50692095218651 0
428 19.84220246471877 3.785102554635545 0
429 19.97368092920734 4.136350471021556 0
430 19.71351859116162 4.406493476214969 0
431 19.83389921528653 4.761697911329275 0
432 19.56537985479691 5.023535720735666 0
433 19.67454383741584 5.382346130685338 0
434 19.3979324506723 5.635620341999142 0
435 19.49577206011379 5.997682624229721 0
436 19.2113416291591 6.242143286383177 0
437 19.29776030954138 6.607100129133075 0
438 19.00579153287156 6.84250598896543 0
439 19.08070399939032 7.209997223893428 0
440 18.78148501493789 7.436115964242597 0
441 18.84481733803316 7.80577892186719 0
442 18.53864343881078 8.022387390835599 0
443 18.59033311712575 8.393857258447907 0
444 18.27750645980701 8.600741689628443 0
445 18.31750248186975 8.973651871317308 0
446 17.99833178859724 9.170608094754126 0
447 18.02659468316284 9.544590573192025 0
448 17.70139493687693 9.731424216871225 0
449 17.71789681188081 10.10610991650323 0
450 17.38698894546941 10.28263659817483 0
451 17.39171351555323 10.65765574945187 0
452 17.0554240951295 10.82370125859339 0
453 17.04836669771316 11.19868376288958 0
454 16.70702760033458 11.35408423263005 0
455 16.68819520021642 11.72866002748713 0
456 16.34214328636089 11.87326209632591 0
457 16.31155446884689 12.24706152065638 0
458 15.96113124997466 12.38072248380854 0
459 15.91881620253436 12.75337664271037 0
460 15.56436750405499 12.87596459294282 0
461 15.51036798653179 13.24710572175186 0
462 15.15224360651787 13.35849967955752 0
463 15.08661290991573 13.72776150678853 0
464 14.72516627389288 13.82785153978041 0
465 14.64796916778652 14.19486964859053 0
466 14.28355697994748 14.28355697998904 0
467 14.19486964855992 14.64796916781619 0
468 13.82785153973782 14.72516627393288 0
469 13.72776150675787 15.08661290994366 0
470 13.35849967951603 15.15224360655445 0
471 13.24710572172188 15.51036798655742 0
472 12.87596459290213 15.56436750408865 0
473 12.75337664268103 15.91881620255788 0
474 12.38072248376869 15.96113125000557 0
475 12.24706152062772 16.31155446886843 0
476 11.87326209628714 16.34214328638906 0
477 11.7286600274595 16.68819520023587 0
478 11.35408423259283 16.70702760035988 0
479 11.19868376286222 17.04836669773112 0
480 10.82370125855554 17.05542409515352 0
481 10.65765574942415 17.39171351557022 0
482 10.28263659813724 17.38698894549164 0
483 10.10610991647618 17.71789681189625 0
484 9.731424216835244 17.70139493689671 0
485 9.544590573166305 18.02659468317648 0
486 9.170608094720048 17.99833178861461 0
487 8.973651871293271 18.31750248188155 0
488 8.600741689597006 18.27750645982181 0
489 8.393857258425811 18.59033311713575 0
490 8.022387390806648 18.53864343882331 0
491 7.805778921846557 18.84481733804171 0
492 7.436115964215207 18.78148501494873 0
493 7.209997223874194 19.08070399939761 0
494 6.842505988940488 19.00579153288054 0
495 6.607100129115608 19.29776030954737 0
496 6.242143286360671 19.21134162916641 0
497 5.997682624214601 19.49577206011847 0
498 5.635620341980388 19.39793245067775 0
499 5.382346130672444 19.67454383741938 0
500 5.023535720719057 19.56537985480117 0
501 4.761697911317996 19.83389921528925 0
502 4.406493476200655 19.71351859116482 0
503 4.13635047101176 19.97368092920938 0
504 3.78510255462298 19.84220246472117 0
505 3.506920952178049 20.0937510315042 0
506 3.159976193804957 19.951304480023 0
507 2.874030525760147 20.19399102747895 0
508 2.531731317991904 20.04071696655334 0
509 2.238303778198957 20.27430199235973 0
510 1.900987929027468 20.11035168498283 0
511 1.600368095042419 20.33460466892021 0
512 1.268368494486517 20.16013991425144 0
513 0.9608530417910823 20.37483954569906 0
514 0.6344973333734741 20.19003251938793 0
515 0.3203897425946564 20.39496691573053 0
516 20.79486822780367 0.3266718944106979 0
517 20.58983514353418 0.6470616370060818 0
518 20.7743462034578 0.979693297513851 0
519 20.55935060562257 1.293484702301047 0
520 20.7333224075263 1.631747861614241 0
521 20.50857647082363 1.938631254359441 0
522 20.67183732554287 2.282192087578841 0
523 20.43756284707833 2.581864611423993 0
524 20.58995163586027 2.930384065485282 0
525 20.34637981625986 3.222549979828601 0
526 20.48774614976808 3.575684108108299 0
527 20.23511736501094 3.860055080466208 0
528 20.36532173174163 4.217455382214156 0
529 20.10388529593803 4.493750772769504 0
530 20.22279919990106 4.855064537037191 0
531 19.95281311924956 5.123011675596961 0
532 20.06031920677832 5.487882329321209 0
533 19.7820499249446 5.747216784409586 0
534 19.87804210050998 6.115284244306842 0
535 19.59176423567916 6.365750084126977 0
536 19.67614776659349 6.736651112050617 0
537 19.3821438404557 6.978001157056715 0
538 19.45483545036154 7.351369718472261 0
539 19.15339560929615 7.583365785308976 0
540 19.2143235603508 7.958833410523377 0
541 18.9057452890878 8.181246547081592 0
542 18.95484945275946 8.558442694879682 0
543 18.63943728079741 8.771053406245997 0
544 18.67666919720498 9.149605829569357 0
545 18.35473439827732 9.352204294640664 0
546 18.38005732401436 9.731739407950725 0
547 18.05191760889988 9.924125686502084 0
548 18.06530655329609 10.30426893446363 0
549 17.73128575627702 10.48625316446478 0
550 17.73272750606076 10.86662939158741 0
551 17.39315526533696 11.0380319765745 0
552 17.38264839767537 11.41826579744529 0
553 17.03785983005157 11.57891758376036 0
554 17.01541471395378 11.95863375350545 0
555 16.66575008411863 12.10837619723222 0
556 16.63138887020511 12.4871999818347 0
557 16.27719325493336 12.62588530525887 0
558 16.23094985357343 13.00344285137976 0
559 15.87257280117443 13.13093418883127 0
560 15.81449284902251 13.50685289275524 0
561 15.45228803437988 13.62302442567584 0
562 15.38242884933642 13.99693330102767 0
563 15.01675372487227 14.10167038214036 0
564 14.93518424951921 14.47320042600214 0
565 14.56639969243346 14.5663996924523 0
566 14.47320042599445 14.93518424952666 0
567 14.1016703821209 15.01675372489055 0
568 13.99693330101975 15.38242884934364 0
569 13.62302442565671 15.45228803439674 0
570 13.50685289274747 15.81449284902916 0
571 13.13093418881264 15.87257280118984 0
572 13.00344285137227 16.23094985357944 0
573 12.62588530524066 16.27719325494749 0
574 12.48719998182732 16.63138887021066 0
575 12.10837619721438 16.6657500841316 0
576 11.95863375349852 17.01541471395867 0
577 11.57891758374365 17.03785983006294 0
578 11.4182657974383 17.38264839767997 0
579 11.03803197655687 17.39315526534815 0
580 10.86662939157968 17.73272750606549 0
581 10.48625316444695 17.73128575628756 0
582 10.30426893445606 18.06530655330042 0
583 9.92412568648529 18.05191760890911 0
584 9.731739407943625 18.38005732401812 0
585 9.352204294624638 18.35473439828549 0
586 9.149605829562757 18.67666919720823 0
587 8.77105340623139 18.63943728080429 0
588 8.558442694873776 18.95484945276213 0
589 8.181246547068197 18.90574528909359 0
590 7.958833410517816 19.2143235603531 0
591 7.583365785296175 19.15339560930122 0
592 7.351369718466891 19.45483545036357 0
593 6.978001157044909 19.38214384045996 0
594 6.736651112045669 19.6761477665952 0
595 6.365750084116367 19.59176423568261 0
596 6.115284244302746 19.87804210051125 0
597 5.74721678440098 19.7820499249471 0
598 5.487882329317887 20.06031920677923 0
599 5.123011675589351 19.95281311925151 0
600 4.855064537034279 20.22279919990176 0
601 4.493750772762924 20.1038852959395 0
602 4.217455382211648 20.36532173174215 0
603 3.860055080460485 20.23511736501203 0
604 3.575684108106213 20.48774614976845 0
605 3.222549979823778 20.34637981626062 0
606 2.930384065483581 20.58995163586052 0
607 2.581864611419951 20.43756284707884 0
608 2.2821920875775 20.67183732554302 0
609 1.938631254356507 20.50857647082391 0
610 1.631747861613273 20.73332240752638 0
611 1.293484702299186 20.55935060562269 0
612 0.9796932975132554 20.77434620345782 0
613 0.6470616370051514 20.5898351435342 0
614 0.326671894410495 20.79486822780367 0
615 21.19476953987682 0.3329540462260118 0
616 20.98963776768049 0.6596259406367098 0
617 21.17385286121665 0.9985335532344244 0
618 20.95856129699396 1.318600910111566 0
619 21.1320401461327 1.663127628182235 0
620 20.90680125666505 1.976274579684911 0
621 21.06937265872664 2.326080396953089 0
622 20.83440872760446 2.63199790484702 0
623 20.98591224424261 2.986737605203252 0
624 20.74145515249842 3.285123765841514 0
625 20.88174126803344 3.644447264030086 0
626 20.6280322653031 3.935007606296871 0
627 20.75696253427592 4.298560293406754 0
628 20.49425200071445 4.581008069324039 0
629 20.61169918451559 4.948431162745107 0
630 20.3402463837022 5.222487630458259 0
631 20.44609457614079 5.59341852795708 0
632 20.16616739921691 5.858813226820031 0
633 20.26031214090617 6.232885864383965 0
634 19.97218684219924 6.489356881870776 0
635 20.0545352236456 6.866202094968159 0
636 19.75849614803985 7.113496325147999 0
637 19.82896690133274 7.492742213051091 0
638 19.52530620365442 7.730615606375354 0
639 19.58382978266845 8.11188789917956 0
640 19.27284713936482 8.340105703327584 0
641 19.31936578839317 8.723028131311459 0
642 19.0013681017878 8.941365122863555 0
643 19.03583591254021 9.325559787821405 0
644 18.71113700795739 9.533800494527204 0
645 18.73351996486586 9.918888242709421 0
646 18.40244028092283 10.11682715613294 0
647 18.41271629471137 10.50242795242404 0
648 18.07558256708463 10.68986973075473 0
649 18.07374149656829 11.07560303372293 0
650 17.73088643554442 11.25236269455561 0
651 17.7169300976376 11.637847832001 0
652 17.36869205976856 11.80375093489067 0
653 17.34263422769115 12.18860747952376 0
654 16.98935688187637 12.34349029813853 0
655 16.95122327156333 12.72733844301302 0
656 16.59325525989207 12.87104812670919 0
657 16.5430835046125 13.25350906004915 0
658 16.18077809829387 13.38590378471971 0
659 16.11861771151323 13.76660006375863 0
660 15.75233246224188 13.88754917179416 0
661 15.67824478875712 14.2661050952668 0
662 15.30834117585166 14.37548922450031 0
663 15.22239933125189 14.75153120341374 0
664 14.84924240491944 14.84924240491556 0
665 14.75153120342897 15.22239933123712 0
666 14.37548922450398 15.30834117584822 0
667 14.26610509528163 15.67824478874361 0
668 13.88754917179739 15.75233246223903 0
669 13.76660006377307 16.1186177115009 0
670 13.38590378472315 16.18077809829102 0
671 13.2535090600635 16.54308350460099 0
672 12.87104812671262 16.59325525988941 0
673 12.72733844302692 16.95122327155288 0
674 12.34349029814161 16.98935688187413 0
675 12.18860747953755 17.34263422768145 0
676 11.80375093489446 17.36869205976599 0
677 11.63784783201437 17.7169300976288 0
678 11.25236269455821 17.73088643554278 0
679 11.0756030337352 18.07374149656076 0
680 10.68986973075667 18.07558256708348 0
681 10.50242795243595 18.41271629470457 0
682 10.11682715613534 18.40244028092151 0
683 9.918888242720941 18.73351996485976 0
684 9.533800494529226 18.71113700795637 0
685 9.325559787832242 19.0358359125349 0
686 8.941365122865774 19.00136810178676 0
687 8.723028131321742 19.31936578838851 0
688 8.340105703329744 19.27284713936388 0
689 8.111887899189075 19.58382978266449 0
690 7.730615606377145 19.52530620365372 0
691 7.492742213059588 19.82896690132953 0
692 7.113496325149333 19.75849614803938 0
693 6.866202094975727 20.05453522364301 0
694 6.489356881872063 19.97218684219882 0
695 6.232885864390887 20.26031214090403 0
696 5.85881322682157 20.16616739921646 0
697 5.593418527963328 20.44609457613907 0
698 5.222487630459645 20.34024638370185 0
699 4.948431162750559 20.61169918451427 0
700 4.581008069325193 20.49425200071418 0
701 4.298560293411535 20.75696253427493 0
702 3.935007606297991 20.62803226530289 0
703 3.644447264034375 20.88174126803269 0
704 3.285123765842598 20.74145515249825 0
705 2.986737605207015 20.98591224424207 0
706 2.631997904847998 20.83440872760434 0
707 2.326080396956043 21.0693726587263 0
708 1.976274579685545 20.90680125666499 0
709 1.663127628184127 21.13204014613255 0
710 1.318600910111855 20.95856129699394 0
711 0.9985335532354286 21.1738528612166 0
712 0.6596259406368288 20.98963776768048 0
713 0.3329540462263337 21.19476953987681 0
714 21.59467085194998 0.3392361980413257 0
715 21.3894403918268 0.6721902442673375 0
716 21.57335951897549 1.017373808954998 0
717 21.35777198836534 1.343717117922084 0
718 21.5307578847391 1.69450739475023 0
719 21.30502604250646 2.013917905010381 0
720 21.46690799191041 2.369968706327338 0
721 21.23125460813059 2.682131198270047 0
722 21.38187285262496 3.043091144921221 0
723 21.13653048873698 3.347697551854426 0
724 21.27573638629881 3.713210419951874 0
725 21.02094716559527 4.009960132127534 0
726 21.14860333681021 4.379665204599354 0
727 20.88461870549086 4.668265365878574 0
728 21.00059916913012 5.041797788453023 0
729 20.72767964815485 5.321963585319556 0
730 20.83186994550326 5.69895472659295 0
731 20.5502848734892 5.970409669230475 0
732 20.64258218130234 6.350487484461087 0
733 20.35260944871931 6.612963679614577 0
734 20.43292268069771 6.995753077885699 0
735 20.13484845562401 7.248991493239282 0
736 20.20309835230395 7.634114707629923 0
737 19.89721679801269 7.877865427441733 0
738 19.95333600498608 8.264942387835749 0
739 19.63994898964184 8.498964859573576 0
740 19.68388212402687 8.887613567743234 0
741 19.3632989227782 9.111676839481115 0
742 19.39500262787545 9.501513746073453 0
743 19.06753961763746 9.715396694413744 0
744 19.08698260571738 10.10603707746812 0
745 18.75296295294578 10.3095286257638 0
746 18.76012603612665 10.70058697038444 0
747 18.41987937789224 10.89348629704467 0
748 18.41475548707583 11.28457667585847 0
749 18.06861760575188 11.46669341253673 0
750 18.05121179759983 11.85742986655671 0
751 17.69952428948555 12.02858428602098 0
752 17.66985374142851 12.41858120554207 0
753 17.3129636796341 12.57860439904485 0
754 17.27105767292155 12.96747690419134 0
755 16.90931726485077 13.11621094815952 0
756 16.85521715565158 13.50357526871853 0
757 16.48898339541331 13.64087338060816 0
758 16.42274257400395 14.02634723476201 0
759 16.05237689010388 14.15207391791248 0
760 15.97406072817781 14.53527688950594 0
761 15.59992862683105 14.64930806686026 0
762 15.50961441298458 15.02986198082534 0
763 15.13208511740542 15.13208511737882 0
764 15.0298619808635 15.50961441294758 0
765 14.64930806688706 15.59992862680588 0
766 14.53527688954351 15.97406072814359 0
767 14.15207391793808 16.05237689008132 0
768 14.02634723479867 16.42274257397263 0
769 13.64087338063366 16.48898339539221 0
770 13.50357526875474 16.85521715562255 0
771 13.11621094818458 16.90931726483133 0
772 12.96747690422652 17.27105767289511 0
773 12.57860439906885 17.31296367961666 0
774 12.41858120557657 17.66985374140425 0
775 12.02858428604527 17.69952428946905 0
776 11.85742986659044 18.05121179757765 0
777 11.46669341255954 18.0686176057374 0
778 11.28457667589073 18.41475548705603 0
779 10.89348629706639 18.4198793778794 0
780 10.70058697041583 18.76012603610873 0
781 10.30952862578539 18.75296295293391 0
782 10.10603707749826 19.08698260570139 0
783 9.715396694433814 19.06753961762724 0
784 9.501513746101729 19.39500262786158 0
785 9.111676839500157 19.36329892276924 0
786 8.887613567769709 19.6838821240149 0
787 8.498964859591293 19.63994898963417 0
788 8.264942387860334 19.95333600497589 0
789 7.877865427458114 19.89721679800621 0
790 7.634114707652283 20.20309835229548 0
791 7.248991493253756 20.1348484556188 0
792 6.995753077905788 20.43292268069082 0
793 6.612963679627759 20.35260944871503 0
794 6.350487484479032 20.64258218129681 0
795 5.97040966924216 20.55028487348581 0
796 5.69895472660877 20.83186994549892 0
797 5.321963585329938 20.72767964815218 0
798 5.041797788466841 21.00059916912678 0
799 4.668265365887462 20.88461870548887 0
800 4.379665204611424 21.1486033368077 0
801 4.009960132135497 21.02094716559375 0
802 3.71321041996254 21.27573638629693 0
803 3.347697551861419 21.13653048873587 0
804 3.043091144930449 21.38187285262363 0
805 2.682131198276045 21.23125460812983 0
806 2.369968706334586 21.46690799190959 0
807 2.013917905014583 21.30502604250606 0
808 1.694507394754981 21.53075788473871 0
809 1.343717117924524 21.35777198836519 0
810 1.017373808957602 21.57335951897536 0
811 0.6721902442685062 21.38944039182677 0
812 0.3392361980421724 21.59467085194995 0
813 21.78924301597311 0.6847545478979653 0
814 21.75698267973672 1.368833325732603 0
815 21.70325082834788 2.05156123033585 0
816 21.62810048865672 2.732264491693074 0
817 21.53160582497554 3.410271337867339 0
818 21.41386206588744 4.084912657958197 0
819 21.27498541026727 4.755522662433109 0
820 21.11511291260749 5.421439540180852 0
821 20.93440234776151 6.082006111640919 0
822 20.73303205523937 6.736570477358375 0
823 20.51120076320816 7.384486661330564 0
824 20.26912739237095 8.025115248508113 0
825 20.00705083991886 8.657824015819569 0
826 19.72522974376859 9.281988556098671 0
827 19.42394222731755 9.896992894300283 0
828 19.10348562496873 10.50223009539466 0
829 18.76417618869985 11.09710286333462 0
830 18.40634877595934 11.68102413051784 0
831 18.03035651920255 12.25341763715129 0
832 17.63657047739184 12.81371849995116 0
833 17.22537926980948 13.36137376960984 0
834 16.79718869253275 13.8958429764966 0
835 16.35242131796588 14.4165986640308 0
836 15.89151607781044 14.92312690922021 0
837 15.4149278298914 15.41492782984208 0
838 14.92312690927015 15.89151607776355 0
839 14.41659866407876 16.35242131792361 0
840 13.89584297654417 16.7971886924934 0
841 13.36137376965654 17.22537926977325 0
842 12.81371849999609 17.6365704773592 0
843 12.25341763719608 18.03035651917211 0
844 11.68102413056088 18.40634877593203 0
845 11.09710286337611 18.76417618867531 0
846 10.50223009543543 19.10348562494631 0
847 9.896992894338403 19.42394222729812 0
848 9.281988556134543 19.72522974375171 0
849 8.657824015852842 20.00705083990446 0
850 8.02511524853908 20.2691273923587 0
851 7.384486661358179 20.51120076319822 0
852 6.736570477383456 20.73303205523123 0
853 6.08200611166275 20.93440234775516 0
854 5.421439540200232 21.11511291260252 0
855 4.755522662449732 21.27498541026355 0
856 4.084912657973002 21.41386206588462 0
857 3.41027133788024 21.53160582497349 0
858 2.732264491704091 21.62810048865533 0
859 2.051561230343622 21.70325082834714 0
860 1.368833325737193 21.75698267973644 0
861 0.6847545479001835 21.78924301597304 0
$EndNodes
$Elements
360
1 8 2 3 1 1 5 9
2 8 2 3 1 5 6 10
3 8 2 3 1 6 7 11
4 8 2 3 1 7 8 12
5 8 2 3 1 8 2 13
6 8 2 2 2 2 14 63
7 8 2 2 2 14 15 64
8 8 2 2 2 15 16 65
9 8 2 2 2 16 17 66
10 8 2 2 2 17 18 67
11 8 2 2 2 18 19 68
12 8 2 2 2 19 20 69
13 8 2 2 2 20 21 70
14 8 2 2 2 21 22 71
15 8 2 2 2 22 23 72
16 8 2 2 2 23 24 73
17 8 2 2 2 24 25 74
18 8 2 2 2 25 26 75
19 8 2 2 2 26 27 76
20 8 2 2 2 27 28 77
21 8 2 2 2 28 29 78
22 8 2 2 2 29 30 79
23 8 2 2 2 30 31 80
24 8 2 2 2 31 32 81
25 8 2 2 2 32 33 82
26 8 2 2 2 33 34 83
27 8 2 2 2 34 35 84
28 8 2 2 2 35 36 85
29 8 2 2 2 36 37 86
30 8 2 2 2 37 38 87
31 8 2 2 2 38 39 88
32 8 2 2 2 39 40 89
33 8 2 2 2 40 41 90
34 8 2 2 2 41 42 91
35 8 2 2 2 42 43 92
36 8 2 2 2 43 44 93
37 8 2 2 2 44 45 94
38 8 2 2 2 45 46 95
39 8 2 2 2 46 47 96
40 8 2 2 2 47 48 97
41 8 2 2 2 48 49 98
42 8 2 2 2 49 50 99
43 8 2 2 2 50 51 100
44 8 2 2 2 51 52 101
45 8 2 2 2 52 53 102
46 8 2 2 2 53 54 103
47 8 2 2 2 54 55 104
48 8 2 2 2 55 56 105
49 8 2 2 2 56 57 106
50 8 2 2 2 57 58 107
51 8 2 2 2 58 59 108
52 8 2 2 2 59 60 109
53 8 2 2 2 60 61 110
54 8 2 2 2 61 62 111
55 8 2 2 2 62 3 112
56 8 2 4 3 3 113 117
57 8 2 4 3 113 114 118
58 8 2 4 3 114 115 119
59 8 2 4 3 115 116 120
60 8 2 4 3 116 4 121
61 8 2 1 4 4 122 171
62 8 2 1 4 122 123 172
63 8 2 1 4 123 124 173
64 8 2 1 4 124 125 174
65 8 2 1 4 125 126 175
66 8 2 1 4 126 127 176
67 8 2 1 4 127 128 177
68 8 2 1 4 128 129 178
69 8 2 1 4 129 130 179
70 8 2 1 4 130 131 180
71 8 2 1 4 131 132 181
72 8 2 1 4 132 133 182
73 8 2 1 4 133 134 183
74 8 2 1 4 134 135 184
75 8 2 1 4 135 136 185
76 8 2 1 4 136 137 186
77 8 2 1 4 137 138 187
78 8 2 1 4 138 139 188
79 8 2 1 4 139 140 189
80 8 2 1 4 140 141 190
81 8 2 1 4 141 142 191
82 8 2 1 4 142 143 192
83 8 2 1 4 143 144 193
84 8 2 1 4 144 145 194
85 8 2 1 4 145 146 195
86 8 2 1 4 146 147 196
87 8 2 1 4 147 148 197
88 8 2 1 4 148 149 198
89 8 2 1 4 149 150 199
90 8 2 1 4 150 151 200
91 8 2 1 4 151 152 201
92 8 2 1 4 152 153 202
93 8 2 1 4 153 154 203
94 8 2 1 4 154 155 204
95 8 2 1 4 155 156 205
96 8 2 1 4 156 157 206
97 8 2 1 4 157 158 207
98 8 2 1 4 158 159 208
99 8 2 1 4 159 160 209
100 8 2 1 4 160 161 210
101 8 2 1 4 161 162 211
102 8 2 1 4 162 163 212
103 8 2 1 4 163 164 213
104 8 2 1 4 164 165 214
105 8 2 1 4 165 166 215
106 8 2 1 4 166 167 216
107 8 2 1 4 167 168 217
108 8 2 1 4 168 169 218
109 8 2 1 4 169 170 219
110 8 2 1 4 170 1 220
111 16 2 5 1 1 5 221 170 9 417 418 220
112 16 2 5 1 170 221 222 169 418 419 420 219
113 16 2 5 1 169 222 223 168 420 421 422 218
114 16 2 5 1 168 223 224 167 422 423 424 217
115 16 2 5 1 167 224 225 166 424 425 426 216
116 16 2 5 1 166 225 226 165 426 427 428 215
117 16 2 5 1 165 226 227 164 428 429 430 214
118 16 2 5 1 164 227 228 163 430 431 432 213
119 16 2 5 1 163 228 229 162 432 433 434 212
120 16 2 5 1 162 229 230 161 434 435 436 211
121 16 2 5 1 161 230 231 160 436 437 438 210
122 16 2 5 1 160 231 232 159 438 439 440 209
123 16 2 5 1 159 232 233 158 440 441 442 208
124 16 2 5 1 158 233 234 157 442 443 444 207
125 16 2 5 1 157 234 235 156 444 445 446 206
126 16 2 5 1 156 235 236 155 446 447 448 205
127 16 2 5 1 155 236 237 154 448 449 450 204
128 16 2 5 1 154 237 238 153 450 451 452 203
129 16 2 5 1 153 238 239 152 452 453 454 202
130 16 2 5 1 152 239 240 151 454 455 456 201
131 16 2 5 1 151 240 241 150 456 457 458 200
132 16 2 5 1 150 241 242 149 458 459 460 199
133 16 2 5 1 149 242 243 148 460 461 462 198
134 16 2 5 1 148 243 244 147 462 463 464 197
135 16 2 5 1 147 244 245 146 464 465 466 196
136 16 2 5 1 146 245 246 145 466 467 468 195
137 16 2 5 1 145 246 247 144 468 469 470 194
138 16 2 5 1 144 247 248 143 470 471 472 193
139 16 2 5 1 143 248 249 142 472 473 474 192
140 16 2 5 1 142 249 250 141 474 475 476 191
141 16 2 5 1 141 250 251 140 476 477 478 190
142 16 2 5 1 140 251 252 139 478 479 480 189
143 16 2 5 1 139 252 253 138 480 481 482 188
144 16 2 5 1 138 253 254 137 482 483 484 187
145 16 2 5 1 137 254 255 136 484 485 486 186
146 16 2 5 1 136 255 256 135 486 487 488 185
147 16 2 5 1 135 256 257 134 488 489 490 184
148 16 2 5 1 134 257 258 133 490 491 492 183
149 16 2 5 1 133 258 259 132 492 493 494 182
150 16 2 5 1 132 259 260 131 494 495 496 181
151 16 2 5 1 131 260 261 130 496 497 498 180
152 16 2 5 1 130 261 262 129 498 499 500 179
153 16 2 5 1 129 262 263 128 500 501 502 178
154 16 2 5 1 128 263 264 127 502 503 504 177
155 16 2 5 1 127 264 265 126 504 505 506 176
156 16 2 5 1 126 265 266 125 506 507 508 175
157 16 2 5 1 125 266 267 124 508 509 510 174
158 16 2 5 1 124 267 268 123 510 511 512 173
159 16 2 5 1 123 268 269 122 512 513 514 172
160 16 2 5 1 122 269 116 4 514 515 121 171
161 16 2 5 1 5 6 270 221 10 516 517 417
162 16 2 5 1 221 270 271 222 517 518 519 419
163 16 2 5 1 222 271 272 223 519 520 521 421
164 16 2 5 1 223 272 273 224 521 522 523 423
165 16 2 5 1 224 273 274 225 523 524 525 425
166 16 2 5 1 225 274 275 226 525 526 527 427
167 16 2 5 1 226 275 276 227 527 528 529 429
168 16 2 5 1 227 276 277 228 529 530 531 431
169 16 2 5 1 228 277 278 229 531 532 533 433
170 16 2 5 1 229 278 279 230 533 534 535 435
171 16 2 5 1 230 279 280 231 535 536 537 437
172 16 2 5 1 231 280 281 232 537 538 539 439
173 16 2 5 1 232 281 282 233 539 540 541 441
174 16 2 5 1 233 282 283 234 541 542 543 443
175 16 2 5 1 234 283 284 235 543 544 545 445
176 16 2 5 1 235 284 285 236 545 546 547 447
177 16 2 5 1 236 285 286 237 547 548 549 449
178 16 2 5 1 237 286 287 238 549 550 551 451
179 16 2 5 1 238 287 288 239 551 552 553 453
180 16 2 5 1 239 288 289 240 553 554 555 455
181 16 2 5 1 240 289 290 241 555 556 557 457
182 16 2 5 1 241 290 291 242 557 558 559 459
183 16 2 5 1 242 291 292 243 559 560 561 461
184 16 2 5 1 243 292 293 244 561 562 563 463
185 16 2 5 1 244 293 294 245 563 564 565 465
186 16 2 5 1 245 294 295 246 565 566 567 467
187 16 2 5 1 246 295 296 247 567 568 569 469
188 16 2 5 1 247 296 297 248 569 570 571 471
189 16 2 5 1 248 297 298 249 571 572 573 473
190 16 2 5 1 249 298 299 250 573 574 575 475
191 16 2 5 1 250 299 300 251 575 576 577 477
192 16 2 5 1 251 300 301 252 577 578 579 479
193 16 2 5 1 252 301 302 253 579 580 581 481
194 16 2 5 1 253 302 303 254 581 582 583 483
195 16 2 5 1 254 303 304 255 583 584 585 485
196 16 2 5 1 255 304 305 256 585 586 587 487
197 16 2 5 1 256 305 306 257 587 588 589 489
198 16 2 5 1 257 306 307 258 589 590 591 491
199 16 2 5 1 258 307 308 259 591 592 593 493
200 16 2 5 1 259 308 309 260 593 594 595 495
201 16 2 5 1 260 309 310 261 595 596 597 497
202 16 2 5 1 261 310 311 262 597 598 599 499
203 16 2 5 1 262 311 312 263 599 600 601 501
204 16 2 5 1 263 312 313 264 601 602 603 503
205 16 2 5 1 264 313 314 265 603 604 605 505
206 16 2 5 1 265 314 315 266 605 606 607 507
207 16 2 5 1 266 315 316 267 607 608 609 509
208 16 2 5 1 267 316 317 268 609 610 611 511
209 16 2 5 1 268 317 318 269 611 612 613 513
210 16 2 5 1 269 318 115 116 613 614 120 515
211 16 2 5 1 6 7 319 270 11 615 616 516
212 16 2 5 1 270 319 320 271 616 617 618 518
213 16 2 5 1 271 320 321 272 618 619 620 520
214 16 2 5 1 272 321 322 273 620 621 622 522
215 16 2 5 1 273 322 323 274 622 623 624 524
216 16 2 5 1 274 323 324 275 624 625 626 526
217 16 2 5 1 275 324 325 276 626 627 628 528
218 16 2 5 1 276 325 326 277 628 629 630 530
219 16 2 5 1 277 326 327 278 630 631 632 532
220 16 2 5 1 278 327 328 279 632 633 634 534
221 16 2 5 1 279 328 329 280 634 635 636 536
222 16 2 5 1 280 329 330 281 636 637 638 538
223 16 2 5 1 281 330 331 282 638 639 640 540
224 16 2 5 1 282 331 332 283 640 641 642 542
225 16 2 5 1 283 332 333 284 642 643 644 544
226 16 2 5 1 284 333 334 285 644 645 646 546
227 16 2 5 1 285 334 335 286 646 647 648 548
228 16 2 5 1 286 335 336 287 648 649 650 550
229 16 2 5 1 287 336 337 288 650 651 652 552
230 16 2 5 1 288 337 338 289 652 653 654 554
231 16 2 5 1 289 338 339 290 654 655 656 556
232 16 2 5 1 290 339 340 291 656 657 658 558
233 16 2 5 1 291 340 341 292 658 659 660 560
234 16 2 5 1 292 341 342 293 660 661 662 562
235 16 2 5 1 293 342 343 294 662 663 664 564
236 16 2 5 1 294 343 344 295 664 665 666 566
237 16 2 5 1 295 344 345 296 666 667 668 568
238 16 2 5 1 296 345 346 297 668 669 670 570
239 16 2 5 1 297 346 347 298 670 671 672 572
240 16 2 5 1 298 347 348 299 672 673 674 574
241 16 2 5 1 299 348 349 300 674 675 676 576
242 16 2 5 1 300 349 350 301 676 677 678 578
243 16 2 5 1 301 350 351 302 678 679 680 580
244 16 2 5 1 302 351 352 303 680 681 682 582
245 16 2 5 1 303 352 353 304 682 683 684 584
246 16 2 5 1 304 353 354 305 684 685 686 586
247 16 2 5 1 305 354 355 306 686 687 688 588
248 16 2 5 1 306 355 356 307 688 689 690 590
249 16 2 5 1 307 356 357 308 690 691 692 592
250 16 2 5 1 308 357 358 309 692 693 694 594
251 16 2 5 1 309 358 359 310 694 695 696 596
252 16 2 5 1 310 359 360 311 696 697 698 598
253 16 2 5 1 311 360 361 312 698 699 700 600
254 16 2 5 1 312 361 362 313 700 701 702 602
255 16 2 5 1 313 362 363 314 702 703 704 604
256 16 2 5 1 314 363 364 315 704 705 706 606
257 16 2 5 1 315 364 365 316 706 707 708 608
258 16 2 5 1 316 365 366 317 708 709 710 610
259 16 2 5 1 317 366 367 318 710 711 712 612
260 16 2 5 1 318 367 114 115 712 713 119 614
261 16 2 5 1 7 8 368 319 12 714 715 615
262 16 2 5 1 319 368 369 320 715 716 717 617
263 16 2 5 1 320 369 370 321 717 718 719 619
264 16 2 5 1 321 370 371 322 719 720 721 621
265 16 2 5 1 322 371 372 323 721 722 723 623
266 16 2 5 1 323 372 373 324 723 724 725 625
267 16 2 5 1 324 373 374 325 725 726 727 627
268 16 2 5 1 325 374 375 326 727 728 729 629
269 16 2 5 1 326 375 376 327 729 730 731 631
270 16 2 5 1 327 376 377 328 731 732 733 633
271 16 2 5 1 328 377 378 329 733 734 735 635
272 16 2 5 1 329 378 379 330 735 736 737 637
273 16 2 5 1 330 379 380 331 737 738 739 639
274 16 2 5 1 331 380 381 332 739 740 741 641
275 16 2 5 1 332 381 382 333 741 742 743 643
276 16 2 5 1 333 382 383 334 743 744 745 645
277 16 2 5 1 334 383 384 335 745 746 747 647
278 16 2 5 1 335 384 385 336 747 748 749 649
279 16 2 5 1 336 385 386 337 749 750 751 651
280 16 2 5 1 337 386 387 338 751 752 753 653
281 16 2 5 1 338 387 388 339 753 754 755 655
282 16 2 5 1 339 388 389 340 755 756 757 657
283 16 2 5 1 340 389 390 341 757 758 759 659
284 16 2 5 1 341 390 391 342 759 760 761 661
285 16 2 5 1 342 391 392 343 761 762 763 663
286 16 2 5 1 343 392 393 344 763 764 765 665
287 16 2 5 1 344 393 394 345 765 766 767 667
288 16 2 5 1 345 394 395 346 767 768 769 669
289 16 2 5 1 346 395 396 347 769 770 771 671
290 16 2 5 1 347 396 397 348 771 772 773 673
291 16 2 5 1 348 397 398 349 773 774 775 675
292 16 2 5 1 349 398 399 350 775 776 777 677
293 16 2 5 1 350 399 400 351 777 778 779 679
294 16 2 5 1 351 400 401 352 779 780 781 681
295 16 2 5 1 352 401 402 353 781 782 783 683
296 16 2 5 1 353 402 403 354 783 784 785 685
297 16 2 5 1 354 403 404 355 785 786 787 687
298 16 2 5 1 355 404 405 356 787 788 789 689
299 16 2 5 1 356 405 406 357 789 790 791 691
300 16 2 5 1 357 406 407 358 791 792 793 693
301 16 2 5 1 358 407 408 359 793 794 795 695
302 16 2 5 1 359 408 409 360 795 796 797 697
303 16 2 5 1 360 409 410 361 797 798 799 699
304 16 2 5 1 361 410 411 362 799 800 801 701
305 16 2 5 1 362 411 412 363 801 802 803 703
306 16 2 5 1 363 412 413 364 803 804 805 705
307 16 2 5 1 364 413 414 365 805 806 807 707
308 16 2 5 1 365 414 415 366 807 808 809 709
309 16 2 5 1 366 415 416 367 809 810 811 711
310 16 2 5 1 367 416 113 114 811 812 118 713
311 16 2 5 1 8 2 14 368 13 63 813 714
312 16 2 5 1 368 14 15 369 813 64 814 716
313 16 2 5 1 369 15 16 370 814 65 815 718
314 16 2 5 1 370 16 17 371 815 66 816 720
315 16 2 5 1 371 17 18 372 816 67 817 722
316 16 2 5 1 372 18 19 373 817 68 818 724
317 16 2 5 1 373 19 20 374 818 69 819 726
318 16 2 5 1 374 20 21 375 819 70 820 728
319 16 2 5 1 375 21 22 376 820 71 821 730
320 16 2 5 1 376 22 23 377 821 72 822 732
321 16 2 5 1 377 23 24 378 822 73 823 734
322 16 2 5 1 378 24 25 379 823 74 824 736
323 16 2 5 1 379 25 26 380 824 75 825 738
324 16 2 5 1 380 26 27 381 825 76 826 740
325 16 2 5 1 381 27 28 382 826 77 827 742
326 16 2 5 1 382 28 29 383 827 78 828 744
327 16 2 5 1 383 29 30 384 828 79 829 746
328 16 2 5 1 384 30 31 385 829 80 830 748
329 16 2 5 1 385 31 32 386 830 81 831 750
330 16 2 5 1 386 32 33 387 831 82 832 752
331 16 2 5 1 387 33 34 388 832 83 833 754
332 16 2 5 1 388 34 35 389 833 84 834 756
333 16 2 5 1 389 35 36 390 834 85 835 758
334 16 2 5 1 390 36 37 391 835 86 836 760
335 16 2 5 1 391 37 38 392 836 87 837 762
336 16 2 5 1 392 38 39 393 837 88 838 764
337 16 2 5 1 393 39 40 394 838 89 839 766
338 16 2 5 1 394 40 41 395 839 90 840 768
339 16 2 5 1 395 41 42 396 840 91 841 770
340 16 2 5 1 396 42 43 397 841 92 842 772
341 16 2 5 1 397 43 44 398 842 93 843 774
342 16 2 5 1 398 44 45 399 843 94 844 776
343 16 2 5 1 399 45 46 400 844 95 845 778
344 16 2 5 1 400 46 47 401 845 96 846 780
345 16 2 5 1 401 47 48 402 846 97 847 782
346 16 2 5 1 402 48 49 403 847 98 848 784
347 16 2 5 1 403 49 50 404 848 99 849 786
348 16 2 5 1 404 50 51 405 849 100 850 788
349 16 2 5 1 405 51 52 406 850 101 851 790
350 16 2 5 1 406 52 53 407 851 102 852 792
351 16 2 5 1 407 53 54 408 852 103 853 794
352 16 2 5 1 408 54 55 409 853 104 854 796
353 16 2 5 1 409 55 56 410 854 105 855 798
354 16 2 5 1 410 56 57 411 855 106 856 800
355 16 2 5 1 411 57 58 412 856 107 857 802
356 16 2 5 1 412 58 59 413 857 108 858 804
357 16 2 5 1 413 59 60 414 858 109 859 806
358 16 2 5 1 414 60 61 415 859 110 860 808
359 16 2 5 1 415 61 62 416 860 111 861 810
360 16 2 5 1 416 62 3 113 861 112 117 812
$EndElements
