$MeshFormat
2.2 0 8
$EndMeshFormat
$PhysicalNames
5
1 2 "bottom"
1 3 "top"
1 4 "right"
1 5 "left"
2 1 "channel"
$EndPhysicalNames
$Nodes
433
1 0 0 0
2 2 0 0
3 2 1 0
4 0 1 0
5 0.1249999999997459 0 0
6 0.2499999999995463 0 0
7 0.3749999999991868 0 0
8 0.4999999999988219 0 0
9 0.624999999998457 0 0
10 0.7499999999980922 0 0
11 0.8749999999977273 0 0
12 0.9999999999973842 0 0
13 1.124999999997692 0 0
14 1.249999999998022 0 0
15 1.374999999998352 0 0
16 1.499999999998681 0 0
17 1.624999999999011 0 0
18 1.749999999999341 0 0
19 1.87499999999967 0 0
20 0.06249999999988364 0 0
21 0.1874999999996461 0 0
22 0.3124999999993666 0 0
23 0.4374999999990044 0 0
24 0.5624999999986394 0 0
25 0.6874999999982746 0 0
26 0.8124999999979097 0 0
27 0.9374999999975557 0 0
28 1.062499999997538 0 0
29 1.187499999997857 0 0
30 1.312499999998187 0 0
31 1.437499999998516 0 0
32 1.562499999998846 0 0
33 1.687499999999176 0 0
34 1.812499999999505 0 0
35 1.937499999999835 0 0
36 2 0.1249999999997731 0
37 2 0.2499999999994109 0
38 2 0.3749999999990461 0
39 2 0.4999999999986921 0
40 2 0.6249999999990109 0
41 2 0.7499999999993406 0
42 2 0.8749999999996703 0
43 2 0.06249999999987027 0
44 2 0.187499999999592 0
45 2 0.3124999999992285 0
46 2 0.4374999999988691 0
47 2 0.5624999999988515 0
48 2 0.6874999999991758 0
49 2 0.8124999999995054 0
50 2 0.9374999999998351 0
51 1.87499999999948 1 0
52 1.749999999999002 1 0
53 1.624999999999826 1 0
54 1.500000000000694 1 0
55 1.375000000001561 1 0
56 1.250000000002428 1 0
57 1.125000000003295 1 0
58 1.000000000004119 1 0
59 0.875000000003642 1 0
60 0.7500000000031217 1 0
61 0.6250000000026015 1 0
62 0.500000000002081 1 0
63 0.3750000000015608 1 0
64 0.2500000000010405 1 0
65 0.1250000000005203 1 0
66 1.937499999999728 1 0
67 1.812499999999366 1 0
68 1.68749999999945 1 0
69 1.56250000000026 1 0
70 1.437500000001128 1 0
71 1.312500000002018 1 0
72 1.187500000003035 1 0
73 1.062500000003707 1 0
74 0.9375000000038805 1 0
75 0.8125000000033817 1 0
76 0.6875000000028615 1 0
77 0.5625000000023412 1 0
78 0.4375000000018208 1 0
79 0.3125000000013005 1 0
80 0.1875000000007803 1 0
81 0.06250000000026001 1 0
82 0 0.8749999999995012 0
83 0 0.7500000000003471 0
84 0 0.625000000001214 0
85 0 0.5000000000020595 0
86 0 0.3750000000015609 0
87 0 0.2500000000010405 0
88 0 0.1250000000005203 0
89 0 0.9374999999996755 0
90 0 0.8125000000000504 0
91 0 0.687500000000783 0
92 0 0.5625000000016143 0
93 0 0.4375000000018101 0
94 0 0.3125000000013006 0
95 0 0.1875000000007804 0
96 0 0.06250000000026013 0
97 0.1250000000004234 0.8749999999995116 0
98 0.2500000000008537 0.8749999999995223 0
99 0.375000000001264 0.8749999999995327 0
100 0.5000000000016737 0.8749999999995434 0
101 0.6250000000020834 0.874999999999554 0
102 0.7500000000024931 0.8749999999995645 0
103 0.8750000000029026 0.8749999999995751 0
104 1.000000000003277 0.8749999999995858 0
105 1.125000000002595 0.8749999999995962 0
106 1.250000000001877 0.8749999999996069 0
107 1.37500000000116 0.8749999999996173 0
108 1.500000000000443 0.874999999999628 0
109 1.624999999999724 0.8749999999996386 0
110 1.749999999999045 0.8749999999996491 0
111 1.874999999999504 0.8749999999996597 0
112 0.1250000000003267 0.7500000000002842 0
113 0.250000000000667 0.7500000000002214 0
114 0.3750000000009673 0.7500000000001583 0
115 0.5000000000012662 0.7500000000000955 0
116 0.6250000000015654 0.7500000000000324 0
117 0.7500000000018643 0.7499999999999696 0
118 0.8750000000021633 0.7499999999999067 0
119 1.000000000002435 0.7499999999998439 0
120 1.125000000001894 0.7499999999997811 0
121 1.250000000001326 0.749999999999718 0
122 1.375000000000759 0.7499999999996552 0
123 1.500000000000191 0.7499999999995923 0
124 1.624999999999623 0.7499999999995295 0
125 1.749999999999087 0.7499999999994664 0
126 1.874999999999527 0.7499999999994036 0
127 0.1250000000002298 0.6250000000010764 0
128 0.2500000000004802 0.6250000000009387 0
129 0.3750000000006705 0.6250000000008008 0
130 0.5000000000008589 0.6250000000006631 0
131 0.6250000000010473 0.6250000000005255 0
132 0.7500000000012357 0.625000000000388 0
133 0.875000000001424 0.6250000000002501 0
134 1.000000000001593 0.6250000000001125 0
135 1.125000000001194 0.6249999999999748 0
136 1.250000000000776 0.6249999999998371 0
137 1.375000000000357 0.6249999999996995 0
138 1.499999999999939 0.6249999999995618 0
139 1.624999999999521 0.6249999999994239 0
140 1.749999999999129 0.6249999999992862 0
141 1.874999999999551 0.6249999999991486 0
142 0.1250000000001331 0.500000000001849 0
143 0.2500000000002934 0.5000000000016385 0
144 0.3750000000003738 0.5000000000014282 0
145 0.5000000000004514 0.5000000000012175 0
146 0.6250000000005292 0.5000000000010072 0
147 0.750000000000607 0.5000000000007967 0
148 0.8750000000006846 0.5000000000005862 0
149 1.000000000000752 0.5000000000003757 0
150 1.125000000000494 0.5000000000001654 0
151 1.250000000000225 0.4999999999999549 0
152 1.374999999999956 0.4999999999997444 0
153 1.499999999999688 0.4999999999995339 0
154 1.624999999999419 0.4999999999993234 0
155 1.749999999999172 0.4999999999991132 0
156 1.874999999999575 0.4999999999989027 0
157 0.1250000000000362 0.3750000000014038 0
158 0.2500000000001066 0.3750000000012466 0
159 0.375000000000077 0.3750000000010894 0
160 0.5000000000000441 0.3750000000009321 0
161 0.6250000000000112 0.3750000000007749 0
162 0.7499999999999782 0.3750000000006178 0
163 0.8749999999999453 0.3750000000004607 0
164 0.9999999999999097 0.3750000000003034 0
165 1.124999999999793 0.3750000000001463 0
166 1.249999999999674 0.3749999999999891 0
167 1.374999999999555 0.374999999999832 0
168 1.499999999999436 0.3749999999996748 0
169 1.624999999999317 0.3749999999995176 0
170 1.749999999999214 0.3749999999993604 0
171 1.874999999999599 0.3749999999992033 0
172 0.1249999999999395 0.2500000000009387 0
173 0.2499999999999198 0.2500000000008368 0
174 0.3749999999997803 0.250000000000735 0
175 0.4999999999996367 0.2500000000006332 0
176 0.6249999999994931 0.2500000000005312 0
177 0.7499999999993496 0.2500000000004294 0
178 0.874999999999206 0.2500000000003275 0
179 0.9999999999990679 0.2500000000002257 0
180 1.124999999999093 0.2500000000001239 0
181 1.249999999999123 0.2500000000000221 0
182 1.374999999999154 0.2499999999999202 0
183 1.499999999999184 0.2499999999998184 0
184 1.624999999999215 0.2499999999997166 0
185 1.749999999999256 0.2499999999996146 0
186 1.874999999999623 0.2499999999995128 0
187 0.1249999999998427 0.1250000000004736 0
188 0.249999999999733 0.1250000000004269 0
189 0.3749999999994836 0.1250000000003802 0
190 0.4999999999992293 0.1250000000003335 0
191 0.624999999998975 0.1250000000002868 0
192 0.7499999999987209 0.1250000000002401 0
193 0.8749999999984666 0.1250000000001934 0
194 0.9999999999982261 0.1250000000001467 0
195 1.124999999998392 0.1250000000001 0
196 1.249999999998573 0.1250000000000533 0
197 1.374999999998753 0.1250000000000066 0
198 1.499999999998933 0.1249999999999599 0
199 1.624999999999113 0.1249999999999132 0
200 1.749999999999298 0.1249999999998666 0
201 1.874999999999647 0.1249999999998198 0
202 0.06250000000021172 0.8749999999995064 0
203 0.1250000000004718 0.9374999999997558 0
204 0.1875000000006386 0.8749999999995169 0
205 0.2500000000009471 0.9374999999997611 0
206 0.3125000000010589 0.8749999999995275 0
207 0.3750000000014124 0.9374999999997664 0
208 0.4375000000014688 0.874999999999538 0
209 0.5000000000018774 0.9374999999997717 0
210 0.5625000000018785 0.8749999999995487 0
211 0.6250000000023425 0.9374999999997771 0
212 0.6875000000022883 0.8749999999995592 0
213 0.7500000000028074 0.9374999999997822 0
214 0.8125000000026978 0.8749999999995698 0
215 0.8750000000032723 0.9374999999997875 0
216 0.9375000000030899 0.8749999999995804 0
217 1.000000000003698 0.9374999999997928 0
218 1.062500000002936 0.874999999999591 0
219 1.125000000002945 0.9374999999997982 0
220 1.187500000002236 0.8749999999996015 0
221 1.250000000002153 0.9374999999998035 0
222 1.312500000001518 0.8749999999996121 0
223 1.37500000000136 0.9374999999998086 0
224 1.437500000000801 0.8749999999996226 0
225 1.500000000000568 0.9374999999998139 0
226 1.562500000000083 0.8749999999996333 0
227 1.624999999999775 0.9374999999998193 0
228 1.687499999999384 0.8749999999996438 0
229 1.749999999999023 0.9374999999998246 0
230 1.812499999999274 0.8749999999996544 0
231 1.874999999999492 0.9374999999998299 0
232 1.937499999999752 0.8749999999996649 0
233 0.06250000000016333 0.7500000000003156 0
234 0.125000000000375 0.8124999999998979 0
235 0.1875000000004968 0.7500000000002528 0
236 0.2500000000007603 0.8124999999998719 0
237 0.3125000000008171 0.7500000000001898 0
238 0.3750000000011157 0.8124999999998455 0
239 0.4375000000011168 0.7500000000001269 0
240 0.5000000000014699 0.8124999999998195 0
241 0.5625000000014158 0.7500000000000639 0
242 0.6250000000018244 0.8124999999997933 0
243 0.6875000000017149 0.750000000000001 0
244 0.7500000000021787 0.8124999999997671 0
245 0.8125000000020137 0.7499999999999382 0
246 0.8750000000025329 0.8124999999997409 0
247 0.9375000000022993 0.7499999999998753 0
248 1.000000000002856 0.8124999999997149 0
249 1.062500000002165 0.7499999999998125 0
250 1.125000000002245 0.8124999999996887 0
251 1.18750000000161 0.7499999999997495 0
252 1.250000000001602 0.8124999999996625 0
253 1.312500000001043 0.7499999999996866 0
254 1.375000000000959 0.8124999999996363 0
255 1.437500000000475 0.7499999999996237 0
256 1.500000000000317 0.8124999999996101 0
257 1.562499999999907 0.7499999999995609 0
258 1.624999999999674 0.8124999999995841 0
259 1.687499999999355 0.749999999999498 0
260 1.749999999999066 0.8124999999995577 0
261 1.812499999999307 0.749999999999435 0
262 1.874999999999515 0.8124999999995317 0
263 1.937499999999764 0.7499999999993721 0
264 0.06250000000011492 0.6250000000011452 0
265 0.1250000000002782 0.6875000000006803 0
266 0.187500000000355 0.6250000000010075 0
267 0.2500000000005735 0.68750000000058 0
268 0.3125000000005753 0.6250000000008697 0
269 0.3750000000008189 0.6875000000004796 0
270 0.4375000000007647 0.625000000000732 0
271 0.5000000000010625 0.6875000000003793 0
272 0.562500000000953 0.6250000000005943 0
273 0.6250000000013063 0.6875000000002789 0
274 0.6875000000011415 0.6250000000004567 0
275 0.75000000000155 0.6875000000001787 0
276 0.8125000000013298 0.6250000000003191 0
277 0.8750000000017937 0.6875000000000784 0
278 0.9375000000015087 0.6250000000001813 0
279 1.000000000002014 0.6874999999999782 0
280 1.062500000001394 0.6250000000000436 0
281 1.125000000001544 0.6874999999998779 0
282 1.187500000000985 0.624999999999906 0
283 1.250000000001051 0.6874999999997775 0
284 1.312500000000567 0.6249999999997683 0
285 1.375000000000558 0.6874999999996774 0
286 1.437500000000148 0.6249999999996306 0
287 1.500000000000065 0.687499999999577 0
288 1.56249999999973 0.6249999999994929 0
289 1.624999999999571 0.6874999999994766 0
290 1.687499999999325 0.6249999999993551 0
291 1.749999999999108 0.6874999999993763 0
292 1.81249999999934 0.6249999999992174 0
293 1.874999999999539 0.6874999999992761 0
294 1.937499999999776 0.6249999999990797 0
295 0.06250000000006653 0.5000000000019542 0
296 0.1250000000001815 0.5625000000014626 0
297 0.1875000000002132 0.5000000000017437 0
298 0.2500000000003868 0.5625000000012885 0
299 0.3125000000003336 0.5000000000015333 0
300 0.3750000000005221 0.5625000000011144 0
301 0.4375000000004126 0.5000000000013228 0
302 0.5000000000006551 0.5625000000009404 0
303 0.5625000000004903 0.5000000000011123 0
304 0.6250000000007883 0.5625000000007663 0
305 0.6875000000005681 0.5000000000009019 0
306 0.7500000000009213 0.5625000000005924 0
307 0.8125000000006457 0.5000000000006914 0
308 0.8750000000010543 0.5625000000004181 0
309 0.9375000000007181 0.5000000000004809 0
310 1.000000000001172 0.562500000000244 0
311 1.062500000000623 0.5000000000002706 0
312 1.125000000000844 0.5625000000000702 0
313 1.187500000000359 0.5000000000000602 0
314 1.2500000000005 0.5624999999998961 0
315 1.312500000000091 0.4999999999998497 0
316 1.375000000000157 0.562499999999722 0
317 1.437499999999822 0.4999999999996392 0
318 1.499999999999813 0.5624999999995479 0
319 1.562499999999553 0.4999999999994287 0
320 1.62499999999947 0.5624999999993736 0
321 1.687499999999295 0.4999999999992183 0
322 1.74999999999915 0.5624999999991998 0
323 1.812499999999373 0.4999999999990079 0
324 1.874999999999563 0.5624999999990257 0
325 1.937499999999787 0.4999999999987974 0
326 0.06250000000001812 0.3750000000014823 0
327 0.1250000000000847 0.4375000000016264 0
328 0.1875000000000714 0.3750000000013252 0
329 0.2500000000002 0.4375000000014425 0
330 0.3125000000000918 0.375000000001168 0
331 0.3750000000002254 0.4375000000012588 0
332 0.4375000000000606 0.3750000000010107 0
333 0.5000000000002478 0.4375000000010748 0
334 0.5625000000000276 0.3750000000008535 0
335 0.6250000000002702 0.4375000000008911 0
336 0.6874999999999947 0.3750000000006964 0
337 0.7500000000002927 0.4375000000007073 0
338 0.8124999999999618 0.3750000000005393 0
339 0.8750000000003149 0.4375000000005235 0
340 0.9374999999999275 0.3750000000003821 0
341 1.000000000000331 0.4375000000003396 0
342 1.062499999999851 0.3750000000002249 0
343 1.125000000000143 0.4375000000001559 0
344 1.187499999999734 0.3750000000000677 0
345 1.249999999999949 0.437499999999972 0
346 1.312499999999615 0.3749999999999106 0
347 1.374999999999756 0.4374999999997882 0
348 1.437499999999496 0.3749999999997534 0
349 1.499999999999562 0.4374999999996044 0
350 1.562499999999376 0.3749999999995962 0
351 1.624999999999368 0.4374999999994205 0
352 1.687499999999265 0.374999999999439 0
353 1.749999999999193 0.4374999999992368 0
354 1.812499999999406 0.3749999999992819 0
355 1.874999999999587 0.437499999999053 0
356 1.937499999999799 0.3749999999991247 0
357 0.06249999999996973 0.2500000000009896 0
358 0.1249999999999878 0.3125000000011712 0
359 0.1874999999999296 0.2500000000008877 0
360 0.2500000000000132 0.3125000000010417 0
361 0.3124999999998501 0.2500000000007859 0
362 0.3749999999999287 0.3125000000009122 0
363 0.4374999999997085 0.2500000000006841 0
364 0.4999999999998403 0.3125000000007827 0
365 0.5624999999995649 0.2500000000005822 0
366 0.6249999999997522 0.3125000000006531 0
367 0.6874999999994214 0.2500000000004803 0
368 0.7499999999996639 0.3125000000005236 0
369 0.8124999999992778 0.2500000000003785 0
370 0.8749999999995757 0.3125000000003941 0
371 0.9374999999991369 0.2500000000002766 0
372 0.9999999999994889 0.3125000000002646 0
373 1.06249999999908 0.2500000000001748 0
374 1.124999999999443 0.3125000000001351 0
375 1.187499999999108 0.250000000000073 0
376 1.249999999999399 0.3125000000000056 0
377 1.312499999999139 0.2499999999999711 0
378 1.374999999999355 0.3124999999998761 0
379 1.437499999999169 0.2499999999998693 0
380 1.49999999999931 0.3124999999997466 0
381 1.5624999999992 0.2499999999997675 0
382 1.624999999999266 0.3124999999996171 0
383 1.687499999999235 0.2499999999996656 0
384 1.749999999999235 0.3124999999994875 0
385 1.812499999999439 0.2499999999995637 0
386 1.874999999999611 0.3124999999993581 0
387 1.937499999999811 0.2499999999994619 0
388 0.06249999999992133 0.1250000000004969 0
389 0.1249999999998911 0.1875000000007061 0
390 0.1874999999997878 0.1250000000004502 0
391 0.2499999999998264 0.1875000000006318 0
392 0.3124999999996083 0.1250000000004035 0
393 0.374999999999632 0.1875000000005576 0
394 0.4374999999993564 0.1250000000003568 0
395 0.499999999999433 0.1875000000004833 0
396 0.5624999999991022 0.1250000000003101 0
397 0.6249999999992341 0.187500000000409 0
398 0.687499999998848 0.1250000000002634 0
399 0.7499999999990352 0.1875000000003348 0
400 0.8124999999985938 0.1250000000002167 0
401 0.8749999999988363 0.1875000000002605 0
402 0.9374999999983463 0.12500000000017 0
403 0.999999999998647 0.1875000000001862 0
404 1.062499999998309 0.1250000000001233 0
405 1.124999999998743 0.187500000000112 0
406 1.187499999998483 0.1250000000000767 0
407 1.249999999998848 0.1875000000000377 0
408 1.312499999998663 0.12500000000003 0
409 1.374999999998953 0.1874999999999634 0
410 1.437499999998843 0.1249999999999833 0
411 1.499999999999059 0.1874999999998891 0
412 1.562499999999023 0.1249999999999366 0
413 1.624999999999164 0.1874999999998149 0
414 1.687499999999206 0.1249999999998899 0
415 1.749999999999277 0.1874999999997406 0
416 1.812499999999472 0.1249999999998432 0
417 1.874999999999635 0.1874999999996663 0
418 1.937499999999823 0.1249999999997965 0
419 0.1249999999997942 0.06250000000023678 0
420 0.2499999999996397 0.06250000000021344 0
421 0.3749999999993352 0.0625000000001901 0
422 0.4999999999990256 0.06250000000016673 0
423 0.624999999998716 0.06250000000014339 0
424 0.7499999999984066 0.06250000000012004 0
425 0.8749999999980969 0.0625000000000967 0
426 0.9999999999978051 0.06250000000007333 0
427 1.124999999998042 0.06250000000005002 0
428 1.249999999998297 0.06250000000002667 0
429 1.374999999998552 0.0625000000000033 0
430 1.499999999998807 0.06249999999997996 0
431 1.624999999999062 0.06249999999995662 0
432 1.749999999999319 0.06249999999993328 0
433 1.874999999999658 0.06249999999990991 0
$EndNodes
$Elements
176
1 8 2 2 1 1 5 20
2 8 2 2 1 5 6 21
3 8 2 2 1 6 7 22
4 8 2 2 1 7 8 23
5 8 2 2 1 8 9 24
6 8 2 2 1 9 10 25
7 8 2 2 1 10 11 26
8 8 2 2 1 11 12 27
9 8 2 2 1 12 13 28
10 8 2 2 1 13 14 29
11 8 2 2 1 14 15 30
12 8 2 2 1 15 16 31
13 8 2 2 1 16 17 32
14 8 2 2 1 17 18 33
15 8 2 2 1 18 19 34
16 8 2 2 1 19 2 35
17 8 2 4 2 2 36 43
18 8 2 4 2 36 37 44
19 8 2 4 2 37 38 45
20 8 2 4 2 38 39 46
21 8 2 4 2 39 40 47
22 8 2 4 2 40 41 48
23 8 2 4 2 41 42 49
24 8 2 4 2 42 3 50
25 8 2 3 3 3 51 66
26 8 2 3 3 51 52 67
27 8 2 3 3 52 53 68
28 8 2 3 3 53 54 69
29 8 2 3 3 54 55 70
30 8 2 3 3 55 56 71
31 8 2 3 3 56 57 72
32 8 2 3 3 57 58 73
33 8 2 3 3 58 59 74
34 8 2 3 3 59 60 75
35 8 2 3 3 60 61 76
36 8 2 3 3 61 62 77
37 8 2 3 3 62 63 78
38 8 2 3 3 63 64 79
39 8 2 3 3 64 65 80
40 8 2 3 3 65 4 81
41 8 2 5 4 4 82 89
42 8 2 5 4 82 83 90
43 8 2 5 4 83 84 91
44 8 2 5 4 84 85 92
45 8 2 5 4 85 86 93
46 8 2 5 4 86 87 94
47 8 2 5 4 87 88 95
48 8 2 5 4 88 1 96
49 16 2 1 6 4 82 97 65 89 202 203 81
50 16 2 1 6 65 97 98 64 203 204 205 80
51 16 2 1 6 64 98 99 63 205 206 207 79
52 16 2 1 6 63 99 100 62 207 208 209 78
53 16 2 1 6 62 100 101 61 209 210 211 77
54 16 2 1 6 61 101 102 60 211 212 213 76
55 16 2 1 6 60 102 103 59 213 214 215 75
56 16 2 1 6 59 103 104 58 215 216 217 74
57 16 2 1 6 58 104 105 57 217 218 219 73
58 16 2 1 6 57 105 106 56 219 220 221 72
59 16 2 1 6 56 106 107 55 221 222 223 71
60 16 2 1 6 55 107 108 54 223 224 225 70
61 16 2 1 6 54 108 109 53 225 226 227 69
62 16 2 1 6 53 109 110 52 227 228 229 68
63 16 2 1 6 52 110 111 51 229 230 231 67
64 16 2 1 6 51 111 42 3 231 232 50 66
65 16 2 1 6 82 83 112 97 90 233 234 202
66 16 2 1 6 97 112 113 98 234 235 236 204
67 16 2 1 6 98 113 114 99 236 237 238 206
68 16 2 1 6 99 114 115 100 238 239 240 208
69 16 2 1 6 100 115 116 101 240 241 242 210
70 16 2 1 6 101 116 117 102 242 243 244 212
71 16 2 1 6 102 117 118 103 244 245 246 214
72 16 2 1 6 103 118 119 104 246 247 248 216
73 16 2 1 6 104 119 120 105 248 249 250 218
74 16 2 1 6 105 120 121 106 250 251 252 220
75 16 2 1 6 106 121 122 107 252 253 254 222
76 16 2 1 6 107 122 123 108 254 255 256 224
77 16 2 1 6 108 123 124 109 256 257 258 226
78 16 2 1 6 109 124 125 110 258 259 260 228
79 16 2 1 6 110 125 126 111 260 261 262 230
80 16 2 1 6 111 126 41 42 262 263 49 232
81 16 2 1 6 83 84 127 112 91 264 265 233
82 16 2 1 6 112 127 128 113 265 266 267 235
83 16 2 1 6 113 128 129 114 267 268 269 237
84 16 2 1 6 114 129 130 115 269 270 271 239
85 16 2 1 6 115 130 131 116 271 272 273 241
86 16 2 1 6 116 131 132 117 273 274 275 243
87 16 2 1 6 117 132 133 118 275 276 277 245
88 16 2 1 6 118 133 134 119 277 278 279 247
89 16 2 1 6 119 134 135 120 279 280 281 249
90 16 2 1 6 120 135 136 121 281 282 283 251
91 16 2 1 6 121 136 137 122 283 284 285 253
92 16 2 1 6 122 137 138 123 285 286 287 255
93 16 2 1 6 123 138 139 124 287 288 289 257
94 16 2 1 6 124 139 140 125 289 290 291 259
95 16 2 1 6 125 140 141 126 291 292 293 261
96 16 2 1 6 126 141 40 41 293 294 48 263
97 16 2 1 6 84 85 142 127 92 295 296 264
98 16 2 1 6 127 142 143 128 296 297 298 266
99 16 2 1 6 128 143 144 129 298 299 300 268
100 16 2 1 6 129 144 145 130 300 301 302 270
101 16 2 1 6 130 145 146 131 302 303 304 272
102 16 2 1 6 131 146 147 132 304 305 306 274
103 16 2 1 6 132 147 148 133 306 307 308 276
104 16 2 1 6 133 148 149 134 308 309 310 278
105 16 2 1 6 134 149 150 135 310 311 312 280
106 16 2 1 6 135 150 151 136 312 313 314 282
107 16 2 1 6 136 151 152 137 314 315 316 284
108 16 2 1 6 137 152 153 138 316 317 318 286
109 16 2 1 6 138 153 154 139 318 319 320 288
110 16 2 1 6 139 154 155 140 320 321 322 290
111 16 2 1 6 140 155 156 141 322 323 324 292
112 16 2 1 6 141 156 39 40 324 325 47 294
113 16 2 1 6 85 86 157 142 93 326 327 295
114 16 2 1 6 142 157 158 143 327 328 329 297
115 16 2 1 6 143 158 159 144 329 330 331 299
116 16 2 1 6 144 159 160 145 331 332 333 301
117 16 2 1 6 145 160 161 146 333 334 335 303
118 16 2 1 6 146 161 162 147 335 336 337 305
119 16 2 1 6 147 162 163 148 337 338 339 307
120 16 2 1 6 148 163 164 149 339 340 341 309
121 16 2 1 6 149 164 165 150 341 342 343 311
122 16 2 1 6 150 165 166 151 343 344 345 313
123 16 2 1 6 151 166 167 152 345 346 347 315
124 16 2 1 6 152 167 168 153 347 348 349 317
125 16 2 1 6 153 168 169 154 349 350 351 319
126 16 2 1 6 154 169 170 155 351 352 353 321
127 16 2 1 6 155 170 171 156 353 354 355 323
128 16 2 1 6 156 171 38 39 355 356 46 325
129 16 2 1 6 86 87 172 157 94 357 358 326
130 16 2 1 6 157 172 173 158 358 359 360 328
131 16 2 1 6 158 173 174 159 360 361 362 330
132 16 2 1 6 159 174 175 160 362 363 364 332
133 16 2 1 6 160 175 176 161 364 365 366 334
134 16 2 1 6 161 176 177 162 366 367 368 336
135 16 2 1 6 162 177 178 163 368 369 370 338
136 16 2 1 6 163 178 179 164 370 371 372 340
137 16 2 1 6 164 179 180 165 372 373 374 342
138 16 2 1 6 165 180 181 166 374 375 376 344
139 16 2 1 6 166 181 182 167 376 377 378 346
140 16 2 1 6 167 182 183 168 378 379 380 348
141 16 2 1 6 168 183 184 169 380 381 382 350
142 16 2 1 6 169 184 185 170 382 383 384 352
143 16 2 1 6 170 185 186 171 384 385 386 354
144 16 2 1 6 171 186 37 38 386 387 45 356
145 16 2 1 6 87 88 187 172 95 388 389 357
146 16 2 1 6 172 187 188 173 389 390 391 359
147 16 2 1 6 173 188 189 174 391 392 393 361
148 16 2 1 6 174 189 190 175 393 394 395 363
149 16 2 1 6 175 190 191 176 395 396 397 365
150 16 2 1 6 176 191 192 177 397 398 399 367
151 16 2 1 6 177 192 193 178 399 400 401 369
152 16 2 1 6 178 193 194 179 401 402 403 371
153 16 2 1 6 179 194 195 180 403 404 405 373
154 16 2 1 6 180 195 196 181 405 406 407 375
155 16 2 1 6 181 196 197 182 407 408 409 377
156 16 2 1 6 182 197 198 183 409 410 411 379
157 16 2 1 6 183 198 199 184 411 412 413 381
158 16 2 1 6 184 199 200 185 413 414 415 383
159 16 2 1 6 185 200 201 186 415 416 417 385
160 16 2 1 6 186 201 36 37 417 418 44 387
161 16 2 1 6 88 1 5 187 96 20 419 388
162 16 2 1 6 187 5 6 188 419 21 420 390
163 16 2 1 6 188 6 7 189 420 22 421 392
164 16 2 1 6 189 7 8 190 421 23 422 394
165 16 2 1 6 190 8 9 191 422 24 423 396
166 16 2 1 6 191 9 10 192 423 25 424 398
167 16 2 1 6 192 10 11 193 424 26 425 400
168 16 2 1 6 193 11 12 194 425 27 426 402
169 16 2 1 6 194 12 13 195 426 28 427 404
170 16 2 1 6 195 13 14 196 427 29 428 406
171 16 2 1 6 196 14 15 197 428 30 429 408
172 16 2 1 6 197 15 16 198 429 31 430 410
173 16 2 1 6 198 16 17 199 430 32 431 412
174 16 2 1 6 199 17 18 200 431 33 432 414
175 16 2 1 6 200 18 19 201 432 34 433 416
176 16 2 1 6 201 19 2 36 433 35 43 418
$EndElements
