$MeshFormat
2.2 0 8
$EndMeshFormat
$PhysicalNames
9
2 1 "hot"
2 2 "cold"
2 3 "Usource"
2 4 "Udrain"
2 8 "Ugate"
3 5 "vWire1"
3 6 "vChannel"
3 7 "vWire2"
3 9 "vGate"
$EndPhysicalNames
$Nodes
36
1 0 0 0
2 0 1 0
3 1 1 0
4 1 0 0
5 0 1 5
6 1 1 5
7 1 0 5
8 0 0 5
9 0 1 8
10 1 1 8
11 1 0 8
12 0 0 8
13 0 1 13
14 1 1 13
15 1 0 13
16 0 0 13
17 2 2 6.5
18 3 2 6.5
19 2 3 6.5
20 3 3 6.5
21 3 3 7
22 3 2 7
23 2 2 7
24 2 3 7
25 3 3 7.5
26 3 2 7.5
27 2 2 7.5
28 2 3 7.5
29 0 1 2.5
30 1 1 2.5
31 1 0 2.5
32 0 0 2.5
33 0 1 10.5
34 1 1 10.5
35 1 0 10.5
36 0 0 10.5
$EndNodes
$Elements
12
1 3 2 2 6 4 1 2 3
2 3 2 3 28 7 8 5 6
3 3 2 4 50 11 12 9 10
4 3 2 1 72 15 16 13 14
5 3 2 8 100 23 24 21 22
6 5 2 5 1 4 3 2 1 31 30 29 32
7 5 2 5 1 31 30 29 32 7 6 5 8
8 5 2 6 2 7 6 5 8 11 10 9 12
9 5 2 7 3 11 10 9 12 35 34 33 36
10 5 2 7 3 35 34 33 36 15 14 13 16
11 5 2 9 4 17 18 20 19 23 22 21 24
12 5 2 9 5 23 22 21 24 27 26 25 28
$EndElements
