$MeshFormat
2.2 0 8
$EndMeshFormat
$PhysicalNames
9
0 1 "NO"
0 2 "NW"
0 3 "SO"
0 4 "SW"
1 5 "N"
1 6 "O"
1 7 "S"
1 8 "W"
2 9 "surf"
$EndPhysicalNames
$Nodes
52
1 -0.5 -0.1666666666666667 0
2 0.5 -0.1666666666666667 0
3 0.5 0.1666666666666667 0
4 -0.5 0.1666666666666667 0
5 -0.4166666666668977 -0.1666666666666667 0
6 -0.3333333333337955 -0.1666666666666667 0
7 -0.2500000000006933 -0.1666666666666667 0
8 -0.1666666666675909 -0.1666666666666667 0
9 -0.08333333333448845 -0.1666666666666667 0
10 -1.375122238300719e-12 -0.1666666666666667 0
11 0.08333333333217841 -0.1666666666666667 0
12 0.1666666666657427 -0.1666666666666667 0
13 0.249999999999307 -0.1666666666666667 0
14 0.3333333333328713 -0.1666666666666667 0
15 0.4166666666664356 -0.1666666666666667 0
16 0.5 -0.05555555555586389 0
17 0.5 0.05555555555524619 0
18 0.4166666666668977 0.1666666666666667 0
19 0.3333333333337955 0.1666666666666667 0
20 0.2500000000006933 0.1666666666666667 0
21 0.1666666666675909 0.1666666666666667 0
22 0.08333333333448845 0.1666666666666667 0
23 1.375122238300719e-12 0.1666666666666667 0
24 -0.08333333333217841 0.1666666666666667 0
25 -0.1666666666657427 0.1666666666666667 0
26 -0.249999999999307 0.1666666666666667 0
27 -0.3333333333328713 0.1666666666666667 0
28 -0.4166666666664356 0.1666666666666667 0
29 -0.5 0.05555555555586389 0
30 -0.5 -0.05555555555524619 0
31 -0.4166666666667437 -0.05555555555529766 0
32 -0.4166666666665897 0.05555555555581239 0
33 -0.3333333333334875 -0.05555555555534915 0
34 -0.3333333333331794 0.05555555555576095 0
35 -0.2500000000002313 -0.05555555555540061 0
36 -0.2499999999997691 0.05555555555570944 0
37 -0.1666666666669748 -0.05555555555545209 0
38 -0.1666666666663588 0.055555555555658 0
39 -0.0833333333337184 -0.05555555555550355 0
40 -0.08333333333294843 0.0555555555556065 0
41 -4.583463238605012e-13 -0.05555555555555503 0
42 4.584018350066363e-13 0.05555555555555504 0
43 0.08333333333294843 -0.05555555555560654 0
44 0.08333333333371845 0.05555555555550357 0
45 0.1666666666663588 -0.055555555555658 0
46 0.1666666666669748 0.05555555555545209 0
47 0.2499999999997692 -0.05555555555570948 0
48 0.2500000000002313 0.05555555555540062 0
49 0.3333333333331794 -0.05555555555576096 0
50 0.3333333333334875 0.05555555555534914 0
51 0.4166666666665897 -0.05555555555581242 0
52 0.4166666666667438 0.05555555555529765 0
$EndNodes
$Elements
70
1 15 2 4 1 1
2 15 2 3 2 2
3 15 2 1 3 3
4 15 2 2 4 4
5 1 2 7 1 1 5
6 1 2 7 1 5 6
7 1 2 7 1 6 7
8 1 2 7 1 7 8
9 1 2 7 1 8 9
10 1 2 7 1 9 10
11 1 2 7 1 10 11
12 1 2 7 1 11 12
13 1 2 7 1 12 13
14 1 2 7 1 13 14
15 1 2 7 1 14 15
16 1 2 7 1 15 2
17 1 2 6 2 2 16
18 1 2 6 2 16 17
19 1 2 6 2 17 3
20 1 2 5 3 3 18
21 1 2 5 3 18 19
22 1 2 5 3 19 20
23 1 2 5 3 20 21
24 1 2 5 3 21 22
25 1 2 5 3 22 23
26 1 2 5 3 23 24
27 1 2 5 3 24 25
28 1 2 5 3 25 26
29 1 2 5 3 26 27
30 1 2 5 3 27 28
31 1 2 5 3 28 4
32 1 2 8 4 4 29
33 1 2 8 4 29 30
34 1 2 8 4 30 1
35 3 2 9 1 1 5 31 30
36 3 2 9 1 30 31 32 29
37 3 2 9 1 29 32 28 4
38 3 2 9 1 5 6 33 31
39 3 2 9 1 31 33 34 32
40 3 2 9 1 32 34 27 28
41 3 2 9 1 6 7 35 33
42 3 2 9 1 33 35 36 34
43 3 2 9 1 34 36 26 27
44 3 2 9 1 7 8 37 35
45 3 2 9 1 35 37 38 36
46 3 2 9 1 36 38 25 26
47 3 2 9 1 8 9 39 37
48 3 2 9 1 37 39 40 38
49 3 2 9 1 38 40 24 25
50 3 2 9 1 9 10 41 39
51 3 2 9 1 39 41 42 40
52 3 2 9 1 40 42 23 24
53 3 2 9 1 10 11 43 41
54 3 2 9 1 41 43 44 42
55 3 2 9 1 42 44 22 23
56 3 2 9 1 11 12 45 43
57 3 2 9 1 43 45 46 44
58 3 2 9 1 44 46 21 22
59 3 2 9 1 12 13 47 45
60 3 2 9 1 45 47 48 46
61 3 2 9 1 46 48 20 21
62 3 2 9 1 13 14 49 47
63 3 2 9 1 47 49 50 48
64 3 2 9 1 48 50 19 20
65 3 2 9 1 14 15 51 49
66 3 2 9 1 49 51 52 50
67 3 2 9 1 50 52 18 19
68 3 2 9 1 15 2 16 51
69 3 2 9 1 51 16 17 52
70 3 2 9 1 52 17 3 18
$EndElements
