$MeshFormat
2.2 0 8
$EndMeshFormat
$PhysicalNames
5
1 2 "wall"
1 3 "cyl"
1 4 "inflow"
1 5 "outflow"
2 1 "channel"
$EndPhysicalNames
$Nodes
844
1 0.0008 0 0
2 0 0.0008 0
3 -0.0008 0 0
4 0 -0.0008 0
5 0.001066666666666667 0 0
6 0 0.001066666666666667 0
7 -0.001066666666666667 0 0
8 0 -0.001066666666666667 0
9 -0.01 -0.01 0
10 0 -0.01 0
11 0.01 -0.01 0
12 0.03 -0.01 0
13 -0.01 0.01 0
14 0.01 0.01 0
15 0 0.01 0
16 0.03 0.01 0
17 -0.01 0 0
18 0.01 0 0
19 0.03 0 0
20 -0.0003061467458913162 0.0007391036260093424 0
21 -0.000565685424948157 0.0005656854249503191 0
22 -0.0007391036260087691 0.0003061467458927004 0
23 -0.0001560722576126314 0.0007846282243226384 0
24 -0.0004444561864145322 0.0006651756898428044 0
25 -0.0006651756898413649 0.0004444561864166866 0
26 -0.0007846282243225084 0.0001560722576132851 0
27 -0.0007391036260093424 -0.0003061467458913162 0
28 -0.0005656854249503191 -0.000565685424948157 0
29 -0.0003061467458927004 -0.0007391036260087691 0
30 -0.0007846282243226384 -0.0001560722576126314 0
31 -0.0006651756898428044 -0.0004444561864145322 0
32 -0.0004444561864166866 -0.0006651756898413649 0
33 -0.0001560722576132851 -0.0007846282243225084 0
34 0.0003061467458913162 -0.0007391036260093424 0
35 0.000565685424948157 -0.0005656854249503191 0
36 0.0007391036260087691 -0.0003061467458927004 0
37 0.0001560722576126314 -0.0007846282243226384 0
38 0.0004444561864145322 -0.0006651756898428044 0
39 0.0006651756898413649 -0.0004444561864166866 0
40 0.0007846282243225084 -0.0001560722576132851 0
41 0.0007391036260093424 0.0003061467458913162 0
42 0.0005656854249503191 0.000565685424948157 0
43 0.0003061467458927004 0.0007391036260087691 0
44 0.0007846282243226384 0.0001560722576126314 0
45 0.0006651756898428044 0.0004444561864145322 0
46 0.0004444561864166866 0.0006651756898413649 0
47 0.0001560722576132851 0.0007846282243225084 0
48 -0.0004081956611883189 0.0009854715013458326 0
49 -0.0007542472332641452 0.0007542472332671563 0
50 -0.0009854715013449993 0.0004081956611903304 0
51 -0.000208096343483354 0.001046170965763548 0
52 -0.0005926082485529265 0.0008869009197902608 0
53 -0.0008869009197885499 0.0005926082485554871 0
54 -0.001046170965763319 0.0002080963434845072 0
55 -0.0009854715013458326 -0.0004081956611883189 0
56 -0.0007542472332671563 -0.0007542472332641452 0
57 -0.0004081956611903304 -0.0009854715013449993 0
58 -0.001046170965763548 -0.000208096343483354 0
59 -0.0008869009197902608 -0.0005926082485529265 0
60 -0.0005926082485554871 -0.0008869009197885499 0
61 -0.0002080963434845072 -0.001046170965763319 0
62 0.0004081956611883189 -0.0009854715013458326 0
63 0.0007542472332641452 -0.0007542472332671563 0
64 0.0009854715013449993 -0.0004081956611903304 0
65 0.000208096343483354 -0.001046170965763548 0
66 0.0005926082485529265 -0.0008869009197902608 0
67 0.0008869009197885499 -0.0005926082485554871 0
68 0.001046170965763319 -0.0002080963434845072 0
69 0.0009854715013458326 0.0004081956611883189 0
70 0.0007542472332671563 0.0007542472332641452 0
71 0.0004081956611903304 0.0009854715013449993 0
72 0.001046170965763548 0.000208096343483354 0
73 0.0008869009197902608 0.0005926082485529265 0
74 0.0005926082485554871 0.0008869009197885499 0
75 0.0002080963434845072 0.001046170965763319 0
76 0 0.004044444444436373 0
77 0 0.007022222222213503 0
78 0 0.002555555555551562 0
79 0 0.005533333333322015 0
80 0 0.008511111111107302 0
81 -0.004044444444436373 0 0
82 -0.007022222222213503 0 0
83 -0.002555555555551562 0 0
84 -0.005533333333322015 0 0
85 -0.008511111111107302 0 0
86 0 -0.004044444444436373 0
87 0 -0.007022222222213503 0
88 0 -0.002555555555551562 0
89 0 -0.005533333333322015 0
90 0 -0.008511111111107302 0
91 0.004044444444436373 0 0
92 0.007022222222213503 0 0
93 0.002555555555551562 0 0
94 0.005533333333322015 0 0
95 0.008511111111107302 0 0
96 0 0.0009333333333329946 0
97 0 0.0008666666666665479 0
98 0 0.001000000000000069 0
99 -0.0009333333333329946 0 0
100 -0.0008666666666665479 0 0
101 -0.001000000000000069 0 0
102 0 -0.0009333333333329946 0
103 0 -0.0008666666666665479 0
104 0 -0.001000000000000069 0
105 0.0009333333333329946 0 0
106 0.0008666666666665479 0 0
107 0.001000000000000069 0 0
108 0.01222222222221864 0 0
109 0.01444444444443288 0 0
110 0.01666666666664971 0 0
111 0.01888888888886381 0 0
112 0.0211111111110861 0 0
113 0.02333333333331412 0 0
114 0.02555555555554274 0 0
115 0.02777777777777408 0 0
116 0.01111111111110911 0 0
117 0.01333333333332576 0 0
118 0.01555555555554144 0 0
119 0.01777777777775745 0 0
120 0.01999999999997302 0 0
121 0.02222222222219975 0 0
122 0.02444444444442843 0 0
123 0.02666666666665984 0 0
124 0.02888888888888976 0 0
125 -0.006666666666675817 -0.01 0
126 -0.003333333333342486 -0.01 0
127 -0.00833333333333643 -0.01 0
128 -0.005000000000012766 -0.01 0
129 -0.001666666666671654 -0.01 0
130 0.003333333333324954 -0.01 0
131 0.006666666666657632 -0.01 0
132 0.001666666666662969 -0.01 0
133 0.004999999999986903 -0.01 0
134 0.008333333333329092 -0.01 0
135 0.01222222222221864 -0.01 0
136 0.01444444444443288 -0.01 0
137 0.01666666666664971 -0.01 0
138 0.01888888888886381 -0.01 0
139 0.0211111111110861 -0.01 0
140 0.02333333333331412 -0.01 0
141 0.02555555555554274 -0.01 0
142 0.02777777777777408 -0.01 0
143 0.01111111111110911 -0.01 0
144 0.01333333333332576 -0.01 0
145 0.01555555555554144 -0.01 0
146 0.01777777777775745 -0.01 0
147 0.01999999999997302 -0.01 0
148 0.02222222222219975 -0.01 0
149 0.02444444444442843 -0.01 0
150 0.02666666666665984 -0.01 0
151 0.02888888888888976 -0.01 0
152 0.03 -0.007500000000005337 0
153 0.03 -0.005000000000013221 0
154 0.03 -0.002500000000006697 0
155 0.03 -0.008750000000003861 0
156 0.03 -0.006250000000010541 0
157 0.03 -0.003750000000010882 0
158 0.03 -0.001250000000001616 0
159 0.03 0.00249999999999408 0
160 0.03 0.004999999999986965 0
161 0.03 0.007499999999993399 0
162 0.03 0.001249999999998057 0
163 0.03 0.003749999999990187 0
164 0.03 0.006249999999989623 0
165 0.03 0.008749999999996375 0
166 0.02777777777778327 0.01 0
167 0.02555555555556586 0.01 0
168 0.02333333333335049 0.01 0
169 0.02111111111113587 0.01 0
170 0.01888888888891417 0.01 0
171 0.01666666666668563 0.01 0
172 0.01444444444445709 0.01 0
173 0.01222222222222584 0.01 0
174 0.02888888888889216 0.01 0
175 0.02666666666667339 0.01 0
176 0.02444444444446013 0.01 0
177 0.02222222222224365 0.01 0
178 0.02000000000002818 0.01 0
179 0.0177777777778001 0.01 0
180 0.01555555555557019 0.01 0
181 0.01333333333334103 0.01 0
182 0.01111111111111274 0.01 0
183 0.006666666666675817 0.01 0
184 0.003333333333342486 0.01 0
185 0.00833333333333643 0.01 0
186 0.005000000000012766 0.01 0
187 0.001666666666671654 0.01 0
188 -0.003333333333324954 0.01 0
189 -0.006666666666657632 0.01 0
190 -0.001666666666662969 0.01 0
191 -0.004999999999986903 0.01 0
192 -0.008333333333329092 0.01 0
193 -0.01 0.006666666666675817 0
194 -0.01 0.003333333333342486 0
195 -0.01 0.00833333333333643 0
196 -0.01 0.005000000000012766 0
197 -0.01 0.001666666666671654 0
198 -0.01 -0.003333333333324954 0
199 -0.01 -0.006666666666657632 0
200 -0.01 -0.001666666666662969 0
201 -0.01 -0.004999999999986903 0
202 -0.01 -0.008333333333329092 0
203 0.01 -0.00249999999999408 0
204 0.01 -0.004999999999986965 0
205 0.01 -0.007499999999993399 0
206 0.01 -0.001249999999998057 0
207 0.01 -0.003749999999990187 0
208 0.01 -0.006249999999989623 0
209 0.01 -0.008749999999996375 0
210 0.01 0.00249999999999408 0
211 0.01 0.004999999999986965 0
212 0.01 0.007499999999993399 0
213 0.01 0.001249999999998057 0
214 0.01 0.003749999999990187 0
215 0.01 0.006249999999989623 0
216 0.01 0.008749999999996375 0
217 0.0008622875636772746 0.0003571712035396879 0
218 0.0006599663291084982 0.0006599663291059115 0
219 0.0003571712035413858 0.0008622875636765713 0
220 0.0008006955948433084 0.0003316589747155021 0
221 0.0008978104485051346 0.000178585601769844 0
222 0.0008412193364139117 0.0001673289296912377 0
223 0.0009238795325115536 0.0003826834323640034 0
224 0.000971990707134461 0.000193340972626599 0
225 0.0006128258770294086 0.0006128258770270342 0
226 0.0007611269463928864 0.0005085687663227997 0
227 0.0007131513181178453 0.000476512476368666 0
228 0.0007071067811878272 0.0007071067811850283 0
229 0.0008240139330915737 0.0005505885074378631 0
230 0.0003316589747170431 0.0008006955948426703 0
231 0.0005085687663249419 0.0007611269463912414 0
232 0.0004765124763708143 0.0007131513181163032 0
233 0.0003826834323658581 0.0009238795325107853 0
234 0.0005505885074402145 0.0008240139330898956 0
235 0.0001785856017706929 0.000897810448504783 0
236 0.000167328929691989 0.000841219336413671 0
237 0.0001933409726276 0.0009719907071341703 0
238 -0.0003571712035396879 0.0008622875636772746 0
239 -0.0006599663291059115 0.0006599663291084982 0
240 -0.0008622875636765713 0.0003571712035413858 0
241 -0.0003316589747155021 0.0008006955948433084 0
242 -0.000178585601769844 0.0008978104485051346 0
243 -0.0001673289296912377 0.0008412193364139117 0
244 -0.0003826834323640034 0.0009238795325115536 0
245 -0.000193340972626599 0.000971990707134461 0
246 -0.0006128258770270342 0.0006128258770294086 0
247 -0.0005085687663227997 0.0007611269463928864 0
248 -0.000476512476368666 0.0007131513181178453 0
249 -0.0007071067811850283 0.0007071067811878272 0
250 -0.0005505885074378631 0.0008240139330915737 0
251 -0.0008006955948426703 0.0003316589747170431 0
252 -0.0007611269463912414 0.0005085687663249419 0
253 -0.0007131513181163032 0.0004765124763708143 0
254 -0.0009238795325107853 0.0003826834323658581 0
255 -0.0008240139330898956 0.0005505885074402145 0
256 -0.000897810448504783 0.0001785856017706929 0
257 -0.000841219336413671 0.000167328929691989 0
258 -0.0009719907071341703 0.0001933409726276 0
259 -0.0008622875636772746 -0.0003571712035396879 0
260 -0.0006599663291084982 -0.0006599663291059115 0
261 -0.0003571712035413858 -0.0008622875636765713 0
262 -0.0008006955948433084 -0.0003316589747155021 0
263 -0.0008978104485051346 -0.000178585601769844 0
264 -0.0008412193364139117 -0.0001673289296912377 0
265 -0.0009238795325115536 -0.0003826834323640034 0
266 -0.000971990707134461 -0.000193340972626599 0
267 -0.0006128258770294086 -0.0006128258770270342 0
268 -0.0007611269463928864 -0.0005085687663227997 0
269 -0.0007131513181178453 -0.000476512476368666 0
270 -0.0007071067811878272 -0.0007071067811850283 0
271 -0.0008240139330915737 -0.0005505885074378631 0
272 -0.0003316589747170431 -0.0008006955948426703 0
273 -0.0005085687663249419 -0.0007611269463912414 0
274 -0.0004765124763708143 -0.0007131513181163032 0
275 -0.0003826834323658581 -0.0009238795325107853 0
276 -0.0005505885074402145 -0.0008240139330898956 0
277 -0.0001785856017706929 -0.000897810448504783 0
278 -0.000167328929691989 -0.000841219336413671 0
279 -0.0001933409726276 -0.0009719907071341703 0
280 0.0003571712035396879 -0.0008622875636772746 0
281 0.0006599663291059115 -0.0006599663291084982 0
282 0.0008622875636765713 -0.0003571712035413858 0
283 0.0003316589747155021 -0.0008006955948433084 0
284 0.000178585601769844 -0.0008978104485051346 0
285 0.0001673289296912377 -0.0008412193364139117 0
286 0.0003826834323640034 -0.0009238795325115536 0
287 0.000193340972626599 -0.000971990707134461 0
288 0.0006128258770270342 -0.0006128258770294086 0
289 0.0005085687663227997 -0.0007611269463928864 0
290 0.000476512476368666 -0.0007131513181178453 0
291 0.0007071067811850283 -0.0007071067811878272 0
292 0.0005505885074378631 -0.0008240139330915737 0
293 0.0008006955948426703 -0.0003316589747170431 0
294 0.0007611269463912414 -0.0005085687663249419 0
295 0.0007131513181163032 -0.0004765124763708143 0
296 0.0009238795325107853 -0.0003826834323658581 0
297 0.0008240139330898956 -0.0005505885074402145 0
298 0.000897810448504783 -0.0001785856017706929 0
299 0.000841219336413671 -0.000167328929691989 0
300 0.0009719907071341703 -0.0001933409726276 0
301 0.005075699191473721 0.004623156712662712 0
302 0.001909502167981652 0.002890863268322246 0
303 0.002283603345041857 0.001346872961409518 0
304 0.0006027405251768091 0.002190715193509397 0
305 0.001179531578800901 0.001546685194795245 0
306 0.001957633896012799 0.0004906763618584301 0
307 0.003880986258353881 0.002415400228845907 0
308 0.007571923718634515 0.006205559426377724 0
309 0.002441227488701059 0.005410572621932466 0
310 0.007636501370834544 0.003603181125845963 0
311 0.005074766375463722 0.007571598870320117 0
312 0.001431678215083918 0.0009249091452301313 0
313 0.00222549773941647 0.007947640727211765 0
314 0.007914056918646146 0.008279618758798894 0
315 0.008154916725583782 0.001621576139861713 0
316 0.006006063820825 0.002003751687853732 0
317 0.003274314549136759 0.003840000390982904 0
318 0.001512150281339733 0.000245338180929215 0
319 0.001471552698679316 0.0004494360115233745 0
320 0.000966889406034029 0.001150466214029695 0
321 0.0007938636199956159 0.001266078348070122 0
322 0.0005054680931835698 0.001588093347427198 0
323 0.0008911360519888553 0.001868700194152321 0
324 0.008785961859317258 0.005602779713182344 0
325 0.007604212544734529 0.004904370276111843 0
326 0.008818250685417271 0.004301590562916464 0
327 0.008818250685417271 0.003051590562920022 0
328 0.002120618620527328 0.000918774661633974 0
329 0.003001039170224586 0.000245338180929215 0
330 0.003164023894739115 0.0006734364807047589 0
331 0.00375846334008739 0.00501686466729759 0
332 0.005075232783468721 0.006097377791491415 0
333 0.00375799693208239 0.006491085746126292 0
334 0.003082294801697869 0.001881136595127713 0
335 0.002895244213167766 0.002653131748584077 0
336 0.002096552756511754 0.002118868114865882 0
337 0.001208574858214875 0.0006665524032092251 0
338 0.001092962724175537 0.0008395781892471383 0
339 0.008785961859317258 0.006852779713185562 0
340 0.006356100281154133 0.004113168919254338 0
341 0.00554088150614936 0.003313454200258222 0
342 0.006821282595829772 0.002803466406849848 0
343 0.003650132057440096 0.007759619798765941 0
344 0.002333362614058764 0.006679106674572116 0
345 0.006323811455054118 0.005414358069520219 0
346 0.00494352503958944 0.00220957595834982 0
347 0.004478342724913801 0.00351927847075431 0
348 0.002175364828341355 0.004150717945127357 0
349 0.001220613744350529 0.004727508533184419 0
350 0.0009547510839908259 0.003467653856379309 0
351 0.007290361792660982 0.009139809379399448 0
352 0.008957028459323073 0.009139809379399448 0
353 0.003962715351395127 0.001207700114422954 0
354 0.006323345047049119 0.006888579148348921 0
355 0.001112748869708235 0.008973820363605882 0
356 0.002779415536379478 0.008973820363605882 0
357 0.001112748869708235 0.007484931474712634 0
358 0.001220613744350529 0.006216397422072984 0
359 0.001694656055548359 0.0007077927535442806 0
360 0.002591908358559205 0.003365431829652575 0
361 0.002857771018918909 0.004625286506457685 0
362 0.00130560489694241 0.001235797170012688 0
363 0.0003013702625884045 0.003117579818972885 0
364 0.00125612134657923 0.002540789230915821 0
365 0.00907745836279189 0.0008107880699308565 0
366 0.007588569473898642 0.0008107880699308565 0
367 0.004204049854403104 0.008785799435160058 0
368 0.00587071652106977 0.008785799435160058 0
369 0.007742990318640331 0.007242589092588309 0
370 0.006494411647054934 0.007925608814559506 0
371 0.007895709048209163 0.002612378632853838 0
372 0.00907745836279189 0.002060788069927896 0
373 0.008957028459323073 0.007889809379396148 0
374 0.006514143021519252 0.001001875843926866 0
375 0.005025254132630686 0.001001875843926866 0
376 0.00417500687030524 0.004231578551822808 0
377 0.00357765040374532 0.003127700309914406 0
378 0.001544516873391277 0.002218774231558745 0
379 0.001731567461921379 0.001446779078102381 0
380 0.007080490273204391 0.001812663913857723 0
381 0.001857640780062887 0.001135891053319825 0
382 0.0003013702625884045 0.001628690930088032 0
383 -0.002774127891271847 0.001645903706977597 0
384 -0.005149351177328006 0.00531444030338385 0
385 -0.0007707265039275042 0.002718783099030347 0
386 -0.001243654842287729 0.001744485580120158 0
387 -0.002359653571594888 0.0005843466322032168 0
388 -0.002396775635644664 0.005825390414072568 0
389 -0.0054592092739518 0.0024719131088346 0
390 -0.001512137999010858 0.000913244924013404 0
391 -0.0004408456028073647 0.002000378406200361 0
392 -0.007360900995358577 0.007377775434047593 0
393 -0.004366982788784582 0.007737215173781931 0
394 -0.007757341628175564 0.004382641041603219 0
395 -0.002448547060129654 0.003480624344226332 0
396 -0.008218626621070717 0.001927230377651744 0
397 -0.001880923667514751 0.00818781431111505 0
398 -0.005304280225639902 0.003893176706109225 0
399 -0.00379894911872883 0.004397532323805091 0
400 -0.003953878167040728 0.002976268726530466 0
401 -0.00242266134788716 0.00465300737914945 0
402 -0.003773063406486335 0.005569915358728209 0
403 -0.0009989510377759372 0.001249366406693658 0
404 -0.000825925251738024 0.001364978540732995 0
405 -0.004116668582611824 0.002058908407906099 0
406 -0.002611337475700751 0.002563264025601965 0
407 -0.0004245206319978418 0.001492924953773097 0
408 -0.0002204228014036824 0.001533522536433514 0
409 -0.007013783831008104 0.008688887717023797 0
410 -0.005516824727721107 0.008868607586890965 0
411 -0.005863941892071579 0.007557495303914762 0
412 -0.008680450497679289 0.008688887717023797 0
413 -0.008680450497679289 0.007022221050361705 0
414 -0.001935895785302873 0.0007487957781083104 0
415 -0.001289402332838762 0.000456622462006702 0
416 -0.001713160119130777 0.0002921733161016084 0
417 -0.006240715748082651 0.0012359565544173 0
418 -0.004751826859194086 0.0012359565544173 0
419 -0.001198387817822332 0.00493491742925447 0
420 -0.001198387817822332 0.006423806318143035 0
421 -0.007559121311767071 0.005880208237825406 0
422 -0.008878670814087782 0.005524653854139518 0
423 -0.003850158061054768 0.008868607586890965 0
424 -0.008878670814087782 0.003857987187472853 0
425 -0.001248804750177929 0.0006607202926018673 0
426 -0.001133192616137502 0.0008337460786402802 0
427 -0.00340928616785411 0.0008229518534887985 0
428 -0.002138849651579708 0.007006602362593809 0
429 -0.0009404618337573755 0.007605018266664276 0
430 -0.009109313310535359 0.002630281855497115 0
431 -0.009109313310535359 0.0009636151888258722 0
432 -0.0009404618337573755 0.009093907155557525 0
433 -0.002607128500419852 0.009093907155557525 0
434 -0.004758166983056294 0.006525827738582891 0
435 -0.006255126086343292 0.006346107868715721 0
436 -0.00762042442164211 0.0009636151888258722 0
437 -0.006838917947511259 0.002199571743243172 0
438 -0.006453346402751785 0.004848540672493535 0
439 -0.003381879212214623 0.00678130279392725 0
440 -0.003123953228149666 0.00796251474244849 0
441 -0.006608275451063681 0.00342727707521891 0
442 -0.00798798412462314 0.003154935709627482 0
443 -0.001224273530064827 0.003762534394331352 0
444 -0.001007190673107617 0.002231634339575253 0
445 -0.001846100951208692 0.002612554962173245 0
446 -0.001609636782028579 0.00309970372162834 0
447 -0.0008422502225475469 0.00187243199316026 0
448 -0.001377896420649294 0.001328865252066781 0
449 -0.002008891366779788 0.001695194643548878 0
450 -0.002566890731433367 0.001115125169590407 0
451 -0.00320204900801563 0.0002921733161016084 0
452 -0.0003853632519637521 0.00338161377173336 0
453 -0.002143132945141353 0.001279574315495501 0
454 -0.0006057860533674345 0.002359580752615354 0
455 -0.0002204228014036824 0.003022411425318366 0
456 -0.001643526158381746 -0.002757746010368034 0
457 -0.005335365517190291 -0.00511524437359731 0
458 -0.002726646210672532 -0.0008259385917305154 0
459 -0.001754486730718067 -0.001184033669905923 0
460 -0.0006001958604649403 -0.00235700794944745 0
461 -0.005859526512137056 -0.00239621225059143 0
462 -0.002452715935235418 -0.005434412953720917 0
463 -0.000910311685617892 -0.001515901274676373 0
464 -0.001979948220482905 -0.0003979101267025891 0
465 -0.007370898085949608 -0.007352384866515018 0
466 -0.007709354627451432 -0.004391386678549536 0
467 -0.00436943316876668 -0.007740903286380728 0
468 -0.003469886757294809 -0.002357024542727594 0
469 -0.001909619880536359 -0.008196708832010936 0
470 -0.00818781431111505 -0.001880923667514751 0
471 -0.002961301346265114 -0.003895718748224255 0
472 -0.00440262613724255 -0.003736134458162452 0
473 -0.003894040726212855 -0.005274828663659113 0
474 -0.005597446014663674 -0.00375572831209437 0
475 -0.004664706634715933 -0.002376618396659512 0
476 -0.00136997911603195 -0.000796114665547121 0
477 -0.001254366981992612 -0.0009691404515850341 0
478 -0.002048121046808582 -0.004096079482044475 0
479 -0.002556706457838277 -0.002557385276547814 0
480 -0.001523307443574786 -0.0001989550633512946 0
481 -0.001482709860914369 -0.000403052893945454 0
482 -0.008685449042974804 -0.007009525766586325 0
483 -0.007540126356700519 -0.005871885772532276 0
484 -0.008854677313725716 -0.005529026672603583 0
485 -0.008685449042974804 -0.008676192433257509 0
486 -0.007018782376312712 -0.008676192433257509 0
487 -0.000455155842808946 -0.00129128397067152 0
488 -0.0007552537730414161 -0.001936454612061912 0
489 -0.0003000979302324701 -0.001711837308057059 0
490 -0.001226357967617709 -0.004739428699078644 0
491 -0.001226357967617709 -0.00622831758796721 0
492 -0.006440874367175279 -0.001198106125295715 0
493 -0.004951985478286715 -0.001198106125295715 0
494 -0.005518049917721249 -0.008870451643190363 0
495 -0.005870165627358144 -0.007546644076447872 0
496 -0.008854677313725716 -0.003862360005937245 0
497 -0.003851383251054583 -0.008870451643190363 0
498 -0.0008322794594425242 -0.001135074253970259 0
499 -0.0006592536734041112 -0.001250686388010686 0
500 -0.0008217630791908729 -0.003401095227402203 0
501 -0.007605018266664276 -0.0009404618337573754 0
502 -0.007023670411626054 -0.00213856795905309 0
503 -0.0009548099402681795 -0.009098354416005469 0
504 -0.002621476606939423 -0.009098354416005469 0
505 -0.009093907155557525 -0.002607128500419852 0
506 -0.009093907155557525 -0.0009404618337573754 0
507 -0.006522360072320862 -0.004753315526073423 0
508 -0.006353131801569949 -0.006233814620056163 0
509 -0.002181167907885889 -0.006815560892865927 0
510 -0.0009548099402681795 -0.007609465527112219 0
511 -0.004852399342978486 -0.006428073829989019 0
512 -0.006784440569794244 -0.003393799464570483 0
513 -0.007948584469283241 -0.003136155173032143 0
514 -0.003411074552001049 -0.006587658120050822 0
515 -0.003139526524651519 -0.007968806059195832 0
516 -0.003757165600865591 -0.001178512271363797 0
517 -0.002240566470695299 -0.001004986130818219 0
518 -0.003098266483983671 -0.001591481567229055 0
519 -0.002612186744006438 -0.001770529106316759 0
520 -0.001867217475600486 -0.000790971898304256 0
521 -0.00133239920816798 -0.001349967472291148 0
522 -0.001699006444549906 -0.001970889840136978 0
523 -0.0003000979302324701 -0.003200726196941912 0
524 -0.001121861009423343 -0.002557376979907742 0
525 -0.003385545327554453 -0.0004129692958652577 0
526 -0.001276918921999819 -0.002136823642522203 0
527 -0.002353297215577719 -0.0006119243592165522 0
528 -0.003012196332459639 -0.0001989550633512946 0
529 0.005007162764996467 -0.004933881422290672 0
530 0.002896724308870715 -0.001876226290952048 0
531 0.001374857113709616 -0.002280887734710247 0
532 0.002190715193509397 -0.0006027405251768091 0
533 0.00156630206340799 -0.001179434792442071 0
534 0.0004908687537487765 -0.001922206429569752 0
535 0.002297603001806001 -0.004295504010890777 0
536 0.007627134156504333 -0.006214733651108775 0
537 0.005444698272143011 -0.002245748870175357 0
538 0.002736817904837771 -0.007163222618298912 0
539 0.007723938177067453 -0.003765383805499476 0
540 0.0009391493360199613 -0.001381420442356163 0
541 0.005454635720066455 -0.00764628220341649 0
542 0.007972067556305754 -0.008290799766511195 0
543 0.008059972617698561 -0.001719644029363609 0
544 0.003883665227376924 -0.003269968622608558 0
545 0.0002454343768743882 -0.001494436548118209 0
546 0.0004495322074685476 -0.001453838965457792 0
547 0.001368408952418885 -0.008581611309149455 0
548 0.001368408952418885 -0.007092722420256208 0
549 0.001160274648336067 -0.0009668410128546138 0
550 0.001275886782376494 -0.0007938152268162008 0
551 0.003035075619081362 -0.008581611309149455 0
552 0.001588093347427198 -0.0005054680931835698 0
553 0.001878508628458693 -0.0008910876588094402 0
554 0.002517210453321886 -0.005729363314594844 0
555 0.001148801500903001 -0.00565886311655214 0
556 0.001148801500903001 -0.004169974227663575 0
557 0.0009328629337291962 -0.002101547082139999 0
558 0.0002454343768743882 -0.002983325437003062 0
559 0.0006874285568548079 -0.003162666089573309 0
560 0.002135790711290165 -0.002078557012831148 0
561 0.001836230057757808 -0.003288195872800512 0
562 0.002597163655338358 -0.003085865150921413 0
563 0.0006736724986041401 -0.001183445971850998 0
564 0.0008466982846420533 -0.001067833837811659 0
565 0.008813567078252166 -0.00560736682554787 0
566 0.008813567078252166 -0.006857366825551087 0
567 0.007675536166785893 -0.004990058728304126 0
568 0.00636555047103196 -0.004349632613895075 0
569 0.006317148460750399 -0.005574307536699723 0
570 0.005225930518569739 -0.003589815146233015 0
571 0.006584318224605232 -0.003005566337837416 0
572 0.008861969088533726 -0.00438269190274322 0
573 0.004170711290506863 -0.002060987580563703 0
574 0.004744571358289692 -0.001122874435087679 0
575 0.003470584376653544 -0.0009381131454760241 0
576 0.003652382883401234 -0.004614692716590724 0
577 0.003871990334917119 -0.006048552020294792 0
578 0.006060651193362044 -0.008823141101708246 0
579 0.004393984526695704 -0.008823141101708246 0
580 0.008986033778152876 -0.009145399883255597 0
581 0.007319367111481693 -0.009145399883255597 0
582 0.008861969088533726 -0.003132691902746778 0
583 0.006233460247178257 -0.001122874435087679 0
584 0.004095726812452113 -0.007404752410857701 0
585 0.000715009044884369 -0.001651813435962957 0
586 0.007541097419956032 -0.0008598220146818047 0
587 0.00902998630884928 -0.0008598220146818047 0
588 0.00339019476812382 -0.002573097456780303 0
589 0.004664181749759968 -0.002757858746391958 0
590 0.007891955397383008 -0.002742513917431542 0
591 0.006752335444920786 -0.001982696449769483 0
592 0.001252725699713975 -0.001280427617399117 0
593 0.003117579818972885 -0.0003013702625884045 0
594 0.002543719751190056 -0.001239483408064429 0
595 0.005230899242531461 -0.006290081812853581 0
596 0.006540884938285394 -0.006930507927262632 0
597 0.00902998630884928 -0.002109822014678845 0
598 0.008986033778152876 -0.007895399883252297 0
599 0.007799600856405044 -0.007252766708809985 0
600 0.006713351638186104 -0.007968540984963843 0
601 0.004445413996186696 -0.004101925022449615 0
602 0.003090634114591463 -0.003782736316749667 0
603 0.002231513186139352 -0.00152783054169706 0
604 0.001470579588558803 -0.001730161263576159 0
605 0.001157003224864789 -0.001831154088533205 0
606 0.001628690930088032 -0.0003013702625884045 0
607 0.01222222222221864 -0.007499999999994726 0
608 0.01222222222221864 -0.004999999999989882 0
609 0.01222222222221864 -0.002499999999995482 0
610 0.01444444444443288 -0.007499999999996052 0
611 0.01444444444443288 -0.0049999999999928 0
612 0.01444444444443288 -0.002499999999996884 0
613 0.01666666666664971 -0.007499999999997379 0
614 0.01666666666664971 -0.004999999999995716 0
615 0.01666666666664971 -0.002499999999998286 0
616 0.01888888888886381 -0.007499999999998707 0
617 0.01888888888886381 -0.004999999999998633 0
618 0.01888888888886381 -0.002499999999999688 0
619 0.02111111111108611 -0.007500000000000032 0
620 0.02111111111108611 -0.005000000000001551 0
621 0.02111111111108611 -0.00250000000000109 0
622 0.02333333333331411 -0.007500000000001357 0
623 0.02333333333331412 -0.005000000000004469 0
624 0.02333333333331411 -0.002500000000002492 0
625 0.02555555555554275 -0.007500000000002685 0
626 0.02555555555554274 -0.005000000000007386 0
627 0.02555555555554274 -0.002500000000003893 0
628 0.02777777777777408 -0.007500000000004011 0
629 0.02777777777777408 -0.005000000000010303 0
630 0.02777777777777408 -0.002500000000005294 0
631 0.01222222222221864 -0.008749999999997364 0
632 0.01111111111110932 -0.007499999999994063 0
633 0.01111111111110921 -0.00874999999999687 0
634 0.01222222222221864 -0.006249999999992304 0
635 0.01111111111110932 -0.004999999999988423 0
636 0.01111111111110932 -0.006249999999990963 0
637 0.01222222222221864 -0.003749999999992682 0
638 0.01111111111110932 -0.002499999999994781 0
639 0.01111111111110932 -0.003749999999991435 0
640 0.01222222222221864 -0.001249999999997741 0
641 0.01111111111110921 -0.001249999999997899 0
642 0.01444444444443288 -0.008749999999998027 0
643 0.01333333333332576 -0.007499999999995389 0
644 0.01333333333332576 -0.008749999999997695 0
645 0.01444444444443288 -0.006249999999994427 0
646 0.01333333333332576 -0.004999999999991341 0
647 0.01333333333332576 -0.006249999999993365 0
648 0.01444444444443288 -0.003749999999994842 0
649 0.01333333333332576 -0.002499999999996183 0
650 0.01333333333332576 -0.003749999999993762 0
651 0.01444444444443288 -0.001249999999998442 0
652 0.01333333333332576 -0.001249999999998091 0
653 0.01666666666664971 -0.008749999999998689 0
654 0.0155555555555413 -0.007499999999996716 0
655 0.01555555555554137 -0.008749999999998358 0
656 0.01666666666664971 -0.006249999999996548 0
657 0.0155555555555413 -0.004999999999994258 0
658 0.0155555555555413 -0.006249999999995488 0
659 0.01666666666664971 -0.003749999999997001 0
660 0.0155555555555413 -0.002499999999997585 0
661 0.0155555555555413 -0.003749999999995922 0
662 0.01666666666664971 -0.001249999999999143 0
663 0.01555555555554137 -0.001249999999998792 0
664 0.01888888888886381 -0.008749999999999354 0
665 0.01777777777775676 -0.007499999999998043 0
666 0.0177777777777571 -0.008749999999999022 0
667 0.01888888888886381 -0.00624999999999867 0
668 0.01777777777775676 -0.004999999999997175 0
669 0.01777777777775676 -0.006249999999997609 0
670 0.01888888888886381 -0.003749999999999161 0
671 0.01777777777775676 -0.002499999999998987 0
672 0.01777777777775676 -0.003749999999998081 0
673 0.01888888888886381 -0.001249999999999844 0
674 0.0177777777777571 -0.001249999999999494 0
675 0.02111111111108611 -0.008750000000000016 0
676 0.01999999999997496 -0.00749999999999937 0
677 0.01999999999997399 -0.008749999999999683 0
678 0.02111111111108611 -0.006250000000000791 0
679 0.01999999999997496 -0.005000000000000092 0
680 0.01999999999997496 -0.00624999999999973 0
681 0.02111111111108611 -0.00375000000000132 0
682 0.01999999999997496 -0.002500000000000389 0
683 0.01999999999997496 -0.00375000000000024 0
684 0.02111111111108611 -0.001250000000000545 0
685 0.01999999999997399 -0.001250000000000195 0
686 0.02333333333331412 -0.008750000000000679 0
687 0.02222222222220011 -0.007500000000000694 0
688 0.02222222222219993 -0.008750000000000348 0
689 0.02333333333331412 -0.006250000000002913 0
690 0.02222222222220012 -0.00500000000000301 0
691 0.02222222222220012 -0.006250000000001852 0
692 0.02333333333331412 -0.00375000000000348 0
693 0.02222222222220011 -0.002500000000001791 0
694 0.02222222222220012 -0.0037500000000024 0
695 0.02333333333331412 -0.001250000000001246 0
696 0.02222222222219993 -0.001250000000000895 0
697 0.02555555555554274 -0.008750000000001344 0
698 0.02444444444442843 -0.007500000000002021 0
699 0.02444444444442843 -0.00875000000000101 0
700 0.02555555555554274 -0.006250000000005035 0
701 0.02444444444442843 -0.005000000000005927 0
702 0.02444444444442843 -0.006250000000003975 0
703 0.02555555555554274 -0.003750000000005639 0
704 0.02444444444442843 -0.002500000000003192 0
705 0.02444444444442843 -0.00375000000000456 0
706 0.02555555555554274 -0.001250000000001946 0
707 0.02444444444442843 -0.001250000000001596 0
708 0.02777777777777408 -0.008750000000002006 0
709 0.02666666666665841 -0.007500000000003348 0
710 0.02666666666665913 -0.008750000000001678 0
711 0.02777777777777408 -0.006250000000007158 0
712 0.02666666666665841 -0.005000000000008845 0
713 0.02666666666665841 -0.006250000000006095 0
714 0.02777777777777408 -0.003750000000007799 0
715 0.02666666666665841 -0.002500000000004594 0
716 0.02666666666665841 -0.003750000000006719 0
717 0.02777777777777408 -0.001250000000002647 0
718 0.02666666666665913 -0.001250000000002297 0
719 0.02888888888888704 -0.007500000000004675 0
720 0.0288888888888884 -0.008750000000002933 0
721 0.02888888888888704 -0.005000000000011762 0
722 0.02888888888888704 -0.00625000000000885 0
723 0.02888888888888704 -0.002500000000005996 0
724 0.02888888888888704 -0.00375000000000934 0
725 0.0288888888888884 -0.001250000000002132 0
726 0.01222222222222044 0.00249999999999408 0
727 0.01222222222222224 0.004999999999986965 0
728 0.01222222222222404 0.007499999999993399 0
729 0.01444444444443893 0.00249999999999408 0
730 0.01444444444444498 0.004999999999986965 0
731 0.01444444444445104 0.007499999999993399 0
732 0.01666666666665869 0.00249999999999408 0
733 0.01666666666666767 0.004999999999986964 0
734 0.01666666666667665 0.007499999999993399 0
735 0.0188888888888764 0.00249999999999408 0
736 0.01888888888888899 0.004999999999986965 0
737 0.01888888888890158 0.0074999999999934 0
738 0.02111111111109855 0.00249999999999408 0
739 0.02111111111111099 0.004999999999986965 0
740 0.02111111111112343 0.0074999999999934 0
741 0.02333333333332321 0.00249999999999408 0
742 0.0233333333333323 0.004999999999986965 0
743 0.0233333333333414 0.007499999999993399 0
744 0.02555555555554852 0.00249999999999408 0
745 0.0255555555555543 0.004999999999986965 0
746 0.02555555555556008 0.007499999999993399 0
747 0.02777777777777639 0.00249999999999408 0
748 0.02777777777777868 0.004999999999986965 0
749 0.02777777777778098 0.0074999999999934 0
750 0.01222222222221954 0.00124999999999704 0
751 0.01111111111111022 0.00249999999999408 0
752 0.01111111111110967 0.001249999999997548 0
753 0.01222222222222134 0.003749999999990522 0
754 0.01111111111111112 0.004999999999986965 0
755 0.01111111111111067 0.003749999999990355 0
756 0.01222222222222314 0.006249999999990182 0
757 0.01111111111111202 0.007499999999993399 0
758 0.01111111111111157 0.006249999999989903 0
759 0.01222222222222494 0.0087499999999967 0
760 0.01111111111111238 0.008749999999996538 0
761 0.01444444444443591 0.00124999999999704 0
762 0.01333333333332969 0.00249999999999408 0
763 0.01333333333332772 0.00124999999999704 0
764 0.01444444444444196 0.003749999999990522 0
765 0.01333333333333361 0.004999999999986965 0
766 0.01333333333333165 0.003749999999990522 0
767 0.01444444444444801 0.006249999999990182 0
768 0.01333333333333754 0.007499999999993399 0
769 0.01333333333333557 0.006249999999990182 0
770 0.01444444444445406 0.0087499999999967 0
771 0.01333333333333928 0.008749999999996698 0
772 0.0166666666666542 0.00124999999999704 0
773 0.01555555555554881 0.00249999999999408 0
774 0.01555555555554512 0.00124999999999704 0
775 0.01666666666666318 0.003749999999990522 0
776 0.01555555555555633 0.004999999999986965 0
777 0.01555555555555257 0.003749999999990522 0
778 0.01666666666667216 0.006249999999990182 0
779 0.01555555555556384 0.007499999999993399 0
780 0.01555555555556008 0.006249999999990183 0
781 0.01666666666668114 0.0087499999999967 0
782 0.01555555555556701 0.008749999999996701 0
783 0.01888888888887011 0.00124999999999704 0
784 0.01777777777776755 0.00249999999999408 0
785 0.0177777777777625 0.00124999999999704 0
786 0.0188888888888827 0.003749999999990522 0
787 0.01777777777777833 0.004999999999986965 0
788 0.01777777777777294 0.003749999999990522 0
789 0.01888888888889529 0.006249999999990182 0
790 0.01777777777778912 0.007499999999993399 0
791 0.01777777777778373 0.006249999999990181 0
792 0.01888888888890788 0.0087499999999967 0
793 0.0177777777777946 0.008749999999996698 0
794 0.02111111111109232 0.00124999999999704 0
795 0.01999999999998748 0.00249999999999408 0
796 0.01999999999998025 0.00124999999999704 0
797 0.02111111111110477 0.003749999999990522 0
798 0.01999999999999999 0.004999999999986965 0
799 0.01999999999999373 0.003749999999990523 0
800 0.02111111111111721 0.006249999999990182 0
801 0.02000000000001251 0.0074999999999934 0
802 0.02000000000000625 0.006249999999990181 0
803 0.02111111111112965 0.0087499999999967 0
804 0.02000000000002034 0.008749999999996701 0
805 0.02333333333331866 0.00124999999999704 0
806 0.02222222222221088 0.00249999999999408 0
807 0.02222222222220532 0.00124999999999704 0
808 0.02333333333332775 0.003749999999990522 0
809 0.02222222222222164 0.004999999999986965 0
810 0.02222222222221626 0.003749999999990521 0
811 0.02333333333333685 0.006249999999990182 0
812 0.02222222222223241 0.007499999999993399 0
813 0.02222222222222703 0.006249999999990182 0
814 0.02333333333334595 0.0087499999999967 0
815 0.02222222222223803 0.0087499999999967 0
816 0.02555555555554563 0.00124999999999704 0
817 0.02444444444443587 0.00249999999999408 0
818 0.02444444444443215 0.00124999999999704 0
819 0.02555555555555141 0.003749999999990522 0
820 0.0244444444444433 0.004999999999986965 0
821 0.02444444444443959 0.003749999999990522 0
822 0.02555555555555719 0.006249999999990182 0
823 0.02444444444445074 0.007499999999993399 0
824 0.02444444444444702 0.006249999999990181 0
825 0.02555555555556297 0.0087499999999967 0
826 0.02444444444445543 0.0087499999999967 0
827 0.02777777777777524 0.00124999999999704 0
828 0.02666666666666246 0.00249999999999408 0
829 0.02666666666666115 0.00124999999999704 0
830 0.02777777777777753 0.003749999999990522 0
831 0.02666666666666649 0.004999999999986965 0
832 0.02666666666666447 0.003749999999990522 0
833 0.02777777777777983 0.006249999999990182 0
834 0.02666666666667053 0.007499999999993399 0
835 0.02666666666666851 0.006249999999990181 0
836 0.02777777777778212 0.0087499999999967 0
837 0.02666666666667196 0.0087499999999967 0
838 0.02888888888888819 0.00249999999999408 0
839 0.02888888888888898 0.001249999999997549 0
840 0.02888888888888934 0.004999999999986965 0
841 0.02888888888888877 0.003749999999990354 0
842 0.02888888888889049 0.007499999999993399 0
843 0.02888888888888991 0.006249999999989903 0
844 0.02888888888889132 0.008749999999996538 0
$EndNodes
$Elements
348
1 8 2 3 1 2 20 23
2 8 2 3 1 20 21 24
3 8 2 3 1 21 22 25
4 8 2 3 1 22 3 26
5 8 2 3 2 3 27 30
6 8 2 3 2 27 28 31
7 8 2 3 2 28 29 32
8 8 2 3 2 29 4 33
9 8 2 3 3 4 34 37
10 8 2 3 3 34 35 38
11 8 2 3 3 35 36 39
12 8 2 3 3 36 1 40
13 8 2 3 4 1 41 44
14 8 2 3 4 41 42 45
15 8 2 3 4 42 43 46
16 8 2 3 4 43 2 47
17 8 2 2 18 9 125 127
18 8 2 2 18 125 126 128
19 8 2 2 18 126 10 129
20 8 2 2 19 10 130 132
21 8 2 2 19 130 131 133
22 8 2 2 19 131 11 134
23 8 2 2 20 11 135 143
24 8 2 2 20 135 136 144
25 8 2 2 20 136 137 145
26 8 2 2 20 137 138 146
27 8 2 2 20 138 139 147
28 8 2 2 20 139 140 148
29 8 2 2 20 140 141 149
30 8 2 2 20 141 142 150
31 8 2 2 20 142 12 151
32 8 2 5 21 12 152 155
33 8 2 5 21 152 153 156
34 8 2 5 21 153 154 157
35 8 2 5 21 154 19 158
36 8 2 5 22 19 159 162
37 8 2 5 22 159 160 163
38 8 2 5 22 160 161 164
39 8 2 5 22 161 16 165
40 8 2 2 23 16 166 174
41 8 2 2 23 166 167 175
42 8 2 2 23 167 168 176
43 8 2 2 23 168 169 177
44 8 2 2 23 169 170 178
45 8 2 2 23 170 171 179
46 8 2 2 23 171 172 180
47 8 2 2 23 172 173 181
48 8 2 2 23 173 14 182
49 8 2 2 24 14 183 185
50 8 2 2 24 183 184 186
51 8 2 2 24 184 15 187
52 8 2 2 25 15 188 190
53 8 2 2 25 188 189 191
54 8 2 2 25 189 13 192
55 8 2 4 26 13 193 195
56 8 2 4 26 193 194 196
57 8 2 4 26 194 17 197
58 8 2 4 27 17 198 200
59 8 2 4 27 198 199 201
60 8 2 4 27 199 9 202
61 9 2 1 39 69 5 306 72 318 319
62 9 2 1 39 70 305 71 320 321 74
63 9 2 1 39 304 71 305 322 321 323
64 9 2 1 39 211 308 310 324 325 326
65 9 2 1 39 210 211 310 214 326 327
66 9 2 1 39 303 306 91 328 329 330
67 9 2 1 39 309 301 311 331 332 333
68 9 2 1 39 303 307 302 334 335 336
69 9 2 1 39 69 312 70 337 338 73
70 9 2 1 39 211 212 308 215 339 324
71 9 2 1 39 310 301 316 340 341 342
72 9 2 1 39 309 311 313 333 343 344
73 9 2 1 39 308 301 310 345 340 325
74 9 2 1 39 307 316 301 346 341 347
75 9 2 1 39 302 309 76 348 349 350
76 9 2 1 39 183 314 14 351 352 185
77 9 2 1 39 303 91 307 330 353 334
78 9 2 1 39 308 311 301 354 332 345
79 9 2 1 39 184 15 313 187 355 356
80 9 2 1 39 77 313 15 357 355 80
81 9 2 1 39 77 76 309 79 349 358
82 9 2 1 39 69 306 312 319 359 337
83 9 2 1 39 309 302 317 348 360 361
84 9 2 1 39 305 70 312 320 338 362
85 9 2 1 39 302 76 304 350 363 364
86 9 2 1 39 18 315 92 365 366 95
87 9 2 1 39 183 184 311 186 367 368
88 9 2 1 39 308 314 311 369 370 354
89 9 2 1 39 310 315 210 371 372 327
90 9 2 1 39 14 314 212 352 373 216
91 9 2 1 39 212 314 308 373 369 339
92 9 2 1 39 91 92 316 94 374 375
93 9 2 1 39 210 315 18 372 365 213
94 9 2 1 39 309 313 77 344 357 358
95 9 2 1 39 184 313 311 356 343 367
96 9 2 1 39 183 311 314 368 370 351
97 9 2 1 39 307 91 316 353 375 346
98 9 2 1 39 307 301 317 347 376 377
99 9 2 1 39 307 317 302 377 360 335
100 9 2 1 39 304 305 302 323 378 364
101 9 2 1 39 303 302 305 336 378 379
102 9 2 1 39 309 317 301 361 376 331
103 9 2 1 39 310 316 315 342 380 371
104 9 2 1 39 315 316 92 380 374 366
105 9 2 1 39 303 312 306 381 359 328
106 9 2 1 39 303 305 312 379 362 381
107 9 2 1 39 91 306 5 329 318 93
108 9 2 1 39 6 304 76 382 363 78
109 9 2 1 39 6 71 304 75 322 382
110 9 2 1 41 389 384 395 398 399 400
111 9 2 1 41 388 395 384 401 399 402
112 9 2 1 41 48 49 386 52 403 404
113 9 2 1 41 383 389 395 405 400 406
114 9 2 1 41 6 48 391 51 407 408
115 9 2 1 41 392 189 393 409 410 411
116 9 2 1 41 13 189 392 192 409 412
117 9 2 1 41 193 13 392 195 412 413
118 9 2 1 41 387 390 7 414 415 416
119 9 2 1 41 81 82 389 84 417 418
120 9 2 1 41 77 76 388 79 419 420
121 9 2 1 41 392 394 193 421 422 413
122 9 2 1 41 189 188 393 191 423 410
123 9 2 1 41 194 193 394 196 422 424
124 9 2 1 41 50 390 49 425 426 53
125 9 2 1 41 383 81 389 427 418 405
126 9 2 1 41 388 397 77 428 429 420
127 9 2 1 41 194 396 17 430 431 197
128 9 2 1 41 15 397 188 432 433 190
129 9 2 1 41 392 393 384 411 434 435
130 9 2 1 41 389 82 396 417 436 437
131 9 2 1 41 392 384 394 435 438 421
132 9 2 1 41 388 393 397 439 440 428
133 9 2 1 41 394 389 396 441 437 442
134 9 2 1 41 388 76 395 419 443 401
135 9 2 1 41 385 386 395 444 445 446
136 9 2 1 41 388 384 393 402 434 439
137 9 2 1 41 17 396 82 431 436 85
138 9 2 1 41 77 397 15 429 432 80
139 9 2 1 41 389 394 384 441 438 398
140 9 2 1 41 386 391 48 447 407 404
141 9 2 1 41 386 49 390 403 426 448
142 9 2 1 41 383 395 386 406 445 449
143 9 2 1 41 394 396 194 442 430 424
144 9 2 1 41 393 188 397 423 433 440
145 9 2 1 41 383 387 81 450 451 427
146 9 2 1 41 385 395 76 446 443 452
147 9 2 1 41 383 386 390 449 448 453
148 9 2 1 41 383 390 387 453 414 450
149 9 2 1 41 385 391 386 454 447 444
150 9 2 1 41 385 76 391 452 455 454
151 9 2 1 41 6 391 76 408 455 78
152 9 2 1 41 81 387 7 451 416 83
153 9 2 1 41 50 7 390 54 415 425
154 9 2 1 43 462 468 457 471 472 473
155 9 2 1 43 461 457 468 474 472 475
156 9 2 1 43 55 459 56 476 477 59
157 9 2 1 43 462 456 468 478 479 471
158 9 2 1 43 55 7 464 58 480 481
159 9 2 1 43 199 465 466 482 483 484
160 9 2 1 43 9 465 199 485 482 202
161 9 2 1 43 9 125 465 127 486 485
162 9 2 1 43 8 463 460 487 488 489
163 9 2 1 43 87 86 462 89 490 491
164 9 2 1 43 81 82 461 84 492 493
165 9 2 1 43 125 467 465 494 495 486
166 9 2 1 43 199 466 198 484 496 201
167 9 2 1 43 126 467 125 497 494 128
168 9 2 1 43 56 463 57 498 499 60
169 9 2 1 43 456 462 86 478 490 500
170 9 2 1 43 461 82 470 492 501 502
171 9 2 1 43 10 469 126 503 504 129
172 9 2 1 43 17 198 470 200 505 506
173 9 2 1 43 457 466 465 507 483 508
174 9 2 1 43 462 469 87 509 510 491
175 9 2 1 43 457 465 467 508 495 511
176 9 2 1 43 466 461 470 512 502 513
177 9 2 1 43 462 467 469 514 515 509
178 9 2 1 43 461 468 81 475 516 493
179 9 2 1 43 459 458 468 517 518 519
180 9 2 1 43 461 466 457 512 507 474
181 9 2 1 43 10 87 469 90 510 503
182 9 2 1 43 17 470 82 506 501 85
183 9 2 1 43 462 457 467 473 511 514
184 9 2 1 43 55 464 459 481 520 476
185 9 2 1 43 56 459 463 477 521 498
186 9 2 1 43 456 459 468 522 519 479
187 9 2 1 43 467 126 469 497 504 515
188 9 2 1 43 466 470 198 513 505 496
189 9 2 1 43 456 86 460 500 523 524
190 9 2 1 43 81 468 458 516 518 525
191 9 2 1 43 456 463 459 526 521 522
192 9 2 1 43 456 460 463 524 488 526
193 9 2 1 43 459 464 458 520 527 517
194 9 2 1 43 8 460 86 489 523 88
195 9 2 1 43 81 464 7 528 480 83
196 9 2 1 43 81 458 464 525 527 528
197 9 2 1 43 57 463 8 499 487 61
198 9 2 1 45 62 8 534 65 545 546
199 9 2 1 45 10 538 87 547 548 90
200 9 2 1 45 64 63 533 67 549 550
201 9 2 1 45 10 130 538 132 551 547
202 9 2 1 45 532 64 533 552 550 553
203 9 2 1 45 87 538 535 548 554 555
204 9 2 1 45 87 535 86 555 556 89
205 9 2 1 45 531 534 86 557 558 559
206 9 2 1 45 530 531 535 560 561 562
207 9 2 1 45 62 540 63 563 564 66
208 9 2 1 45 204 536 205 565 566 208
209 9 2 1 45 536 539 529 567 568 569
210 9 2 1 45 537 529 539 570 568 571
211 9 2 1 45 536 204 539 565 572 567
212 9 2 1 45 530 537 91 573 574 575
213 9 2 1 45 529 535 538 576 554 577
214 9 2 1 45 131 541 130 578 579 133
215 9 2 1 45 131 11 542 134 580 581
216 9 2 1 45 203 539 204 582 572 207
217 9 2 1 45 531 86 535 559 556 561
218 9 2 1 45 91 537 92 574 583 94
219 9 2 1 45 538 130 541 551 579 584
220 9 2 1 45 534 540 62 585 563 546
221 9 2 1 45 18 92 543 95 586 587
222 9 2 1 45 537 530 544 573 588 589
223 9 2 1 45 537 539 543 571 590 591
224 9 2 1 45 533 63 540 549 564 592
225 9 2 1 45 530 91 532 575 593 594
226 9 2 1 45 536 529 541 569 595 596
227 9 2 1 45 203 18 543 206 587 597
228 9 2 1 45 11 205 542 209 598 580
229 9 2 1 45 536 542 205 599 598 566
230 9 2 1 45 537 543 92 591 586 583
231 9 2 1 45 538 541 529 584 595 577
232 9 2 1 45 541 542 536 600 599 596
233 9 2 1 45 541 131 542 578 581 600
234 9 2 1 45 529 544 535 601 602 576
235 9 2 1 45 539 203 543 582 597 590
236 9 2 1 45 530 535 544 562 602 588
237 9 2 1 45 532 533 530 553 603 594
238 9 2 1 45 530 533 531 603 604 560
239 9 2 1 45 537 544 529 589 601 570
240 9 2 1 45 534 531 540 557 605 585
241 9 2 1 45 531 533 540 604 592 605
242 9 2 1 45 91 5 532 93 606 593
243 9 2 1 45 8 86 534 88 558 545
244 9 2 1 45 64 532 5 552 606 68
245 10 2 1 31 1 41 217 105 44 220 221 106 222
246 10 2 1 31 105 217 69 5 221 223 72 107 224
247 10 2 1 31 41 42 218 217 45 225 226 220 227
248 10 2 1 31 217 218 70 69 226 228 73 223 229
249 10 2 1 31 42 43 219 218 46 230 231 225 232
250 10 2 1 31 218 219 71 70 231 233 74 228 234
251 10 2 1 31 43 2 96 219 47 97 235 230 236
252 10 2 1 31 219 96 6 71 235 98 75 233 237
253 10 2 1 33 2 20 238 96 23 241 242 97 243
254 10 2 1 33 96 238 48 6 242 244 51 98 245
255 10 2 1 33 20 21 239 238 24 246 247 241 248
256 10 2 1 33 238 239 49 48 247 249 52 244 250
257 10 2 1 33 21 22 240 239 25 251 252 246 253
258 10 2 1 33 239 240 50 49 252 254 53 249 255
259 10 2 1 33 22 3 99 240 26 100 256 251 257
260 10 2 1 33 240 99 7 50 256 101 54 254 258
261 10 2 1 35 3 27 259 99 30 262 263 100 264
262 10 2 1 35 99 259 55 7 263 265 58 101 266
263 10 2 1 35 27 28 260 259 31 267 268 262 269
264 10 2 1 35 259 260 56 55 268 270 59 265 271
265 10 2 1 35 28 29 261 260 32 272 273 267 274
266 10 2 1 35 260 261 57 56 273 275 60 270 276
267 10 2 1 35 29 4 102 261 33 103 277 272 278
268 10 2 1 35 261 102 8 57 277 104 61 275 279
269 10 2 1 37 4 34 280 102 37 283 284 103 285
270 10 2 1 37 102 280 62 8 284 286 65 104 287
271 10 2 1 37 34 35 281 280 38 288 289 283 290
272 10 2 1 37 280 281 63 62 289 291 66 286 292
273 10 2 1 37 35 36 282 281 39 293 294 288 295
274 10 2 1 37 281 282 64 63 294 296 67 291 297
275 10 2 1 37 36 1 105 282 40 106 298 293 299
276 10 2 1 37 282 105 5 64 298 107 68 296 300
277 10 2 1 47 11 135 607 205 143 631 632 209 633
278 10 2 1 47 205 607 608 204 632 634 635 208 636
279 10 2 1 47 204 608 609 203 635 637 638 207 639
280 10 2 1 47 203 609 108 18 638 640 116 206 641
281 10 2 1 47 135 136 610 607 144 642 643 631 644
282 10 2 1 47 607 610 611 608 643 645 646 634 647
283 10 2 1 47 608 611 612 609 646 648 649 637 650
284 10 2 1 47 609 612 109 108 649 651 117 640 652
285 10 2 1 47 136 137 613 610 145 653 654 642 655
286 10 2 1 47 610 613 614 611 654 656 657 645 658
287 10 2 1 47 611 614 615 612 657 659 660 648 661
288 10 2 1 47 612 615 110 109 660 662 118 651 663
289 10 2 1 47 137 138 616 613 146 664 665 653 666
290 10 2 1 47 613 616 617 614 665 667 668 656 669
291 10 2 1 47 614 617 618 615 668 670 671 659 672
292 10 2 1 47 615 618 111 110 671 673 119 662 674
293 10 2 1 47 138 139 619 616 147 675 676 664 677
294 10 2 1 47 616 619 620 617 676 678 679 667 680
295 10 2 1 47 617 620 621 618 679 681 682 670 683
296 10 2 1 47 618 621 112 111 682 684 120 673 685
297 10 2 1 47 139 140 622 619 148 686 687 675 688
298 10 2 1 47 619 622 623 620 687 689 690 678 691
299 10 2 1 47 620 623 624 621 690 692 693 681 694
300 10 2 1 47 621 624 113 112 693 695 121 684 696
301 10 2 1 47 140 141 625 622 149 697 698 686 699
302 10 2 1 47 622 625 626 623 698 700 701 689 702
303 10 2 1 47 623 626 627 624 701 703 704 692 705
304 10 2 1 47 624 627 114 113 704 706 122 695 707
305 10 2 1 47 141 142 628 625 150 708 709 697 710
306 10 2 1 47 625 628 629 626 709 711 712 700 713
307 10 2 1 47 626 629 630 627 712 714 715 703 716
308 10 2 1 47 627 630 115 114 715 717 123 706 718
309 10 2 1 47 142 12 152 628 151 155 719 708 720
310 10 2 1 47 628 152 153 629 719 156 721 711 722
311 10 2 1 47 629 153 154 630 721 157 723 714 724
312 10 2 1 47 630 154 19 115 723 158 124 717 725
313 10 2 1 49 18 108 726 210 116 750 751 213 752
314 10 2 1 49 210 726 727 211 751 753 754 214 755
315 10 2 1 49 211 727 728 212 754 756 757 215 758
316 10 2 1 49 212 728 173 14 757 759 182 216 760
317 10 2 1 49 108 109 729 726 117 761 762 750 763
318 10 2 1 49 726 729 730 727 762 764 765 753 766
319 10 2 1 49 727 730 731 728 765 767 768 756 769
320 10 2 1 49 728 731 172 173 768 770 181 759 771
321 10 2 1 49 109 110 732 729 118 772 773 761 774
322 10 2 1 49 729 732 733 730 773 775 776 764 777
323 10 2 1 49 730 733 734 731 776 778 779 767 780
324 10 2 1 49 731 734 171 172 779 781 180 770 782
325 10 2 1 49 110 111 735 732 119 783 784 772 785
326 10 2 1 49 732 735 736 733 784 786 787 775 788
327 10 2 1 49 733 736 737 734 787 789 790 778 791
328 10 2 1 49 734 737 170 171 790 792 179 781 793
329 10 2 1 49 111 112 738 735 120 794 795 783 796
330 10 2 1 49 735 738 739 736 795 797 798 786 799
331 10 2 1 49 736 739 740 737 798 800 801 789 802
332 10 2 1 49 737 740 169 170 801 803 178 792 804
333 10 2 1 49 112 113 741 738 121 805 806 794 807
334 10 2 1 49 738 741 742 739 806 808 809 797 810
335 10 2 1 49 739 742 743 740 809 811 812 800 813
336 10 2 1 49 740 743 168 169 812 814 177 803 815
337 10 2 1 49 113 114 744 741 122 816 817 805 818
338 10 2 1 49 741 744 745 742 817 819 820 808 821
339 10 2 1 49 742 745 746 743 820 822 823 811 824
340 10 2 1 49 743 746 167 168 823 825 176 814 826
341 10 2 1 49 114 115 747 744 123 827 828 816 829
342 10 2 1 49 744 747 748 745 828 830 831 819 832
343 10 2 1 49 745 748 749 746 831 833 834 822 835
344 10 2 1 49 746 749 166 167 834 836 175 825 837
345 10 2 1 49 115 19 159 747 124 162 838 827 839
346 10 2 1 49 747 159 160 748 838 163 840 830 841
347 10 2 1 49 748 160 161 749 840 164 842 833 843
348 10 2 1 49 749 161 16 166 842 165 174 836 844
$EndElements
