$MeshFormat
2.2 0 8
$EndMeshFormat
$PhysicalNames
11
1 1 "lower_outer"
1 2 "right_outer"
1 3 "upper_outer"
1 4 "left_outer"
1 8 "left_inner"
1 9 "right_inner"
1 10 "lower_inner"
1 11 "upper_inner"
2 5 "outer"
2 6 "coil"
2 7 "heat_inner"
$EndPhysicalNames
$Nodes
832
1 0 0 0
2 15 0 0
3 15 12 0
4 0 12 0
5 40 0 0
6 3 0 0
7 4 0 0
8 7 0 0
9 8 0 0
10 11 0 0
11 12 0 0
12 0 3 0
13 3 3 0
14 4 3 0
15 7 3 0
16 8 3 0
17 11 3 0
18 12 3 0
19 15 3 0
20 0 4 0
21 3 4 0
22 4 4 0
23 7 4 0
24 8 4 0
25 11 4 0
26 12 4 0
27 15 4 0
28 0 9 0
29 3 9 0
30 4 9 0
31 7 9 0
32 8 9 0
33 11 9 0
34 12 9 0
35 15 9 0
36 3 12 0
37 4 12 0
38 7 12 0
39 8 12 0
40 11 12 0
41 12 12 0
42 7.499999999984786 0 0
43 3.749999999994097 0 0
44 11.24999999999198 0 0
45 15 5.999999999977138 0
46 15 2.999999999989557 0
47 15 8.999999999987502 0
48 7.500000000018749 12 0
49 11.25000000001013 12 0
50 3.750000000009731 12 0
51 0 6.00000000001667 0
52 0 9.000000000008926 0
53 0 3.000000000008907 0
54 40.49150305209478 7.952108184404951 0
55 39.06565986610114 15.79076693715113 0
56 35.8053352651863 23.06042190349935 0
57 30.90000746436524 29.33858716091553 0
58 24.63475628527771 34.2603985648493 0
59 17.37369535319406 37.53981832655847 0
60 9.538811136603194 38.98625848969936 0
61 1.585438627530152 38.51565720958578 0
62 -6.024201073133442 36.1553641220506 0
63 -12.8478633658906 32.04255088202857 0
64 -18.48898180129534 26.41623924555989 0
65 -22.61971508051174 19.60340999414461 0
66 -24.9999999999535 12.00000000025186 0
67 -25.49150305208421 4.047891815416514 0
68 -24.06565986603923 -3.790766937350742 0
69 -20.80533526505997 -11.06042190370896 0
70 -15.90000746416605 -17.33858716111525 0
71 -9.634756284995682 -22.26039856502029 0
72 -2.373695352840958 -25.53981832666902 0
73 5.461188863804018 -26.98625848972453 0
74 13.41456137291154 -26.51565720950543 0
75 21.02420107358483 -24.15536412184816 0
76 27.84786336630843 -20.04255088170211 0
77 33.48898180164712 -14.41623924511208 0
78 37.6197150807668 -7.603409993579877 0
79 40.48625848970682 3.961188863517636 0
80 40.01565720959882 11.91456137239813 0
81 37.65536412207713 19.52420107307427 0
82 33.54255088206506 26.34786336584389 0
83 27.91623924560598 31.98898180125913 0
84 21.10340999420001 36.11971508048672 0
85 13.50000000031195 38.49999999994241 0
86 5.547891815519745 38.99150305209032 0
87 -2.290766937217192 37.56565986608065 0
88 -9.560421903550967 34.30533526515519 0
89 -15.83858716095724 29.40000746432364 0
90 -20.76039856488146 23.13475628522466 0
91 -24.03981832657677 15.87369535313564 0
92 -25.48625848970443 8.038811136521051 0
93 -25.01565720956359 0.0854386274081822 0
94 -22.65536412198508 -7.524201073279517 0
95 -18.54255088190538 -14.34786336604827 0
96 -12.91623924536613 -19.98898180144755 0
97 -6.103409993881822 -24.11971508063043 0
98 1.500000000070195 -26.50000000001296 0
99 9.452108184908504 -26.99150305206498 0
100 17.29076693766687 -25.56565986594117 0
101 24.56042190399046 -22.3053352648903 0
102 30.83858716134505 -17.40000746393684 0
103 35.76039856518753 -11.13475628471986 0
104 39.03981832670864 -3.873695352714369 0
105 0.9999999999960252 0 0
106 1.999999999996162 0 0
107 0.4999999999982562 0 0
108 1.499999999994462 0 0
109 2.499999999998465 0 0
110 3.5 0 0
111 4.999999999999998 0 0
112 5.999999999999999 0 0
113 4.500000000000405 0 0
114 5.499999999997478 0 0
115 6.499999999998101 0 0
116 7.499999999996719 0 0
117 8.999999999970397 0 0
118 9.999999999970395 0 0
119 8.499999999987732 0 0
120 9.499999999965002 0 0
121 10.49999999998644 0 0
122 11.5 0 0
123 12.9999999999704 0 0
124 13.9999999999704 0 0
125 12.49999999998773 0 0
126 13.499999999965 0 0
127 14.49999999998644 0 0
128 0.9999999999960252 3 0
129 1.999999999996162 3 0
130 0.4999999999982562 3 0
131 1.499999999994462 3 0
132 2.499999999998465 3 0
133 0 0.9999999999960252 0
134 0 1.999999999996162 0
135 0 0.4999999999982562 0
136 0 1.499999999994462 0
137 0 2.499999999998465 0
138 3 0.9999999999960252 0
139 3 1.999999999996162 0
140 3 0.4999999999982562 0
141 3 1.499999999994462 0
142 3 2.499999999998465 0
143 3.5 3 0
144 4 0.9999999999960252 0
145 4 1.999999999996162 0
146 4 0.4999999999982562 0
147 4 1.499999999994462 0
148 4 2.499999999998465 0
149 4.999999999999998 3 0
150 5.999999999999999 3 0
151 4.500000000000405 3 0
152 5.499999999997478 3 0
153 6.499999999998101 3 0
154 7 0.9999999999960252 0
155 7 1.999999999996162 0
156 7 0.4999999999982562 0
157 7 1.499999999994462 0
158 7 2.499999999998465 0
159 7.499999999996719 3 0
160 8 0.9999999999960252 0
161 8 1.999999999996162 0
162 8 0.4999999999982562 0
163 8 1.499999999994462 0
164 8 2.499999999998465 0
165 8.999999999970397 3 0
166 9.999999999970395 3 0
167 8.499999999987732 3 0
168 9.499999999965002 3 0
169 10.49999999998644 3 0
170 11 0.9999999999960252 0
171 11 1.999999999996162 0
172 11 0.4999999999982562 0
173 11 1.499999999994462 0
174 11 2.499999999998465 0
175 11.5 3 0
176 12 0.9999999999960252 0
177 12 1.999999999996162 0
178 12 0.4999999999982562 0
179 12 1.499999999994462 0
180 12 2.499999999998465 0
181 12.9999999999704 3 0
182 13.9999999999704 3 0
183 12.49999999998773 3 0
184 13.499999999965 3 0
185 14.49999999998644 3 0
186 15 0.9999999999960252 0
187 15 1.999999999996162 0
188 15 0.4999999999982562 0
189 15 1.499999999994462 0
190 15 2.499999999998465 0
191 0.9999999999960252 4 0
192 1.999999999996162 4 0
193 0.4999999999982562 4 0
194 1.499999999994462 4 0
195 2.499999999998465 4 0
196 0 3.5 0
197 3 3.5 0
198 3.5 4 0
199 4 3.5 0
200 4.999999999999998 4 0
201 5.999999999999999 4 0
202 4.500000000000405 4 0
203 5.499999999997478 4 0
204 6.499999999998101 4 0
205 7 3.5 0
206 7.499999999996719 4 0
207 8 3.5 0
208 8.999999999970397 4 0
209 9.999999999970395 4 0
210 8.499999999987732 4 0
211 9.499999999965002 4 0
212 10.49999999998644 4 0
213 11 3.5 0
214 11.5 4 0
215 12 3.5 0
216 12.9999999999704 4 0
217 13.9999999999704 4 0
218 12.49999999998773 4 0
219 13.499999999965 4 0
220 14.49999999998644 4 0
221 15 3.5 0
222 0.9999999999960252 9 0
223 1.999999999996162 9 0
224 0.4999999999982562 9 0
225 1.499999999994462 9 0
226 2.499999999998465 9 0
227 0 5.000000000000002 0
228 0 6.000000000000002 0
229 0 7.000000000000002 0
230 0 8 0
231 0 4.500000000000285 0
232 0 5.499999999999703 0
233 0 6.499999999998025 0
234 0 7.500000000000001 0
235 0 8.5 0
236 3 5.000000000000002 0
237 3 6.000000000000002 0
238 3 7.000000000000002 0
239 3 8 0
240 3 4.500000000000285 0
241 3 5.499999999999703 0
242 3 6.499999999998025 0
243 3 7.500000000000001 0
244 3 8.5 0
245 3.5 9 0
246 4 5.000000000000002 0
247 4 6.000000000000002 0
248 4 7.000000000000002 0
249 4 8 0
250 4 4.500000000000285 0
251 4 5.499999999999703 0
252 4 6.499999999998025 0
253 4 7.500000000000001 0
254 4 8.5 0
255 4.999999999999998 9 0
256 5.999999999999999 9 0
257 4.500000000000405 9 0
258 5.499999999997478 9 0
259 6.499999999998101 9 0
260 7 5.000000000000002 0
261 7 6.000000000000002 0
262 7 7.000000000000002 0
263 7 8 0
264 7 4.500000000000285 0
265 7 5.499999999999703 0
266 7 6.499999999998025 0
267 7 7.500000000000001 0
268 7 8.5 0
269 7.499999999996719 9 0
270 8 5.000000000000002 0
271 8 6.000000000000002 0
272 8 7.000000000000002 0
273 8 8 0
274 8 4.500000000000285 0
275 8 5.499999999999703 0
276 8 6.499999999998025 0
277 8 7.500000000000001 0
278 8 8.5 0
279 8.999999999970397 9 0
280 9.999999999970395 9 0
281 8.499999999987732 9 0
282 9.499999999965002 9 0
283 10.49999999998644 9 0
284 11 5.000000000000002 0
285 11 6.000000000000002 0
286 11 7.000000000000002 0
287 11 8 0
288 11 4.500000000000285 0
289 11 5.499999999999703 0
290 11 6.499999999998025 0
291 11 7.500000000000001 0
292 11 8.5 0
293 11.5 9 0
294 12 5.000000000000002 0
295 12 6.000000000000002 0
296 12 7.000000000000002 0
297 12 8 0
298 12 4.500000000000285 0
299 12 5.499999999999703 0
300 12 6.499999999998025 0
301 12 7.500000000000001 0
302 12 8.5 0
303 12.9999999999704 9 0
304 13.9999999999704 9 0
305 12.49999999998773 9 0
306 13.499999999965 9 0
307 14.49999999998644 9 0
308 15 5.000000000000002 0
309 15 6.000000000000002 0
310 15 7.000000000000002 0
311 15 8 0
312 15 4.500000000000285 0
313 15 5.499999999999703 0
314 15 6.499999999998025 0
315 15 7.500000000000001 0
316 15 8.5 0
317 0.9999999999960252 12 0
318 1.999999999996162 12 0
319 0.4999999999982562 12 0
320 1.499999999994462 12 0
321 2.499999999998465 12 0
322 0 9.999999999970397 0
323 0 10.9999999999704 0
324 0 9.499999999987732 0
325 0 10.499999999965 0
326 0 11.49999999998644 0
327 3 9.999999999970397 0
328 3 10.9999999999704 0
329 3 9.499999999987732 0
330 3 10.499999999965 0
331 3 11.49999999998644 0
332 3.5 12 0
333 4 9.999999999970397 0
334 4 10.9999999999704 0
335 4 9.499999999987732 0
336 4 10.499999999965 0
337 4 11.49999999998644 0
338 4.999999999999998 12 0
339 5.999999999999999 12 0
340 4.500000000000405 12 0
341 5.499999999997478 12 0
342 6.499999999998101 12 0
343 7 9.999999999970397 0
344 7 10.9999999999704 0
345 7 9.499999999987732 0
346 7 10.499999999965 0
347 7 11.49999999998644 0
348 7.499999999996719 12 0
349 8 9.999999999970397 0
350 8 10.9999999999704 0
351 8 9.499999999987732 0
352 8 10.499999999965 0
353 8 11.49999999998644 0
354 8.999999999970397 12 0
355 9.999999999970395 12 0
356 8.499999999987732 12 0
357 9.499999999965002 12 0
358 10.49999999998644 12 0
359 11 9.999999999970397 0
360 11 10.9999999999704 0
361 11 9.499999999987732 0
362 11 10.499999999965 0
363 11 11.49999999998644 0
364 11.5 12 0
365 12 9.999999999970397 0
366 12 10.9999999999704 0
367 12 9.499999999987732 0
368 12 10.499999999965 0
369 12 11.49999999998644 0
370 12.9999999999704 12 0
371 13.9999999999704 12 0
372 12.49999999998773 12 0
373 13.499999999965 12 0
374 14.49999999998644 12 0
375 15 9.999999999970397 0
376 15 10.9999999999704 0
377 15 9.499999999987732 0
378 15 10.499999999965 0
379 15 11.49999999998644 0
380 26.52909307040036 9.109657573734106 0
381 -9.684983380772493 2.850615934706972 0
382 11.57331292399063 25.50408886957435 0
383 2.572621525477455 -13.17472757356535 0
384 -0.05500290657869378 24.47201465880441 0
385 13.19444532483536 -13.52849489229847 0
386 26.42536664623632 -2.686572050925534 0
387 -11.44701812908006 14.88293507733409 0
388 23.54194226167004 18.43547166922352 0
389 24.74977009476732 -12.78020112864538 0
390 -10.09783309935256 23.63684320310652 0
391 19.21950468480908 3.591679629620703 0
392 -5.598641779300332 7.880283435541584 0
393 20.22955108138308 27.58524478077821 0
394 -3.670888191549532 -17.08941330087188 0
395 0.3188648927913064 18.33549492637916 0
396 7.683006716970965 -6.146619915522385 0
397 8.693243257469351 -18.92836073789649 0
398 7.47733294911858 31.42640442612989 0
399 17.28919314817038 -7.109698574286935 0
400 -4.70048065379274 17.83082487795281 0
401 31.12630748831628 14.67770617350574 0
402 -15.38109526449576 -4.35738996765109 0
403 32.55194650587569 2.375381908129822 0
404 -17.96992598002758 10.06549685230541 0
405 15.38847843795328 20.69195142777316 0
406 -3.879693818469675 -5.615903107890382 0
407 22.13751757725539 13.97602935428687 0
408 -4.824403881566066 30.78203318486414 0
409 18.99373746302171 -17.84610132619442 0
410 13.40281504322545 30.64353879219653 0
411 0.4323422041012503 -20.60981087314514 0
412 34.93195129766162 8.52263780626325 0
413 -16.84919106028264 3.046794546905848 0
414 29.27671103462932 -8.482174444931651 0
415 -15.40143476204337 22.15477210309588 0
416 7.200800296372886 18.78541461631316 0
417 31.09460206800193 20.91432938211916 0
418 -15.16579295743136 -9.329986566246573 0
419 -6.113641798761816 3.909362377096867 0
420 7.800120381324921 -10.80238425222578 0
421 6.369166384419117 24.76295122461873 0
422 13.5788706945112 -21.2427749760374 0
423 0.6557105316040104 31.16364175626489 0
424 26.50424211110479 23.87070632664619 0
425 -10.20582989832132 -13.07335620802809 0
426 33.20856129583301 -4.935370866312632 0
427 -17.23789004702833 16.43057602966855 0
428 23.10585062186543 5.032562470168869 0
429 -11.2802105448933 9.016114026499858 0
430 19.68288303485168 0.6189119505450212 0
431 -5.380575134049038 13.51317617683531 0
432 28.82770027935832 11.89368187361993 0
433 27.33412487499316 16.55658892136463 0
434 22.83972991946272 16.20575051175519 0
435 24.33330532382788 11.54284346401049 0
436 -0.9706765743698538 -23.07481459990708 0
437 -1.619272993724141 -18.84961208700851 0
438 -6.652822238272607 -19.67490593294608 0
439 15.38825519820975 34.0916785593775 0
440 16.81618306230426 29.11439178648737 0
441 22.43215368333039 30.92282167281375 0
442 18.5687587886277 12.98801467714343 0
443 19.46521034981166 19.56371154849834 0
444 15.19423921897664 16.34597571388658 0
445 -7.399156876572652 20.73383404052966 0
446 -2.190807880500717 18.08315990216599 0
447 0.1319309931063063 21.40375479259178 0
448 -5.07641800296563 24.05442893095547 0
449 37.7117271748782 8.2373729953341 0
450 33.74194890176865 5.449009857196536 0
451 36.27597325293785 1.187690954064911 0
452 -21.17034705618343 3.547343181161181 0
453 -17.40955852015511 6.556145699605629 0
454 -21.48496298999054 11.03274842627864 0
455 -6.938359044935424 -15.08138475444998 0
456 -0.5491333330360386 -15.13207043721861 0
457 -0.6535361464961102 -9.395315340727866 0
458 -7.042761858395496 -9.344629657959235 0
459 16.14459657408519 -3.554849287143468 0
460 7.591503358477876 -3.073309957761193 0
461 12.48609993257067 -6.62815924490466 0
462 17.34144151742584 0.3094559752725106 0
463 19.45119385983038 2.105295790082862 0
464 17.10975234240454 4.795839814798921 0
465 -2.690287567024519 12.75658808841765 0
466 -5.489608456674685 10.69672980618845 0
467 -2.799320889650166 6.940141717779127 0
468 -5.856141789031074 5.894822906319225 0
469 -8.439426162096817 8.448198731020721 0
470 -10.4825969628329 5.933364980603415 0
471 -7.899312589767154 3.37998915590192 0
472 21.01948162146886 -9.944949851466159 0
473 27.01324056469832 -10.63118778678852 0
474 27.85103884043282 -5.584373247928593 0
475 21.85727989720336 -4.898135312606234 0
476 15.24181923650287 -10.3190967332927 0
477 16.09409139392853 -15.68729810924644 0
478 21.87175377889452 -15.3131512274199 0
479 17.80901475966818 24.13859810427569 0
480 12.48806398360804 28.07381383088544 0
481 13.48089568097195 23.09802014867375 0
482 11.29463936716308 19.73868302204316 0
483 7.350400148195817 15.39270730815658 0
484 1.901656449250645 -5.881261511706384 0
485 -1.939846909234838 -2.807951553945191 0
486 -5.040527893920888 15.67200052739406 0
487 0.1594324463956532 15.16774746318958 0
488 4.562792730785301 -19.76908580552082 0
489 5.632932391473403 -16.05154415573092 0
490 31.38284641813822 -11.44920684502187 0
491 26.29881673053788 -16.41137600517375 0
492 -16.94520828166936 24.28550567432788 0
493 -12.74963393069797 22.8958076531012 0
494 -11.47284823262158 27.83969704256754 0
495 33.02912939298895 11.6001719898845 0
496 29.54051978813803 5.742519740931964 0
497 -6.782338599621085 -1.382643586591705 0
498 -13.26708722052757 2.94870524080641 0
499 -16.1151431623892 -0.6552977103726212 0
500 -9.630394541482719 -4.986646537770737 0
501 19.05292531093271 8.516281235084435 0
502 24.8174718461329 7.071110021951487 0
503 -3.056820899380908 1.954681188548434 0
504 25.02309218638742 21.15308899793486 0
505 23.36689659624393 25.72797555371221 0
506 23.054124840544 -1.033830050190256 0
507 -10.77242561421631 19.25988914022031 0
508 -8.413796631564546 14.1980556270847 0
509 0.3003538125126583 27.81782820753465 0
510 3.157081738920211 24.61748294171157 0
511 6.923249666768848 28.09467782537431 0
512 4.066521740361296 31.29502309119739 0
513 -14.62506826246044 9.540805439402636 0
514 6.784983340396002 21.77418292046594 0
515 8.971239654204872 25.13352004709654 0
516 7.741563549147942 -8.474502083874082 0
517 5.186370953401187 -11.98855591289557 0
518 -15.27344411096356 -6.843688266948831 0
519 -12.68581142787634 -11.20167138713733 0
520 24.76560863405088 1.172995209621667 0
521 29.48865657605601 -0.155595071397856 0
522 -17.60390801352796 13.24803644098698 0
523 -11.36361433698668 11.94952455191697 0
524 -14.34245408805419 15.65675555350132 0
525 21.16267765333725 4.312121049894786 0
526 10.44007399617201 31.03497160916321 0
527 10.49728285308014 -12.16543957226212 0
528 10.94384429115236 -16.22842781509748 0
529 11.13605697599028 -20.08556785696694 0
530 16.28630407876645 -19.54443815111591 0
531 -2.084346674981028 30.97283747056451 0
532 -7.461118490459315 27.20943819398533 0
533 1.120574579567081 34.83964948292533 0
534 8.508072042860887 35.20633145791462 0
535 13.49671603371137 -23.87921609277141 0
536 7.077216060636685 -22.95730961381051 0
537 -17.98556411124567 -10.19520423497777 0
538 -19.72337756526749 -4.074078452500917 0
539 33.44996866659412 21.98737564280925 0
540 31.1104547781591 17.79601777781245 0
541 35.09598367720871 15.23423655532844 0
542 20.00896926830327 -21.00073272402129 0
543 -5.424302477349753 33.46869865345737 0
544 3.759832594582096 18.56045477134616 0
545 -13.05291868124368 -15.20597168457167 0
546 28.70212478773502 26.60464674378086 0
547 31.24263616523116 -6.708772655622141 0
548 32.88025390085436 -1.279994479091405 0
549 -16.31966240453585 19.29267406638222 0
550 35.41413818829991 -6.269390429946254 0
551 -19.92880256377003 18.01699301190659 0
552 28.79942208955336 22.39251785438267 0
553 0.999999999996025 0.999999999996025 0
554 0.9999999999960252 1.999999999996162 0
555 1.999999999996161 0.9999999999960247 0
556 1.999999999996162 1.999999999996162 0
557 0.999999999996025 0.4999999999980125 0
558 0.4999999999980125 0.999999999996025 0
559 0.999999999996025 1.499999999996093 0
560 0.4999999999980126 1.999999999996162 0
561 0.999999999996025 2.499999999998081 0
562 1.999999999996161 0.4999999999980124 0
563 1.499999999996093 0.999999999996025 0
564 1.999999999996161 1.499999999996093 0
565 1.499999999996093 1.999999999996162 0
566 1.999999999996162 2.499999999998081 0
567 2.499999999998081 0.999999999996025 0
568 2.499999999998081 1.999999999996162 0
569 3.5 0.999999999996025 0
570 3.5 1.999999999996162 0
571 4.999999999999998 0.999999999996025 0
572 4.999999999999998 1.999999999996162 0
573 5.999999999999999 0.9999999999960252 0
574 5.999999999999999 1.999999999996162 0
575 4.999999999999998 0.4999999999980125 0
576 4.499999999999999 0.999999999996025 0
577 4.999999999999998 1.499999999996093 0
578 4.499999999999999 1.999999999996162 0
579 4.999999999999998 2.499999999998081 0
580 5.999999999999999 0.4999999999980126 0
581 5.499999999999999 0.999999999996025 0
582 5.999999999999999 1.499999999996093 0
583 5.499999999999999 1.999999999996162 0
584 5.999999999999999 2.499999999998081 0
585 6.5 0.9999999999960252 0
586 6.5 1.999999999996162 0
587 7.5 0.999999999996025 0
588 7.5 1.999999999996162 0
589 8.999999999970397 0.9999999999960246 0
590 8.999999999970397 1.999999999996162 0
591 9.999999999970395 0.9999999999960247 0
592 9.999999999970395 1.999999999996162 0
593 8.999999999970397 0.4999999999980123 0
594 8.499999999985198 0.9999999999960247 0
595 8.999999999970397 1.499999999996093 0
596 8.499999999985198 1.999999999996162 0
597 8.999999999970397 2.499999999998081 0
598 9.999999999970395 0.4999999999980124 0
599 9.499999999970395 0.9999999999960246 0
600 9.999999999970395 1.499999999996093 0
601 9.499999999970395 1.999999999996162 0
602 9.999999999970395 2.499999999998081 0
603 10.4999999999852 0.999999999996025 0
604 10.4999999999852 1.999999999996162 0
605 11.5 0.999999999996025 0
606 11.5 1.999999999996162 0
607 12.9999999999704 0.9999999999960246 0
608 12.9999999999704 1.999999999996162 0
609 13.9999999999704 0.9999999999960247 0
610 13.9999999999704 1.999999999996162 0
611 12.9999999999704 0.4999999999980123 0
612 12.4999999999852 0.9999999999960247 0
613 12.9999999999704 1.499999999996093 0
614 12.4999999999852 1.999999999996162 0
615 12.9999999999704 2.499999999998081 0
616 13.9999999999704 0.4999999999980124 0
617 13.4999999999704 0.9999999999960246 0
618 13.9999999999704 1.499999999996093 0
619 13.4999999999704 1.999999999996162 0
620 13.9999999999704 2.499999999998081 0
621 14.4999999999852 0.999999999996025 0
622 14.4999999999852 1.999999999996162 0
623 0.999999999996025 3.5 0
624 1.999999999996162 3.5 0
625 4.999999999999998 3.5 0
626 5.999999999999999 3.5 0
627 8.999999999970397 3.5 0
628 9.999999999970395 3.5 0
629 12.9999999999704 3.5 0
630 13.9999999999704 3.5 0
631 0.9999999999960247 5.000000000000002 0
632 0.9999999999960247 6.000000000000002 0
633 0.9999999999960247 7.000000000000002 0
634 0.9999999999960247 8.000000000000002 0
635 1.999999999996162 5.000000000000002 0
636 1.999999999996161 6.000000000000002 0
637 1.999999999996162 7.000000000000002 0
638 1.999999999996162 8.000000000000002 0
639 0.999999999996025 4.500000000000001 0
640 0.4999999999980124 5.000000000000002 0
641 0.9999999999960247 5.500000000000002 0
642 0.4999999999980124 6.000000000000002 0
643 0.9999999999960247 6.500000000000002 0
644 0.4999999999980124 7.000000000000002 0
645 0.9999999999960247 7.500000000000002 0
646 0.4999999999980124 8.000000000000002 0
647 0.999999999996025 8.5 0
648 1.999999999996162 4.500000000000001 0
649 1.499999999996093 5.000000000000002 0
650 1.999999999996161 5.500000000000002 0
651 1.499999999996093 6.000000000000002 0
652 1.999999999996161 6.500000000000002 0
653 1.499999999996093 7.000000000000002 0
654 1.999999999996162 7.500000000000002 0
655 1.499999999996093 8.000000000000002 0
656 1.999999999996162 8.5 0
657 2.499999999998081 5.000000000000002 0
658 2.499999999998081 6.000000000000002 0
659 2.499999999998081 7.000000000000002 0
660 2.499999999998081 8.000000000000002 0
661 3.5 5.000000000000002 0
662 3.5 6.000000000000002 0
663 3.5 7.000000000000002 0
664 3.5 8 0
665 4.999999999999998 5.000000000000002 0
666 4.999999999999998 6.000000000000002 0
667 4.999999999999998 7.000000000000002 0
668 4.999999999999998 8 0
669 5.999999999999999 5.000000000000002 0
670 5.999999999999999 6.000000000000002 0
671 5.999999999999999 7.000000000000002 0
672 5.999999999999999 8 0
673 4.999999999999998 4.500000000000001 0
674 4.499999999999999 5.000000000000002 0
675 4.999999999999998 5.500000000000002 0
676 4.499999999999999 6.000000000000002 0
677 4.999999999999998 6.500000000000002 0
678 4.499999999999999 7.000000000000002 0
679 4.999999999999998 7.500000000000001 0
680 4.499999999999999 8 0
681 4.999999999999998 8.5 0
682 5.999999999999999 4.500000000000001 0
683 5.499999999999999 5.000000000000002 0
684 5.999999999999999 5.500000000000002 0
685 5.499999999999999 6.000000000000002 0
686 5.999999999999999 6.500000000000002 0
687 5.499999999999999 7.000000000000002 0
688 5.999999999999999 7.500000000000001 0
689 5.499999999999998 8 0
690 5.999999999999999 8.5 0
691 6.5 5.000000000000002 0
692 6.5 6.000000000000002 0
693 6.5 7.000000000000002 0
694 6.5 8 0
695 7.5 5.000000000000002 0
696 7.5 6.000000000000002 0
697 7.5 7.000000000000002 0
698 7.5 8 0
699 8.999999999970397 5.000000000000002 0
700 8.999999999970397 6.000000000000002 0
701 8.999999999970397 7.000000000000002 0
702 8.999999999970397 8.000000000000002 0
703 9.999999999970395 5.000000000000002 0
704 9.999999999970395 6.000000000000002 0
705 9.999999999970395 7.000000000000002 0
706 9.999999999970395 8.000000000000002 0
707 8.999999999970397 4.500000000000001 0
708 8.499999999985198 5.000000000000002 0
709 8.999999999970397 5.500000000000002 0
710 8.499999999985198 6.000000000000002 0
711 8.999999999970397 6.500000000000002 0
712 8.499999999985198 7.000000000000002 0
713 8.999999999970397 7.500000000000002 0
714 8.499999999985198 8.000000000000002 0
715 8.999999999970397 8.5 0
716 9.999999999970395 4.500000000000001 0
717 9.499999999970397 5.000000000000002 0
718 9.999999999970395 5.500000000000002 0
719 9.499999999970395 6.000000000000002 0
720 9.999999999970395 6.500000000000002 0
721 9.499999999970395 7.000000000000002 0
722 9.999999999970395 7.500000000000002 0
723 9.499999999970395 8.000000000000002 0
724 9.999999999970395 8.5 0
725 10.4999999999852 5.000000000000002 0
726 10.4999999999852 6.000000000000002 0
727 10.4999999999852 7.000000000000002 0
728 10.4999999999852 8.000000000000002 0
729 11.5 5.000000000000002 0
730 11.5 6.000000000000002 0
731 11.5 7.000000000000002 0
732 11.5 8 0
733 12.9999999999704 5.000000000000002 0
734 12.9999999999704 6.000000000000002 0
735 12.9999999999704 7.000000000000002 0
736 12.9999999999704 8.000000000000002 0
737 13.9999999999704 5.000000000000002 0
738 13.9999999999704 6.000000000000002 0
739 13.9999999999704 7.000000000000002 0
740 13.9999999999704 8.000000000000002 0
741 12.9999999999704 4.500000000000001 0
742 12.4999999999852 5.000000000000002 0
743 12.9999999999704 5.500000000000002 0
744 12.4999999999852 6.000000000000002 0
745 12.9999999999704 6.500000000000002 0
746 12.4999999999852 7.000000000000002 0
747 12.9999999999704 7.500000000000002 0
748 12.4999999999852 8.000000000000002 0
749 12.9999999999704 8.5 0
750 13.9999999999704 4.500000000000001 0
751 13.4999999999704 5.000000000000002 0
752 13.9999999999704 5.500000000000002 0
753 13.4999999999704 6.000000000000002 0
754 13.9999999999704 6.500000000000002 0
755 13.4999999999704 7.000000000000002 0
756 13.9999999999704 7.500000000000002 0
757 13.4999999999704 8.000000000000002 0
758 13.9999999999704 8.5 0
759 14.4999999999852 5.000000000000002 0
760 14.4999999999852 6.000000000000002 0
761 14.4999999999852 7.000000000000002 0
762 14.4999999999852 8.000000000000002 0
763 0.999999999996025 9.999999999970397 0
764 0.9999999999960252 10.9999999999704 0
765 1.999999999996162 9.999999999970397 0
766 1.999999999996162 10.9999999999704 0
767 0.999999999996025 9.499999999985198 0
768 0.4999999999980125 9.999999999970397 0
769 0.999999999996025 10.4999999999704 0
770 0.4999999999980126 10.9999999999704 0
771 0.999999999996025 11.4999999999852 0
772 1.999999999996162 9.499999999985198 0
773 1.499999999996093 9.999999999970397 0
774 1.999999999996162 10.4999999999704 0
775 1.499999999996093 10.9999999999704 0
776 1.999999999996162 11.4999999999852 0
777 2.499999999998081 9.999999999970397 0
778 2.499999999998081 10.9999999999704 0
779 3.5 9.999999999970397 0
780 3.5 10.9999999999704 0
781 4.999999999999998 9.999999999970397 0
782 4.999999999999998 10.9999999999704 0
783 6 9.999999999970397 0
784 5.999999999999999 10.9999999999704 0
785 4.999999999999998 9.499999999985198 0
786 4.499999999999999 9.999999999970397 0
787 4.999999999999998 10.4999999999704 0
788 4.499999999999999 10.9999999999704 0
789 4.999999999999998 11.4999999999852 0
790 6 9.499999999985198 0
791 5.499999999999999 9.999999999970397 0
792 6 10.4999999999704 0
793 5.499999999999999 10.9999999999704 0
794 5.999999999999999 11.4999999999852 0
795 6.5 9.999999999970397 0
796 6.5 10.9999999999704 0
797 7.5 9.999999999970397 0
798 7.5 10.9999999999704 0
799 8.999999999970397 9.999999999970397 0
800 8.999999999970397 10.9999999999704 0
801 9.999999999970395 9.999999999970397 0
802 9.999999999970395 10.9999999999704 0
803 8.999999999970397 9.499999999985198 0
804 8.499999999985198 9.999999999970397 0
805 8.999999999970397 10.4999999999704 0
806 8.499999999985198 10.9999999999704 0
807 8.999999999970397 11.4999999999852 0
808 9.999999999970395 9.499999999985198 0
809 9.499999999970397 9.999999999970397 0
810 9.999999999970395 10.4999999999704 0
811 9.499999999970395 10.9999999999704 0
812 9.999999999970395 11.4999999999852 0
813 10.4999999999852 9.999999999970397 0
814 10.4999999999852 10.9999999999704 0
815 11.5 9.999999999970397 0
816 11.5 10.9999999999704 0
817 12.9999999999704 9.999999999970397 0
818 12.9999999999704 10.9999999999704 0
819 13.9999999999704 9.999999999970397 0
820 13.9999999999704 10.9999999999704 0
821 12.9999999999704 9.499999999985198 0
822 12.4999999999852 9.999999999970397 0
823 12.9999999999704 10.4999999999704 0
824 12.4999999999852 10.9999999999704 0
825 12.9999999999704 11.4999999999852 0
826 13.9999999999704 9.499999999985198 0
827 13.4999999999704 9.999999999970397 0
828 13.9999999999704 10.4999999999704 0
829 13.4999999999704 10.9999999999704 0
830 13.9999999999704 11.4999999999852 0
831 14.4999999999852 9.999999999970397 0
832 14.4999999999852 10.9999999999704 0
$EndNodes
$Elements
311
1 8 2 1 1 1 42 43
2 8 2 1 1 42 2 44
3 8 2 2 2 2 45 46
4 8 2 2 2 45 3 47
5 8 2 3 3 3 48 49
6 8 2 3 3 48 4 50
7 8 2 4 4 4 51 52
8 8 2 4 4 51 1 53
9 8 2 10 30 1 105 107
10 8 2 10 30 105 106 108
11 8 2 10 30 106 6 109
12 8 2 10 31 6 7 110
13 8 2 10 32 7 111 113
14 8 2 10 32 111 112 114
15 8 2 10 32 112 8 115
16 8 2 10 33 8 9 116
17 8 2 10 34 9 117 119
18 8 2 10 34 117 118 120
19 8 2 10 34 118 10 121
20 8 2 10 35 10 11 122
21 8 2 10 36 11 123 125
22 8 2 10 36 123 124 126
23 8 2 10 36 124 2 127
24 8 2 8 38 1 133 135
25 8 2 8 38 133 134 136
26 8 2 8 38 134 12 137
27 8 2 9 63 2 186 188
28 8 2 9 63 186 187 189
29 8 2 9 63 187 19 190
30 8 2 8 66 12 20 196
31 8 2 9 91 19 27 221
32 8 2 8 94 20 227 231
33 8 2 8 94 227 228 232
34 8 2 8 94 228 229 233
35 8 2 8 94 229 230 234
36 8 2 8 94 230 28 235
37 8 2 9 119 27 308 312
38 8 2 9 119 308 309 313
39 8 2 9 119 309 310 314
40 8 2 9 119 310 311 315
41 8 2 9 119 311 35 316
42 8 2 11 121 4 317 319
43 8 2 11 121 317 318 320
44 8 2 11 121 318 36 321
45 8 2 8 122 28 322 324
46 8 2 8 122 322 323 325
47 8 2 8 122 323 4 326
48 8 2 11 125 36 37 332
49 8 2 11 129 37 338 340
50 8 2 11 129 338 339 341
51 8 2 11 129 339 38 342
52 8 2 11 133 38 39 348
53 8 2 11 137 39 354 356
54 8 2 11 137 354 355 357
55 8 2 11 137 355 40 358
56 8 2 11 141 40 41 364
57 8 2 11 145 41 370 372
58 8 2 11 145 370 371 373
59 8 2 11 145 371 3 374
60 8 2 9 147 35 375 377
61 8 2 9 147 375 376 378
62 8 2 9 147 376 3 379
63 16 2 5 8 380 401 388 407 432 433 434 435
64 16 2 5 8 71 72 411 394 97 436 437 438
65 16 2 5 8 58 59 410 393 84 439 440 441
66 16 2 5 8 3 407 388 405 442 434 443 444
67 16 2 5 8 390 400 395 384 445 446 447 448
68 16 2 5 8 5 54 412 403 79 449 450 451
69 16 2 5 8 66 67 413 404 92 452 453 454
70 16 2 5 8 425 394 383 406 455 456 457 458
71 16 2 5 8 399 2 42 396 459 44 460 461
72 16 2 5 8 45 2 430 391 46 462 463 464
73 16 2 5 8 51 4 431 392 52 465 466 467
74 16 2 5 8 419 392 429 381 468 469 470 471
75 16 2 5 8 399 389 414 386 472 473 474 475
76 16 2 5 8 399 385 409 389 476 477 478 472
77 16 2 5 8 405 393 410 382 479 440 480 481
78 16 2 5 8 405 416 48 3 482 483 49 444
79 16 2 5 8 406 396 42 1 484 460 43 485
80 16 2 5 8 395 400 431 4 446 486 465 487
81 16 2 5 8 394 411 397 383 437 488 489 456
82 16 2 5 8 76 77 414 389 102 490 473 491
83 16 2 5 8 63 64 415 390 89 492 493 494
84 16 2 5 8 403 412 401 380 450 495 432 496
85 16 2 5 8 406 381 413 402 497 498 499 500
86 16 2 5 8 380 407 3 428 435 442 501 502
87 16 2 5 8 381 406 1 419 497 485 503 471
88 16 2 5 8 405 388 424 393 443 504 505 479
89 16 2 5 8 2 399 386 430 459 475 506 462
90 16 2 5 8 390 387 431 400 507 508 486 445
91 16 2 5 8 423 384 421 398 509 510 511 512
92 16 2 5 8 413 381 429 404 498 470 513 453
93 16 2 5 8 421 416 405 382 514 482 481 515
94 16 2 5 8 420 396 406 383 516 484 457 517
95 16 2 5 8 406 402 418 425 500 518 519 458
96 16 2 5 8 380 428 386 403 502 520 521 496
97 16 2 5 8 427 404 429 387 522 513 523 524
98 16 2 5 8 430 386 428 391 506 520 525 463
99 16 2 5 8 431 387 429 392 508 523 469 466
100 16 2 5 8 391 428 3 45 525 501 47 464
101 16 2 5 8 392 419 1 51 468 503 53 467
102 16 2 5 8 410 398 421 382 526 511 515 480
103 16 2 5 8 385 420 383 397 527 517 489 528
104 16 2 5 8 397 422 409 385 529 530 477 528
105 16 2 5 8 390 384 423 408 448 509 531 532
106 16 2 5 8 60 61 423 398 86 533 512 534
107 16 2 5 8 73 74 422 397 99 535 529 536
108 16 2 5 8 68 69 418 402 94 537 518 538
109 16 2 5 8 55 56 417 401 81 539 540 541
110 16 2 5 8 398 410 59 60 526 439 85 534
111 16 2 5 8 397 411 72 73 488 436 98 536
112 16 2 5 8 389 409 75 76 478 542 101 491
113 16 2 5 8 390 408 62 63 532 543 88 494
114 16 2 5 8 401 412 54 55 495 449 80 541
115 16 2 5 8 402 413 67 68 499 452 93 538
116 16 2 5 8 4 48 416 395 50 483 544 487
117 16 2 5 8 416 421 384 395 514 510 447 544
118 16 2 5 8 399 396 420 385 461 516 527 476
119 16 2 5 8 394 425 70 71 455 545 96 438
120 16 2 5 8 393 424 57 58 505 546 83 441
121 16 2 5 8 403 386 414 426 521 474 547 548
122 16 2 5 8 390 415 427 387 493 549 524 507
123 16 2 5 8 403 426 78 5 548 550 104 451
124 16 2 5 8 404 427 65 66 522 551 91 454
125 16 2 5 8 401 417 424 388 540 552 504 433
126 16 2 5 8 61 62 408 423 87 543 531 533
127 16 2 5 8 74 75 409 422 100 542 530 535
128 16 2 5 8 69 70 425 418 95 545 519 537
129 16 2 5 8 56 57 424 417 82 546 552 539
130 16 2 5 8 77 78 426 414 103 550 547 490
131 16 2 5 8 64 65 427 415 90 551 549 492
132 16 2 7 40 1 105 553 133 107 557 558 135
133 16 2 7 40 133 553 554 134 558 559 560 136
134 16 2 7 40 134 554 128 12 560 561 130 137
135 16 2 7 40 105 106 555 553 108 562 563 557
136 16 2 7 40 553 555 556 554 563 564 565 559
137 16 2 7 40 554 556 129 128 565 566 131 561
138 16 2 7 40 106 6 138 555 109 140 567 562
139 16 2 7 40 555 138 139 556 567 141 568 564
140 16 2 7 40 556 139 13 129 568 142 132 566
141 16 2 7 44 6 7 144 138 110 146 569 140
142 16 2 7 44 138 144 145 139 569 147 570 141
143 16 2 7 44 139 145 14 13 570 148 143 142
144 16 2 7 48 7 111 571 144 113 575 576 146
145 16 2 7 48 144 571 572 145 576 577 578 147
146 16 2 7 48 145 572 149 14 578 579 151 148
147 16 2 7 48 111 112 573 571 114 580 581 575
148 16 2 7 48 571 573 574 572 581 582 583 577
149 16 2 7 48 572 574 150 149 583 584 152 579
150 16 2 7 48 112 8 154 573 115 156 585 580
151 16 2 7 48 573 154 155 574 585 157 586 582
152 16 2 7 48 574 155 15 150 586 158 153 584
153 16 2 7 52 8 9 160 154 116 162 587 156
154 16 2 7 52 154 160 161 155 587 163 588 157
155 16 2 7 52 155 161 16 15 588 164 159 158
156 16 2 7 56 9 117 589 160 119 593 594 162
157 16 2 7 56 160 589 590 161 594 595 596 163
158 16 2 7 56 161 590 165 16 596 597 167 164
159 16 2 7 56 117 118 591 589 120 598 599 593
160 16 2 7 56 589 591 592 590 599 600 601 595
161 16 2 7 56 590 592 166 165 601 602 168 597
162 16 2 7 56 118 10 170 591 121 172 603 598
163 16 2 7 56 591 170 171 592 603 173 604 600
164 16 2 7 56 592 171 17 166 604 174 169 602
165 16 2 7 60 10 11 176 170 122 178 605 172
166 16 2 7 60 170 176 177 171 605 179 606 173
167 16 2 7 60 171 177 18 17 606 180 175 174
168 16 2 7 64 11 123 607 176 125 611 612 178
169 16 2 7 64 176 607 608 177 612 613 614 179
170 16 2 7 64 177 608 181 18 614 615 183 180
171 16 2 7 64 123 124 609 607 126 616 617 611
172 16 2 7 64 607 609 610 608 617 618 619 613
173 16 2 7 64 608 610 182 181 619 620 184 615
174 16 2 7 64 124 2 186 609 127 188 621 616
175 16 2 7 64 609 186 187 610 621 189 622 618
176 16 2 7 64 610 187 19 182 622 190 185 620
177 16 2 7 68 12 128 191 20 130 623 193 196
178 16 2 7 68 128 129 192 191 131 624 194 623
179 16 2 7 68 129 13 21 192 132 197 195 624
180 16 2 6 72 13 14 22 21 143 199 198 197
181 16 2 6 76 14 149 200 22 151 625 202 199
182 16 2 6 76 149 150 201 200 152 626 203 625
183 16 2 6 76 150 15 23 201 153 205 204 626
184 16 2 6 80 15 16 24 23 159 207 206 205
185 16 2 6 84 16 165 208 24 167 627 210 207
186 16 2 6 84 165 166 209 208 168 628 211 627
187 16 2 6 84 166 17 25 209 169 213 212 628
188 16 2 6 88 17 18 26 25 175 215 214 213
189 16 2 7 92 18 181 216 26 183 629 218 215
190 16 2 7 92 181 182 217 216 184 630 219 629
191 16 2 7 92 182 19 27 217 185 221 220 630
192 16 2 7 96 20 191 631 227 193 639 640 231
193 16 2 7 96 227 631 632 228 640 641 642 232
194 16 2 7 96 228 632 633 229 642 643 644 233
195 16 2 7 96 229 633 634 230 644 645 646 234
196 16 2 7 96 230 634 222 28 646 647 224 235
197 16 2 7 96 191 192 635 631 194 648 649 639
198 16 2 7 96 631 635 636 632 649 650 651 641
199 16 2 7 96 632 636 637 633 651 652 653 643
200 16 2 7 96 633 637 638 634 653 654 655 645
201 16 2 7 96 634 638 223 222 655 656 225 647
202 16 2 7 96 192 21 236 635 195 240 657 648
203 16 2 7 96 635 236 237 636 657 241 658 650
204 16 2 7 96 636 237 238 637 658 242 659 652
205 16 2 7 96 637 238 239 638 659 243 660 654
206 16 2 7 96 638 239 29 223 660 244 226 656
207 16 2 6 100 21 22 246 236 198 250 661 240
208 16 2 6 100 236 246 247 237 661 251 662 241
209 16 2 6 100 237 247 248 238 662 252 663 242
210 16 2 6 100 238 248 249 239 663 253 664 243
211 16 2 6 100 239 249 30 29 664 254 245 244
212 16 2 7 104 22 200 665 246 202 673 674 250
213 16 2 7 104 246 665 666 247 674 675 676 251
214 16 2 7 104 247 666 667 248 676 677 678 252
215 16 2 7 104 248 667 668 249 678 679 680 253
216 16 2 7 104 249 668 255 30 680 681 257 254
217 16 2 7 104 200 201 669 665 203 682 683 673
218 16 2 7 104 665 669 670 666 683 684 685 675
219 16 2 7 104 666 670 671 667 685 686 687 677
220 16 2 7 104 667 671 672 668 687 688 689 679
221 16 2 7 104 668 672 256 255 689 690 258 681
222 16 2 7 104 201 23 260 669 204 264 691 682
223 16 2 7 104 669 260 261 670 691 265 692 684
224 16 2 7 104 670 261 262 671 692 266 693 686
225 16 2 7 104 671 262 263 672 693 267 694 688
226 16 2 7 104 672 263 31 256 694 268 259 690
227 16 2 6 108 23 24 270 260 206 274 695 264
228 16 2 6 108 260 270 271 261 695 275 696 265
229 16 2 6 108 261 271 272 262 696 276 697 266
230 16 2 6 108 262 272 273 263 697 277 698 267
231 16 2 6 108 263 273 32 31 698 278 269 268
232 16 2 7 112 24 208 699 270 210 707 708 274
233 16 2 7 112 270 699 700 271 708 709 710 275
234 16 2 7 112 271 700 701 272 710 711 712 276
235 16 2 7 112 272 701 702 273 712 713 714 277
236 16 2 7 112 273 702 279 32 714 715 281 278
237 16 2 7 112 208 209 703 699 211 716 717 707
238 16 2 7 112 699 703 704 700 717 718 719 709
239 16 2 7 112 700 704 705 701 719 720 721 711
240 16 2 7 112 701 705 706 702 721 722 723 713
241 16 2 7 112 702 706 280 279 723 724 282 715
242 16 2 7 112 209 25 284 703 212 288 725 716
243 16 2 7 112 703 284 285 704 725 289 726 718
244 16 2 7 112 704 285 286 705 726 290 727 720
245 16 2 7 112 705 286 287 706 727 291 728 722
246 16 2 7 112 706 287 33 280 728 292 283 724
247 16 2 6 116 25 26 294 284 214 298 729 288
248 16 2 6 116 284 294 295 285 729 299 730 289
249 16 2 6 116 285 295 296 286 730 300 731 290
250 16 2 6 116 286 296 297 287 731 301 732 291
251 16 2 6 116 287 297 34 33 732 302 293 292
252 16 2 7 120 26 216 733 294 218 741 742 298
253 16 2 7 120 294 733 734 295 742 743 744 299
254 16 2 7 120 295 734 735 296 744 745 746 300
255 16 2 7 120 296 735 736 297 746 747 748 301
256 16 2 7 120 297 736 303 34 748 749 305 302
257 16 2 7 120 216 217 737 733 219 750 751 741
258 16 2 7 120 733 737 738 734 751 752 753 743
259 16 2 7 120 734 738 739 735 753 754 755 745
260 16 2 7 120 735 739 740 736 755 756 757 747
261 16 2 7 120 736 740 304 303 757 758 306 749
262 16 2 7 120 217 27 308 737 220 312 759 750
263 16 2 7 120 737 308 309 738 759 313 760 752
264 16 2 7 120 738 309 310 739 760 314 761 754
265 16 2 7 120 739 310 311 740 761 315 762 756
266 16 2 7 120 740 311 35 304 762 316 307 758
267 16 2 7 124 28 222 763 322 224 767 768 324
268 16 2 7 124 322 763 764 323 768 769 770 325
269 16 2 7 124 323 764 317 4 770 771 319 326
270 16 2 7 124 222 223 765 763 225 772 773 767
271 16 2 7 124 763 765 766 764 773 774 775 769
272 16 2 7 124 764 766 318 317 775 776 320 771
273 16 2 7 124 223 29 327 765 226 329 777 772
274 16 2 7 124 765 327 328 766 777 330 778 774
275 16 2 7 124 766 328 36 318 778 331 321 776
276 16 2 7 128 29 30 333 327 245 335 779 329
277 16 2 7 128 327 333 334 328 779 336 780 330
278 16 2 7 128 328 334 37 36 780 337 332 331
279 16 2 7 132 30 255 781 333 257 785 786 335
280 16 2 7 132 333 781 782 334 786 787 788 336
281 16 2 7 132 334 782 338 37 788 789 340 337
282 16 2 7 132 255 256 783 781 258 790 791 785
283 16 2 7 132 781 783 784 782 791 792 793 787
284 16 2 7 132 782 784 339 338 793 794 341 789
285 16 2 7 132 256 31 343 783 259 345 795 790
286 16 2 7 132 783 343 344 784 795 346 796 792
287 16 2 7 132 784 344 38 339 796 347 342 794
288 16 2 7 136 31 32 349 343 269 351 797 345
289 16 2 7 136 343 349 350 344 797 352 798 346
290 16 2 7 136 344 350 39 38 798 353 348 347
291 16 2 7 140 32 279 799 349 281 803 804 351
292 16 2 7 140 349 799 800 350 804 805 806 352
293 16 2 7 140 350 800 354 39 806 807 356 353
294 16 2 7 140 279 280 801 799 282 808 809 803
295 16 2 7 140 799 801 802 800 809 810 811 805
296 16 2 7 140 800 802 355 354 811 812 357 807
297 16 2 7 140 280 33 359 801 283 361 813 808
298 16 2 7 140 801 359 360 802 813 362 814 810
299 16 2 7 140 802 360 40 355 814 363 358 812
300 16 2 7 144 33 34 365 359 293 367 815 361
301 16 2 7 144 359 365 366 360 815 368 816 362
302 16 2 7 144 360 366 41 40 816 369 364 363
303 16 2 7 148 34 303 817 365 305 821 822 367
304 16 2 7 148 365 817 818 366 822 823 824 368
305 16 2 7 148 366 818 370 41 824 825 372 369
306 16 2 7 148 303 304 819 817 306 826 827 821
307 16 2 7 148 817 819 820 818 827 828 829 823
308 16 2 7 148 818 820 371 370 829 830 373 825
309 16 2 7 148 304 35 375 819 307 377 831 826
310 16 2 7 148 819 375 376 820 831 378 832 828
311 16 2 7 148 820 376 3 371 832 379 374 830
$EndElements
