   1.0000000e+02  -1.6603669e+01
   1.1000000e+02  -1.4908701e+01
   1.2000000e+02  -1.3526627e+01
   1.3000000e+02  -1.2379470e+01
   1.4000000e+02  -1.1412916e+01
   1.5000000e+02  -1.0588029e+01
   1.6000000e+02  -9.8762043e+00
   1.7000000e+02  -9.2559804e+00
   1.8000000e+02  -8.7109518e+00
   1.9000000e+02  -8.2283744e+00
   2.0000000e+02  -7.7982044e+00
   2.1000000e+02  -7.4124233e+00
   2.2000000e+02  -7.0645555e+00
   2.3000000e+02  -6.7493163e+00
   2.4000000e+02  -6.4623520e+00
   2.5000000e+02  -6.2000446e+00
   2.6000000e+02  -5.9593638e+00
   2.7000000e+02  -5.7377526e+00
   2.8000000e+02  -5.5330393e+00
   2.9000000e+02  -5.3433680e+00
   3.0000000e+02  -5.1671431e+00
   3.1000000e+02  -5.0029856e+00
   3.2000000e+02  -4.8496981e+00
   3.3000000e+02  -4.7062356e+00
   3.4000000e+02  -4.5716820e+00
   3.5000000e+02  -4.4452315e+00
   3.6000000e+02  -4.3261721e+00
   3.7000000e+02  -4.2138723e+00
   3.8000000e+02  -4.1077705e+00
   3.9000000e+02  -4.0073653e+00
   4.0000000e+02  -3.9122080e+00
   4.1000000e+02  -3.8218953e+00
   4.2000000e+02  -3.7360645e+00
   4.3000000e+02  -3.6543878e+00
   4.4000000e+02  -3.5765687e+00
   4.5000000e+02  -3.5023381e+00
   4.6000000e+02  -3.4314516e+00
   4.7000000e+02  -3.3636860e+00
   4.8000000e+02  -3.2988379e+00
   4.9000000e+02  -3.2367211e+00
   5.0000000e+02  -3.1771647e+00
   5.1000000e+02  -3.1200120e+00
   5.2000000e+02  -3.0651188e+00
   5.3000000e+02  -3.0123520e+00
   5.4000000e+02  -2.9615889e+00
   5.5000000e+02  -2.9127162e+00
   5.6000000e+02  -2.8656288e+00
   5.7000000e+02  -2.8202292e+00
   5.8000000e+02  -2.7764271e+00
   5.9000000e+02  -2.7341384e+00
   6.0000000e+02  -2.6932849e+00
   6.1000000e+02  -2.6537935e+00
   6.2000000e+02  -2.6155961e+00
   6.3000000e+02  -2.5786293e+00
   6.4000000e+02  -2.5428335e+00
   6.5000000e+02  -2.5081529e+00
   6.6000000e+02  -2.4745354e+00
   6.7000000e+02  -2.4419319e+00
   6.8000000e+02  -2.4102964e+00
   6.9000000e+02  -2.3795857e+00
   7.0000000e+02  -2.3497589e+00
   7.1000000e+02  -2.3207778e+00
   7.2000000e+02  -2.2926062e+00
   7.3000000e+02  -2.2652100e+00
   7.4000000e+02  -2.2385568e+00
   7.5000000e+02  -2.2126164e+00
   7.6000000e+02  -2.1873598e+00
   7.7000000e+02  -2.1627598e+00
   7.8000000e+02  -2.1387906e+00
   7.9000000e+02  -2.1154277e+00
   8.0000000e+02  -2.0926478e+00
   8.1000000e+02  -2.0704289e+00
   8.2000000e+02  -2.0487500e+00
   8.3000000e+02  -2.0275914e+00
   8.4000000e+02  -2.0069339e+00
   8.5000000e+02  -1.9867596e+00
   8.6000000e+02  -1.9670513e+00
   8.7000000e+02  -1.9477926e+00
   8.8000000e+02  -1.9289680e+00
   8.9000000e+02  -1.9105626e+00
   9.0000000e+02  -1.8925622e+00
   9.1000000e+02  -1.8749532e+00
   9.2000000e+02  -1.8577226e+00
   9.3000000e+02  -1.8408581e+00
   9.4000000e+02  -1.8243479e+00
   9.5000000e+02  -1.8081804e+00
   9.6000000e+02  -1.7923451e+00
   9.7000000e+02  -1.7768313e+00
   9.8000000e+02  -1.7616291e+00
   9.9000000e+02  -1.7467291e+00
   1.0000000e+03  -1.7321219e+00
   1.0100000e+03  -1.7177989e+00
   1.0200000e+03  -1.7037516e+00
   1.0300000e+03  -1.6899718e+00
   1.0400000e+03  -1.6764518e+00
   1.0500000e+03  -1.6631840e+00
   1.0600000e+03  -1.6501614e+00
   1.0700000e+03  -1.6373769e+00
   1.0800000e+03  -1.6248238e+00
   1.0900000e+03  -1.6124959e+00
   1.1000000e+03  -1.6003867e+00
   1.1100000e+03  -1.5884906e+00
   1.1200000e+03  -1.5768015e+00
   1.1300000e+03  -1.5653142e+00
   1.1400000e+03  -1.5540231e+00
   1.1500000e+03  -1.5429232e+00
   1.1600000e+03  -1.5320095e+00
   1.1700000e+03  -1.5212772e+00
   1.1800000e+03  -1.5107217e+00
   1.1900000e+03  -1.5003385e+00
   1.2000000e+03  -1.4901232e+00
   1.2100000e+03  -1.4800718e+00
   1.2200000e+03  -1.4701801e+00
   1.2300000e+03  -1.4604442e+00
   1.2400000e+03  -1.4508605e+00
   1.2500000e+03  -1.4414251e+00
   1.2600000e+03  -1.4321347e+00
   1.2700000e+03  -1.4229857e+00
   1.2800000e+03  -1.4139748e+00
   1.2900000e+03  -1.4050989e+00
   1.3000000e+03  -1.3963548e+00
   1.3100000e+03  -1.3877396e+00
   1.3200000e+03  -1.3792502e+00
   1.3300000e+03  -1.3708838e+00
   1.3400000e+03  -1.3626377e+00
   1.3500000e+03  -1.3545093e+00
   1.3600000e+03  -1.3464959e+00
   1.3700000e+03  -1.3385951e+00
   1.3800000e+03  -1.3308043e+00
   1.3900000e+03  -1.3231212e+00
   1.4000000e+03  -1.3155436e+00
   1.4100000e+03  -1.3080692e+00
   1.4200000e+03  -1.3006957e+00
   1.4300000e+03  -1.2934212e+00
   1.4400000e+03  -1.2862436e+00
   1.4500000e+03  -1.2791608e+00
   1.4600000e+03  -1.2721710e+00
   1.4700000e+03  -1.2652721e+00
   1.4800000e+03  -1.2584626e+00
   1.4900000e+03  -1.2517404e+00
   1.5000000e+03  -1.2451039e+00
   1.5100000e+03  -1.2385514e+00
   1.5200000e+03  -1.2320813e+00
   1.5300000e+03  -1.2256919e+00
   1.5400000e+03  -1.2193817e+00
   1.5500000e+03  -1.2131492e+00
   1.5600000e+03  -1.2069929e+00
   1.5700000e+03  -1.2009113e+00
   1.5800000e+03  -1.1949031e+00
   1.5900000e+03  -1.1889669e+00
   1.6000000e+03  -1.1831012e+00
   1.6100000e+03  -1.1773050e+00
   1.6200000e+03  -1.1715767e+00
   1.6300000e+03  -1.1659154e+00
   1.6400000e+03  -1.1603196e+00
   1.6500000e+03  -1.1547882e+00
   1.6600000e+03  -1.1493202e+00
   1.6700000e+03  -1.1439143e+00
   1.6800000e+03  -1.1385695e+00
   1.6900000e+03  -1.1332846e+00
   1.7000000e+03  -1.1280588e+00
   1.7100000e+03  -1.1228908e+00
   1.7200000e+03  -1.1177798e+00
   1.7300000e+03  -1.1127247e+00
   1.7400000e+03  -1.1077247e+00
   1.7500000e+03  -1.1027787e+00
   1.7600000e+03  -1.0978859e+00
   1.7700000e+03  -1.0930453e+00
   1.7800000e+03  -1.0882562e+00
   1.7900000e+03  -1.0835176e+00
   1.8000000e+03  -1.0788288e+00
   1.8100000e+03  -1.0741889e+00
   1.8200000e+03  -1.0695971e+00
   1.8300000e+03  -1.0650527e+00
   1.8400000e+03  -1.0605549e+00
   1.8500000e+03  -1.0561029e+00
   1.8600000e+03  -1.0516960e+00
   1.8700000e+03  -1.0473336e+00
   1.8800000e+03  -1.0430148e+00
   1.8900000e+03  -1.0387391e+00
   1.9000000e+03  -1.0345058e+00
   1.9100000e+03  -1.0303142e+00
   1.9200000e+03  -1.0261636e+00
   1.9300000e+03  -1.0220535e+00
   1.9400000e+03  -1.0179832e+00
   1.9500000e+03  -1.0139522e+00
   1.9600000e+03  -1.0099598e+00
   1.9700000e+03  -1.0060054e+00
   1.9800000e+03  -1.0020886e+00
   1.9900000e+03  -9.9820865e-01
   2.0000000e+03  -9.9436514e-01
   2.0100000e+03  -9.9055750e-01
   2.0200000e+03  -9.8678521e-01
   2.0300000e+03  -9.8304775e-01
   2.0400000e+03  -9.7934463e-01
   2.0500000e+03  -9.7567535e-01
   2.0600000e+03  -9.7203943e-01
   2.0700000e+03  -9.6843639e-01
   2.0800000e+03  -9.6486578e-01
   2.0900000e+03  -9.6132713e-01
   2.1000000e+03  -9.5782001e-01
   2.1100000e+03  -9.5434396e-01
   2.1200000e+03  -9.5089857e-01
   2.1300000e+03  -9.4748341e-01
   2.1400000e+03  -9.4409807e-01
   2.1500000e+03  -9.4074213e-01
   2.1600000e+03  -9.3741521e-01
   2.1700000e+03  -9.3411690e-01
   2.1800000e+03  -9.3084683e-01
   2.1900000e+03  -9.2760462e-01
   2.2000000e+03  -9.2438989e-01
   2.2100000e+03  -9.2120229e-01
   2.2200000e+03  -9.1804145e-01
   2.2300000e+03  -9.1490703e-01
   2.2400000e+03  -9.1179867e-01
   2.2500000e+03  -9.0871605e-01
   2.2600000e+03  -9.0565882e-01
   2.2700000e+03  -9.0262666e-01
   2.2800000e+03  -8.9961925e-01
   2.2900000e+03  -8.9663628e-01
   2.3000000e+03  -8.9367743e-01
   2.3100000e+03  -8.9074239e-01
   2.3200000e+03  -8.8783087e-01
   2.3300000e+03  -8.8494258e-01
   2.3400000e+03  -8.8207721e-01
   2.3500000e+03  -8.7923450e-01
   2.3600000e+03  -8.7641416e-01
   2.3700000e+03  -8.7361590e-01
   2.3800000e+03  -8.7083947e-01
   2.3900000e+03  -8.6808460e-01
   2.4000000e+03  -8.6535102e-01
   2.4100000e+03  -8.6263847e-01
   2.4200000e+03  -8.5994671e-01
   2.4300000e+03  -8.5727548e-01
   2.4400000e+03  -8.5462454e-01
   2.4500000e+03  -8.5199365e-01
   2.4600000e+03  -8.4938257e-01
   2.4700000e+03  -8.4679106e-01
   2.4800000e+03  -8.4421890e-01
   2.4900000e+03  -8.4166586e-01
   2.5000000e+03  -8.3913171e-01
   2.5100000e+03  -8.3661625e-01
   2.5200000e+03  -8.3411924e-01
   2.5300000e+03  -8.3164049e-01
   2.5400000e+03  -8.2917978e-01
   2.5500000e+03  -8.2673690e-01
   2.5600000e+03  -8.2431166e-01
   2.5700000e+03  -8.2190385e-01
   2.5800000e+03  -8.1951328e-01
   2.5900000e+03  -8.1713975e-01
   2.6000000e+03  -8.1478307e-01
   2.6100000e+03  -8.1244306e-01
   2.6200000e+03  -8.1011953e-01
   2.6300000e+03  -8.0781230e-01
   2.6400000e+03  -8.0552118e-01
   2.6500000e+03  -8.0324601e-01
   2.6600000e+03  -8.0098661e-01
   2.6700000e+03  -7.9874281e-01
   2.6800000e+03  -7.9651443e-01
   2.6900000e+03  -7.9430132e-01
   2.7000000e+03  -7.9210330e-01
   2.7100000e+03  -7.8992022e-01
   2.7200000e+03  -7.8775192e-01
   2.7300000e+03  -7.8559824e-01
   2.7400000e+03  -7.8345902e-01
   2.7500000e+03  -7.8133411e-01
   2.7600000e+03  -7.7922337e-01
   2.7700000e+03  -7.7712664e-01
   2.7800000e+03  -7.7504378e-01
   2.7900000e+03  -7.7297465e-01
   2.8000000e+03  -7.7091910e-01
   2.8100000e+03  -7.6887699e-01
   2.8200000e+03  -7.6684818e-01
   2.8300000e+03  -7.6483254e-01
   2.8400000e+03  -7.6282994e-01
   2.8500000e+03  -7.6084023e-01
   2.8600000e+03  -7.5886330e-01
   2.8700000e+03  -7.5689901e-01
   2.8800000e+03  -7.5494724e-01
   2.8900000e+03  -7.5300786e-01
   2.9000000e+03  -7.5108074e-01
   2.9100000e+03  -7.4916577e-01
   2.9200000e+03  -7.4726282e-01
   2.9300000e+03  -7.4537177e-01
   2.9400000e+03  -7.4349252e-01
   2.9500000e+03  -7.4162494e-01
   2.9600000e+03  -7.3976891e-01
   2.9700000e+03  -7.3792434e-01
   2.9800000e+03  -7.3609110e-01
   2.9900000e+03  -7.3426908e-01
   3.0000000e+03  -7.3245819e-01
   3.0100000e+03  -7.3065830e-01
   3.0200000e+03  -7.2886932e-01
   3.0300000e+03  -7.2709115e-01
   3.0400000e+03  -7.2532367e-01
   3.0500000e+03  -7.2356679e-01
   3.0600000e+03  -7.2182041e-01
   3.0700000e+03  -7.2008443e-01
   3.0800000e+03  -7.1835876e-01
   3.0900000e+03  -7.1664328e-01
   3.1000000e+03  -7.1493792e-01
   3.1100000e+03  -7.1324258e-01
   3.1200000e+03  -7.1155716e-01
   3.1300000e+03  -7.0988158e-01
   3.1400000e+03  -7.0821574e-01
   3.1500000e+03  -7.0655955e-01
   3.1600000e+03  -7.0491293e-01
   3.1700000e+03  -7.0327579e-01
   3.1800000e+03  -7.0164804e-01
   3.1900000e+03  -7.0002960e-01
   3.2000000e+03  -6.9842038e-01
   3.2100000e+03  -6.9682031e-01
   3.2200000e+03  -6.9522929e-01
   3.2300000e+03  -6.9364726e-01
   3.2400000e+03  -6.9207412e-01
   3.2500000e+03  -6.9050981e-01
   3.2600000e+03  -6.8895423e-01
   3.2700000e+03  -6.8740733e-01
   3.2800000e+03  -6.8586901e-01
   3.2900000e+03  -6.8433921e-01
   3.3000000e+03  -6.8281785e-01
   3.3100000e+03  -6.8130486e-01
   3.3200000e+03  -6.7980016e-01
   3.3300000e+03  -6.7830368e-01
   3.3400000e+03  -6.7681536e-01
   3.3500000e+03  -6.7533512e-01
   3.3600000e+03  -6.7386289e-01
   3.3700000e+03  -6.7239860e-01
   3.3800000e+03  -6.7094220e-01
   3.3900000e+03  -6.6949360e-01
   3.4000000e+03  -6.6805275e-01
   3.4100000e+03  -6.6661958e-01
   3.4200000e+03  -6.6519402e-01
   3.4300000e+03  -6.6377601e-01
   3.4400000e+03  -6.6236550e-01
   3.4500000e+03  -6.6096240e-01
   3.4600000e+03  -6.5956667e-01
   3.4700000e+03  -6.5817825e-01
   3.4800000e+03  -6.5679707e-01
   3.4900000e+03  -6.5542307e-01
   3.5000000e+03  -6.5405619e-01
   3.5100000e+03  -6.5269638e-01
   3.5200000e+03  -6.5134358e-01
   3.5300000e+03  -6.4999773e-01
   3.5400000e+03  -6.4865878e-01
   3.5500000e+03  -6.4732667e-01
   3.5600000e+03  -6.4600134e-01
   3.5700000e+03  -6.4468274e-01
   3.5800000e+03  -6.4337082e-01
   3.5900000e+03  -6.4206552e-01
   3.6000000e+03  -6.4076679e-01
   3.6100000e+03  -6.3947457e-01
   3.6200000e+03  -6.3818883e-01
   3.6300000e+03  -6.3690950e-01
   3.6400000e+03  -6.3563653e-01
   3.6500000e+03  -6.3436988e-01
   3.6600000e+03  -6.3310950e-01
   3.6700000e+03  -6.3185533e-01
   3.6800000e+03  -6.3060732e-01
   3.6900000e+03  -6.2936544e-01
   3.7000000e+03  -6.2812964e-01
   3.7100000e+03  -6.2689985e-01
   3.7200000e+03  -6.2567605e-01
   3.7300000e+03  -6.2445818e-01
   3.7400000e+03  -6.2324620e-01
   3.7500000e+03  -6.2204007e-01
   3.7600000e+03  -6.2083973e-01
   3.7700000e+03  -6.1964515e-01
   3.7800000e+03  -6.1845628e-01
   3.7900000e+03  -6.1727307e-01
   3.8000000e+03  -6.1609550e-01
   3.8100000e+03  -6.1492350e-01
   3.8200000e+03  -6.1375705e-01
   3.8300000e+03  -6.1259610e-01
   3.8400000e+03  -6.1144060e-01
   3.8500000e+03  -6.1029053e-01
   3.8600000e+03  -6.0914584e-01
   3.8700000e+03  -6.0800648e-01
   3.8800000e+03  -6.0687242e-01
   3.8900000e+03  -6.0574363e-01
   3.9000000e+03  -6.0462005e-01
   3.9100000e+03  -6.0350166e-01
   3.9200000e+03  -6.0238842e-01
   3.9300000e+03  -6.0128028e-01
   3.9400000e+03  -6.0017722e-01
   3.9500000e+03  -5.9907919e-01
   3.9600000e+03  -5.9798616e-01
   3.9700000e+03  -5.9689810e-01
   3.9800000e+03  -5.9581496e-01
   3.9900000e+03  -5.9473671e-01
   4.0000000e+03  -5.9366332e-01
