$MeshFormat
2.2 0 8
$EndMeshFormat
$PhysicalNames
5
1 1 "left"
1 2 "right"
1 3 "bottom"
1 4 "top"
2 5 "material"
$EndPhysicalNames
$Nodes
102
1 -3.141592653589793 0 0
2 3.141592653589793 0 0
3 3.141592653589793 2 0
4 -3.141592653589793 2 0
5 -1.570796326794897 2 0
6 1.570796326794897 2 0
7 -3.141592653589793 1.500000000000693 0
8 -3.141592653589793 1.000000000004118 0
9 -3.141592653589793 0.5000000000020808 0
10 -2.658270706884625 0 0
11 -2.17494876017969 0 0
12 -1.691626813474812 0 0
13 -1.208304866770048 0 0
14 -0.7249829200651674 0 0
15 -0.2416609733603536 0 0
16 0.2416609733457551 0 0
17 0.7249829200530713 0 0
18 1.208304866760487 0 0
19 1.691626813467691 0 0
20 2.174948760175174 0 0
21 2.658270706882311 0 0
22 3.141592653589793 0.4999999999988241 0
23 3.141592653589793 0.999999999997388 0
24 3.141592653589793 1.499999999998683 0
25 2.748893571891893 2 0
26 2.356194490194339 2 0
27 1.963495408494704 2 0
28 1.121997376282998 2 0
29 0.6731984257714095 2 0
30 0.224399475259778 2 0
31 -0.2243994752529812 2 0
32 -0.6731984257670107 2 0
33 -1.121997376280953 2 0
34 -1.963495408492753 2 0
35 -2.356194490190263 2 0
36 -2.748893571889941 2 0
37 -1.767145867643825 1.008212503662251 0
38 1.75173468619397 1.001309494396027 0
39 0.03725493499229688 1.032669068160297 0
40 -0.8828271198855328 1.132012703079827 0
41 0.8828271198894162 1.132012703082285 0
42 -2.406665747348467 1.311689031424834 0
43 2.411936129177894 1.304726489284787 0
44 -2.304613193496964 0.6390273424266121 0
45 2.304613193498309 0.639027342425979 0
46 -1.24741922980603 0.6394498041860699 0
47 1.247419229806517 0.6394498041853747 0
48 -0.5109660035715137 0.6068528230632704 0
49 0.5109660035779675 0.6068528230670733 0
50 -1.314119671974678 1.424380508581895 0
51 1.314119671977994 1.424380508582512 0
52 -0.4350606255007631 1.420358849502401 0
53 0.3794817413189572 1.389112046902866 0
54 -1.936034609359438 1.450469718205324 0
55 1.939852300348793 1.447013272122528 0
56 -0.001004096676413758 0.4699786681137403 0
57 -1.893523800347347 0.4979917511120505 0
58 1.894961777328327 0.4960557634115315 0
59 -0.8975979010239821 1.59488750492664 0
60 0.8830365715898681 1.627148811745393 0
61 -2.678643904502595 0.8809083618611458 0
62 2.682461595489131 0.8774519157776594 0
63 -0.007755646817627849 1.659364972529891 0
64 -2.552544031040102 1.656578207745328 0
65 2.552544031043116 1.656578207744721 0
66 -1.353603377801265 1.03285911071364 0
67 1.353603377801819 1.032859110713625 0
68 -0.9240980161717622 0.3796196294020168 0
69 0.9240980161697572 0.3796196294009381 0
70 -0.4427443062188786 1.007980584301568 0
71 0.4811359566477371 0.9736613861019556 0
72 -2.701836933238904 0.4414870775028211 0
73 2.701836933239303 0.4414870775018525 0
74 -2.226432767241301 1.682177671784196 0
75 2.227644510286075 1.680788473354591 0
76 -2.163170824557987 0.9782256556343886 0
77 2.160636766108722 1.005244064004982 0
78 -2.81277156846647 1.311122485177458 0
79 2.813781354335279 1.309964819818333 0
80 -1.478599828153313 0.3151043676005997 0
81 1.478599828154546 0.3151043676033837 0
82 0.9227424381190703 0.7667739593176111 0
83 -0.9227424381222912 0.7667739593191533 0
84 -1.60697614316091 1.676906731022829 0
85 1.606976143165035 1.676906731022987 0
86 -2.878851003128544 1.697855759047308 0
87 2.878851003131014 1.697855759047947 0
88 -2.346696985204816 0.30751987744373 0
89 2.35773881296018 0.3072730358807674 0
90 0.4833219466994132 0.2559389236528365 0
91 -0.4833219467127605 0.2559389236502336 0
92 -1.549425113276797 0.7091645576961462 0
93 1.549425113277639 0.7091645576961346 0
94 0.4487989505155938 1.760124924295454 0
95 -0.448798950509996 1.760124924295759 0
96 -1.648508946112771 1.294959858914052 0
97 1.611674472637074 1.309315835216533 0
98 1.304553999177691 1.748491366619894 0
99 -1.304553999173879 1.748491366619153 0
100 -0.08143429161359479 1.315018695890639 0
101 0.1718153831272675 0.7559608358056257 0
102 -0.1721835044591672 0.7566247405739669 0
$EndNodes
$Elements
202
1 1 2 1 1 4 7
2 1 2 1 1 7 8
3 1 2 1 1 8 9
4 1 2 1 1 9 1
5 1 2 3 2 1 10
6 1 2 3 2 10 11
7 1 2 3 2 11 12
8 1 2 3 2 12 13
9 1 2 3 2 13 14
10 1 2 3 2 14 15
11 1 2 3 2 15 16
12 1 2 3 2 16 17
13 1 2 3 2 17 18
14 1 2 3 2 18 19
15 1 2 3 2 19 20
16 1 2 3 2 20 21
17 1 2 3 2 21 2
18 1 2 2 3 2 22
19 1 2 2 3 22 23
20 1 2 2 3 23 24
21 1 2 2 3 24 3
22 1 2 4 4 3 25
23 1 2 4 4 25 26
24 1 2 4 4 26 27
25 1 2 4 4 27 6
26 1 2 4 5 6 28
27 1 2 4 5 28 29
28 1 2 4 5 29 30
29 1 2 4 5 30 31
30 1 2 4 5 31 32
31 1 2 4 5 32 33
32 1 2 4 5 33 5
33 1 2 4 6 5 34
34 1 2 4 6 34 35
35 1 2 4 6 35 36
36 1 2 4 6 36 4
37 2 2 5 8 42 54 74
38 2 2 5 8 55 43 75
39 2 2 5 8 42 76 54
40 2 2 5 8 55 77 43
41 2 2 5 8 40 59 50
42 2 2 5 8 41 51 60
43 2 2 5 8 40 52 59
44 2 2 5 8 41 60 53
45 2 2 5 8 57 37 76
46 2 2 5 8 38 58 77
47 2 2 5 8 40 50 66
48 2 2 5 8 41 67 51
49 2 2 5 8 57 88 11
50 2 2 5 8 20 89 58
51 2 2 5 8 37 54 76
52 2 2 5 8 55 38 77
53 2 2 5 8 11 12 57
54 2 2 5 8 20 58 19
55 2 2 5 8 57 76 44
56 2 2 5 8 45 77 58
57 2 2 5 8 10 72 1
58 2 2 5 8 2 73 21
59 2 2 5 8 54 84 34
60 2 2 5 8 55 27 85
61 2 2 5 8 39 71 53
62 2 2 5 8 40 70 52
63 2 2 5 8 41 53 71
64 2 2 5 8 9 1 72
65 2 2 5 8 2 22 73
66 2 2 5 8 57 44 88
67 2 2 5 8 45 58 89
68 2 2 5 8 39 53 100
69 2 2 5 8 13 68 80
70 2 2 5 8 18 81 69
71 2 2 5 8 46 80 68
72 2 2 5 8 47 69 81
73 2 2 5 8 37 96 54
74 2 2 5 8 55 97 38
75 2 2 5 8 54 34 74
76 2 2 5 8 55 75 27
77 2 2 5 8 15 16 56
78 2 2 5 8 23 62 22
79 2 2 5 8 8 9 61
80 2 2 5 8 5 34 84
81 2 2 5 8 6 85 27
82 2 2 5 8 22 62 73
83 2 2 5 8 9 72 61
84 2 2 5 8 59 52 95
85 2 2 5 8 60 94 53
86 2 2 5 8 42 61 76
87 2 2 5 8 62 43 77
88 2 2 5 8 49 56 90
89 2 2 5 8 41 82 67
90 2 2 5 8 66 83 40
91 2 2 5 8 48 91 56
92 2 2 5 8 44 76 61
93 2 2 5 8 45 62 77
94 2 2 5 8 28 29 60
95 2 2 5 8 33 59 32
96 2 2 5 8 56 16 90
97 2 2 5 8 56 91 15
98 2 2 5 8 49 101 56
99 2 2 5 8 48 70 83
100 2 2 5 8 49 82 71
101 2 2 5 8 51 98 60
102 2 2 5 8 59 99 50
103 2 2 5 8 48 56 102
104 2 2 5 8 57 92 37
105 2 2 5 8 38 93 58
106 2 2 5 8 13 14 68
107 2 2 5 8 17 18 69
108 2 2 5 8 40 83 70
109 2 2 5 8 41 71 82
110 2 2 5 8 67 82 47
111 2 2 5 8 66 46 83
112 2 2 5 8 35 36 64
113 2 2 5 8 25 26 65
114 2 2 5 8 31 63 30
115 2 2 5 8 4 7 86
116 2 2 5 8 3 87 24
117 2 2 5 8 42 74 64
118 2 2 5 8 43 65 75
119 2 2 5 8 64 86 78
120 2 2 5 8 79 87 65
121 2 2 5 8 32 59 95
122 2 2 5 8 29 94 60
123 2 2 5 8 70 39 100
124 2 2 5 8 35 74 34
125 2 2 5 8 27 75 26
126 2 2 5 8 42 64 78
127 2 2 5 8 43 79 65
128 2 2 5 8 57 12 80
129 2 2 5 8 58 81 19
130 2 2 5 8 63 100 53
131 2 2 5 8 28 60 98
132 2 2 5 8 33 99 59
133 2 2 5 8 70 100 52
134 2 2 5 8 44 61 72
135 2 2 5 8 45 73 62
136 2 2 5 8 31 95 63
137 2 2 5 8 30 63 94
138 2 2 5 8 63 95 52
139 2 2 5 8 63 53 94
140 2 2 5 8 33 5 99
141 2 2 5 8 6 28 98
142 2 2 5 8 4 86 36
143 2 2 5 8 3 25 87
144 2 2 5 8 35 64 74
145 2 2 5 8 26 75 65
146 2 2 5 8 18 19 81
147 2 2 5 8 13 80 12
148 2 2 5 8 39 101 71
149 2 2 5 8 70 102 39
150 2 2 5 8 48 83 68
151 2 2 5 8 49 69 82
152 2 2 5 8 24 79 23
153 2 2 5 8 7 8 78
154 2 2 5 8 11 88 10
155 2 2 5 8 20 21 89
156 2 2 5 8 66 50 96
157 2 2 5 8 67 97 51
158 2 2 5 8 42 78 61
159 2 2 5 8 62 79 43
160 2 2 5 8 66 96 37
161 2 2 5 8 38 97 67
162 2 2 5 8 17 90 16
163 2 2 5 8 14 15 91
164 2 2 5 8 49 90 69
165 2 2 5 8 48 68 91
166 2 2 5 8 31 32 95
167 2 2 5 8 30 94 29
168 2 2 5 8 17 69 90
169 2 2 5 8 14 91 68
170 2 2 5 8 8 61 78
171 2 2 5 8 23 79 62
172 2 2 5 8 66 37 92
173 2 2 5 8 38 67 93
174 2 2 5 8 47 82 69
175 2 2 5 8 46 68 83
176 2 2 5 8 64 36 86
177 2 2 5 8 25 65 87
178 2 2 5 8 46 92 80
179 2 2 5 8 47 81 93
180 2 2 5 8 57 80 92
181 2 2 5 8 58 93 81
182 2 2 5 8 10 88 72
183 2 2 5 8 21 73 89
184 2 2 5 8 66 92 46
185 2 2 5 8 67 47 93
186 2 2 5 8 7 78 86
187 2 2 5 8 24 87 79
188 2 2 5 8 49 71 101
189 2 2 5 8 48 102 70
190 2 2 5 8 63 52 100
191 2 2 5 8 84 54 96
192 2 2 5 8 85 97 55
193 2 2 5 8 84 96 50
194 2 2 5 8 85 51 97
195 2 2 5 8 44 72 88
196 2 2 5 8 45 89 73
197 2 2 5 8 84 99 5
198 2 2 5 8 6 98 85
199 2 2 5 8 101 39 102
200 2 2 5 8 56 101 102
201 2 2 5 8 84 50 99
202 2 2 5 8 85 98 51
$EndElements
