[Info]
Version 1
Dimension 2
NumNodes 8
Num3DElements 0
Num2DElements 3
Num1DElements 1
NumNodeBC 2
NumSaveNodes 0
NumSaveElements 0
Num 2d-line      : 1
Num 2d-line,quad : 0
Num 3d-line      : 0
Num 3d-line,quad : 0
Num triangle     : 0
Num triangle,quad: 0
Num quadr        : 3
Num quadr,quad   : 0
Num tetra        : 0
Num tetra,quad   : 0
Num brick        : 0
Num brick,quad   : 0
Num pyramid      : 0
Num pyramid,quad : 0
Num wedge        : 0
Num wedge,quad   : 0

[Nodes]
#NodeNr x-coord y-coord z-coord
       1  0.0000000000000e+00  0.0000000000000e+00  0.0000000000000e+00
       2  1.2500000000000e-02  0.0000000000000e+00  0.0000000000000e+00
       3  4.1666666666670e-03  0.0000000000000e+00  0.0000000000000e+00
       4  8.3333333333330e-03  0.0000000000000e+00  0.0000000000000e+00
       5  1.2500000000000e-02  1.0000000000000e-03  0.0000000000000e+00
       6  0.0000000000000e+00  1.0000000000000e-03  0.0000000000000e+00
       7  8.3333333333330e-03  1.0000000000000e-03  0.0000000000000e+00
       8  4.1666666666670e-03  1.0000000000000e-03  0.0000000000000e+00

[3D Elements]
#ElemNr  ElemType  NrOfNodes  Level
#Node1 Node2 ... NodeNrOfNodes

[2D Elements]
#ElemNr  ElemType  NrOfNodes  Level
#Node1 Node2 ... NodeNrOfNodes
1 6 4 bar
1 3 8 6
2 6 4 bar
3 4 7 8
3 6 4 bar
4 2 5 7

[1D Elements]
#ElemNr  ElemType  NrOfNodes  Level
#Node1 Node2 ... NodeNrOfNodes
4 100 2 fix
6 1

[Node BC]
#NodeNr Level
       2 massPoints
       5 massPoints

[Save Nodes]
#NodeNr Level

[Save Elements]
#ElemNr Level

