$MeshFormat
2.2 0 8
$EndMeshFormat
$PhysicalNames
5
1 2 "L_left"
1 3 "L_right"
1 4 "L_top"
1 5 "L_bottom"
2 1 "S_flow"
$EndPhysicalNames
$Nodes
122
1 0 0 0
2 0 0.02 0
3 1.2 0 0
4 1.2 0.02 0
5 0.02 0 0
6 0.04 0 0
7 0.06 0 0
8 0.08 0 0
9 0.09999999999999999 0 0
10 0.12 0 0
11 0.14 0 0
12 0.16 0 0
13 0.18 0 0
14 0.2 0 0
15 0.22 0 0
16 0.24 0 0
17 0.26 0 0
18 0.28 0 0
19 0.3 0 0
20 0.32 0 0
21 0.34 0 0
22 0.36 0 0
23 0.3799999999999999 0 0
24 0.4 0 0
25 0.42 0 0
26 0.4399999999999999 0 0
27 0.46 0 0
28 0.48 0 0
29 0.5 0 0
30 0.52 0 0
31 0.54 0 0
32 0.5599999999999999 0 0
33 0.58 0 0
34 0.6 0 0
35 0.62 0 0
36 0.64 0 0
37 0.66 0 0
38 0.6799999999999999 0 0
39 0.7000000000000001 0 0
40 0.72 0 0
41 0.74 0 0
42 0.7599999999999999 0 0
43 0.78 0 0
44 0.7999999999999999 0 0
45 0.82 0 0
46 0.84 0 0
47 0.86 0 0
48 0.8799999999999999 0 0
49 0.8999999999999999 0 0
50 0.92 0 0
51 0.9399999999999999 0 0
52 0.96 0 0
53 0.98 0 0
54 1 0 0
55 1.02 0 0
56 1.04 0 0
57 1.06 0 0
58 1.08 0 0
59 1.1 0 0
60 1.12 0 0
61 1.14 0 0
62 1.16 0 0
63 1.18 0 0
64 0.02 0.02 0
65 0.04 0.02 0
66 0.06 0.02 0
67 0.08 0.02 0
68 0.09999999999999999 0.02 0
69 0.12 0.02 0
70 0.14 0.02 0
71 0.16 0.02 0
72 0.18 0.02 0
73 0.2 0.02 0
74 0.22 0.02 0
75 0.24 0.02 0
76 0.26 0.02 0
77 0.28 0.02 0
78 0.3 0.02 0
79 0.32 0.02 0
80 0.34 0.02 0
81 0.36 0.02 0
82 0.3799999999999999 0.02 0
83 0.4 0.02 0
84 0.42 0.02 0
85 0.4399999999999999 0.02 0
86 0.46 0.02 0
87 0.48 0.02 0
88 0.5 0.02 0
89 0.52 0.02 0
90 0.54 0.02 0
91 0.5599999999999999 0.02 0
92 0.58 0.02 0
93 0.6 0.02 0
94 0.62 0.02 0
95 0.64 0.02 0
96 0.66 0.02 0
97 0.6799999999999999 0.02 0
98 0.7000000000000001 0.02 0
99 0.72 0.02 0
100 0.74 0.02 0
101 0.7599999999999999 0.02 0
102 0.78 0.02 0
103 0.7999999999999999 0.02 0
104 0.82 0.02 0
105 0.84 0.02 0
106 0.86 0.02 0
107 0.8799999999999999 0.02 0
108 0.8999999999999999 0.02 0
109 0.92 0.02 0
110 0.9399999999999999 0.02 0
111 0.96 0.02 0
112 0.98 0.02 0
113 1 0.02 0
114 1.02 0.02 0
115 1.04 0.02 0
116 1.06 0.02 0
117 1.08 0.02 0
118 1.1 0.02 0
119 1.12 0.02 0
120 1.14 0.02 0
121 1.16 0.02 0
122 1.18 0.02 0
$EndNodes
$Elements
182
1 1 2 2 1 1 2
2 1 2 3 2 3 4
3 1 2 5 3 1 5
4 1 2 5 3 5 6
5 1 2 5 3 6 7
6 1 2 5 3 7 8
7 1 2 5 3 8 9
8 1 2 5 3 9 10
9 1 2 5 3 10 11
10 1 2 5 3 11 12
11 1 2 5 3 12 13
12 1 2 5 3 13 14
13 1 2 5 3 14 15
14 1 2 5 3 15 16
15 1 2 5 3 16 17
16 1 2 5 3 17 18
17 1 2 5 3 18 19
18 1 2 5 3 19 20
19 1 2 5 3 20 21
20 1 2 5 3 21 22
21 1 2 5 3 22 23
22 1 2 5 3 23 24
23 1 2 5 3 24 25
24 1 2 5 3 25 26
25 1 2 5 3 26 27
26 1 2 5 3 27 28
27 1 2 5 3 28 29
28 1 2 5 3 29 30
29 1 2 5 3 30 31
30 1 2 5 3 31 32
31 1 2 5 3 32 33
32 1 2 5 3 33 34
33 1 2 5 3 34 35
34 1 2 5 3 35 36
35 1 2 5 3 36 37
36 1 2 5 3 37 38
37 1 2 5 3 38 39
38 1 2 5 3 39 40
39 1 2 5 3 40 41
40 1 2 5 3 41 42
41 1 2 5 3 42 43
42 1 2 5 3 43 44
43 1 2 5 3 44 45
44 1 2 5 3 45 46
45 1 2 5 3 46 47
46 1 2 5 3 47 48
47 1 2 5 3 48 49
48 1 2 5 3 49 50
49 1 2 5 3 50 51
50 1 2 5 3 51 52
51 1 2 5 3 52 53
52 1 2 5 3 53 54
53 1 2 5 3 54 55
54 1 2 5 3 55 56
55 1 2 5 3 56 57
56 1 2 5 3 57 58
57 1 2 5 3 58 59
58 1 2 5 3 59 60
59 1 2 5 3 60 61
60 1 2 5 3 61 62
61 1 2 5 3 62 63
62 1 2 5 3 63 3
63 1 2 4 4 2 64
64 1 2 4 4 64 65
65 1 2 4 4 65 66
66 1 2 4 4 66 67
67 1 2 4 4 67 68
68 1 2 4 4 68 69
69 1 2 4 4 69 70
70 1 2 4 4 70 71
71 1 2 4 4 71 72
72 1 2 4 4 72 73
73 1 2 4 4 73 74
74 1 2 4 4 74 75
75 1 2 4 4 75 76
76 1 2 4 4 76 77
77 1 2 4 4 77 78
78 1 2 4 4 78 79
79 1 2 4 4 79 80
80 1 2 4 4 80 81
81 1 2 4 4 81 82
82 1 2 4 4 82 83
83 1 2 4 4 83 84
84 1 2 4 4 84 85
85 1 2 4 4 85 86
86 1 2 4 4 86 87
87 1 2 4 4 87 88
88 1 2 4 4 88 89
89 1 2 4 4 89 90
90 1 2 4 4 90 91
91 1 2 4 4 91 92
92 1 2 4 4 92 93
93 1 2 4 4 93 94
94 1 2 4 4 94 95
95 1 2 4 4 95 96
96 1 2 4 4 96 97
97 1 2 4 4 97 98
98 1 2 4 4 98 99
99 1 2 4 4 99 100
100 1 2 4 4 100 101
101 1 2 4 4 101 102
102 1 2 4 4 102 103
103 1 2 4 4 103 104
104 1 2 4 4 104 105
105 1 2 4 4 105 106
106 1 2 4 4 106 107
107 1 2 4 4 107 108
108 1 2 4 4 108 109
109 1 2 4 4 109 110
110 1 2 4 4 110 111
111 1 2 4 4 111 112
112 1 2 4 4 112 113
113 1 2 4 4 113 114
114 1 2 4 4 114 115
115 1 2 4 4 115 116
116 1 2 4 4 116 117
117 1 2 4 4 117 118
118 1 2 4 4 118 119
119 1 2 4 4 119 120
120 1 2 4 4 120 121
121 1 2 4 4 121 122
122 1 2 4 4 122 4
123 3 2 1 5 1 2 64 5
124 3 2 1 5 5 64 65 6
125 3 2 1 5 6 65 66 7
126 3 2 1 5 7 66 67 8
127 3 2 1 5 8 67 68 9
128 3 2 1 5 9 68 69 10
129 3 2 1 5 10 69 70 11
130 3 2 1 5 11 70 71 12
131 3 2 1 5 12 71 72 13
132 3 2 1 5 13 72 73 14
133 3 2 1 5 14 73 74 15
134 3 2 1 5 15 74 75 16
135 3 2 1 5 16 75 76 17
136 3 2 1 5 17 76 77 18
137 3 2 1 5 18 77 78 19
138 3 2 1 5 19 78 79 20
139 3 2 1 5 20 79 80 21
140 3 2 1 5 21 80 81 22
141 3 2 1 5 22 81 82 23
142 3 2 1 5 23 82 83 24
143 3 2 1 5 24 83 84 25
144 3 2 1 5 25 84 85 26
145 3 2 1 5 26 85 86 27
146 3 2 1 5 27 86 87 28
147 3 2 1 5 28 87 88 29
148 3 2 1 5 29 88 89 30
149 3 2 1 5 30 89 90 31
150 3 2 1 5 31 90 91 32
151 3 2 1 5 32 91 92 33
152 3 2 1 5 33 92 93 34
153 3 2 1 5 34 93 94 35
154 3 2 1 5 35 94 95 36
155 3 2 1 5 36 95 96 37
156 3 2 1 5 37 96 97 38
157 3 2 1 5 38 97 98 39
158 3 2 1 5 39 98 99 40
159 3 2 1 5 40 99 100 41
160 3 2 1 5 41 100 101 42
161 3 2 1 5 42 101 102 43
162 3 2 1 5 43 102 103 44
163 3 2 1 5 44 103 104 45
164 3 2 1 5 45 104 105 46
165 3 2 1 5 46 105 106 47
166 3 2 1 5 47 106 107 48
167 3 2 1 5 48 107 108 49
168 3 2 1 5 49 108 109 50
169 3 2 1 5 50 109 110 51
170 3 2 1 5 51 110 111 52
171 3 2 1 5 52 111 112 53
172 3 2 1 5 53 112 113 54
173 3 2 1 5 54 113 114 55
174 3 2 1 5 55 114 115 56
175 3 2 1 5 56 115 116 57
176 3 2 1 5 57 116 117 58
177 3 2 1 5 58 117 118 59
178 3 2 1 5 59 118 119 60
179 3 2 1 5 60 119 120 61
180 3 2 1 5 61 120 121 62
181 3 2 1 5 62 121 122 63
182 3 2 1 5 63 122 4 3
$EndElements
$Periodic
1
1 2 1
0
$EndPeriodic
