[Info]
Version 1
Dimension 3
NumNodes 64
Num3DElements 27
Num2DElements 0
Num1DElements 0
NumNodeBC 96
NumSaveNodes 0
NumSaveElements 0
Num 2d-line      : 0
Num 2d-line,quad : 0
Num 3d-line      : 0
Num 3d-line,quad : 0
Num triangle     : 0
Num triangle,quad: 0
Num quadr        : 0
Num quadr,quad   : 0
Num tetra        : 0
Num tetra,quad   : 0
Num brick        : 27
Num brick,quad   : 0
Num pyramid      : 0
Num pyramid,quad : 0
Num wedge        : 0
Num wedge,quad   : 0

[Nodes]
#NodeNr x-coord y-coord z-coord
1  0.0  0.0  0.0
2  0.333333333333  0.0  0.0
3  0.666666666667  0.0  0.0
4  1.0  0.0  0.0
5  0.0  0.333333333333  0.0
6  0.333333333333  0.333333333333  0.0
7  0.666666666667  0.333333333333  0.0
8  1.0  0.333333333333  0.0
9  0.0  0.666666666667  0.0
10  0.333333333333  0.666666666667  0.0
11  0.666666666667  0.666666666667  0.0
12  1.0  0.666666666667  0.0
13  0.0  1.0  0.0
14  0.333333333333  1.0  0.0
15  0.666666666667  1.0  0.0
16  1.0  1.0  0.0
17  0.0  0.0  0.333333333333
18  0.333333333333  0.0  0.333333333333
19  0.666666666667  0.0  0.333333333333
20  1.0  0.0  0.333333333333
21  0.0  0.333333333333  0.333333333333
22  0.333333333333  0.333333333333  0.333333333333
23  0.666666666667  0.333333333333  0.333333333333
24  1.0  0.333333333333  0.333333333333
25  0.0  0.666666666667  0.333333333333
26  0.333333333333  0.666666666667  0.333333333333
27  0.666666666667  0.666666666667  0.333333333333
28  1.0  0.666666666667  0.333333333333
29  0.0  1.0  0.333333333333
30  0.333333333333  1.0  0.333333333333
31  0.666666666667  1.0  0.333333333333
32  1.0  1.0  0.333333333333
33  0.0  0.0  0.666666666667
34  0.333333333333  0.0  0.666666666667
35  0.666666666667  0.0  0.666666666667
36  1.0  0.0  0.666666666667
37  0.0  0.333333333333  0.666666666667
38  0.333333333333  0.333333333333  0.666666666667
39  0.666666666667  0.333333333333  0.666666666667
40  1.0  0.333333333333  0.666666666667
41  0.0  0.666666666667  0.666666666667
42  0.333333333333  0.666666666667  0.666666666667
43  0.666666666667  0.666666666667  0.666666666667
44  1.0  0.666666666667  0.666666666667
45  0.0  1.0  0.666666666667
46  0.333333333333  1.0  0.666666666667
47  0.666666666667  1.0  0.666666666667
48  1.0  1.0  0.666666666667
49  0.0  0.0  1.0
50  0.333333333333  0.0  1.0
51  0.666666666667  0.0  1.0
52  1.0  0.0  1.0
53  0.0  0.333333333333  1.0
54  0.333333333333  0.333333333333  1.0
55  0.666666666667  0.333333333333  1.0
56  1.0  0.333333333333  1.0
57  0.0  0.666666666667  1.0
58  0.333333333333  0.666666666667  1.0
59  0.666666666667  0.666666666667  1.0
60  1.0  0.666666666667  1.0
61  0.0  1.0  1.0
62  0.333333333333  1.0  1.0
63  0.666666666667  1.0  1.0
64  1.0  1.0  1.0

[1D Elements]
#ElemNr  ElemType  NrOfNodes  Level
#Node1 Node2 ... NodeNrOfNodes

[2D Elements]
#ElemNr  ElemType  NrOfNodes  Level
#Node1 Node2 ... NodeNrOfNodes

[3D Elements]
#ElemNr  ElemType  NrOfNodes  Level
#Node1 Node2 ... NodeNrOfNodes
1 10 8 mech
17 21 22 18 1 5 6 2
2 10 8 mech
18 22 23 19 2 6 7 3
3 10 8 mech
19 23 24 20 3 7 8 4
4 10 8 mech
21 25 26 22 5 9 10 6
5 10 8 mech
22 26 27 23 6 10 11 7
6 10 8 mech
23 27 28 24 7 11 12 8
7 10 8 mech
25 29 30 26 9 13 14 10
8 10 8 mech
26 30 31 27 10 14 15 11
9 10 8 mech
27 31 32 28 11 15 16 12
10 10 8 mech
33 37 38 34 17 21 22 18
11 10 8 mech
34 38 39 35 18 22 23 19
12 10 8 mech
35 39 40 36 19 23 24 20
13 10 8 mech
37 41 42 38 21 25 26 22
14 10 8 inner
38 42 43 39 22 26 27 23
15 10 8 mech
39 43 44 40 23 27 28 24
16 10 8 mech
41 45 46 42 25 29 30 26
17 10 8 mech
42 46 47 43 26 30 31 27
18 10 8 mech
43 47 48 44 27 31 32 28
19 10 8 mech
49 53 54 50 33 37 38 34
20 10 8 mech
50 54 55 51 34 38 39 35
21 10 8 mech
51 55 56 52 35 39 40 36
22 10 8 mech
53 57 58 54 37 41 42 38
23 10 8 mech
54 58 59 55 38 42 43 39
24 10 8 mech
55 59 60 56 39 43 44 40
25 10 8 mech
57 61 62 58 41 45 46 42
26 10 8 mech
58 62 63 59 42 46 47 43
27 10 8 mech
59 63 64 60 43 47 48 44

[Node BC]
#NodeNr Level
1 down
2 down
3 down
4 down
5 down
6 down
7 down
8 down
9 down
10 down
11 down
12 down
13 down
14 down
15 down
16 down
49 up
50 up
51 up
52 up
53 up
54 up
55 up
56 up
57 up
58 up
59 up
60 up
61 up
62 up
63 up
64 up
1 front
2 front
3 front
4 front
17 front
18 front
19 front
20 front
33 front
34 front
35 front
36 front
49 front
50 front
51 front
52 front
13 back
14 back
15 back
16 back
29 back
30 back
31 back
32 back
45 back
46 back
47 back
48 back
61 back
62 back
63 back
64 back
1 left
5 left
9 left
13 left
17 left
21 left
25 left
29 left
33 left
37 left
41 left
45 left
49 left
53 left
57 left
61 left
4 right
8 right
12 right
16 right
20 right
24 right
28 right
32 right
36 right
40 right
44 right
48 right
52 right
56 right
60 right
64 right

[Save Nodes]
#NodeNr Level

[Save Elements]
#ElemNr Level

